$MeshFormat
2.2 0 8
$EndMeshFormat
$PhysicalNames
4
2 2 "inflow"
2 3 "outflow"
2 4 "wall"
3 1 "channel"
$EndPhysicalNames
$Nodes
590
1 1 0 0
2 0.8660256249168368 0.4999996169872557 0
3 1.125833312391888 0.6499995020834324 0
4 1.3 0 0
5 1.3 0 0.3
6 1.125833312391888 0.6499995020834324 0.3
7 0.8660256249168368 0.4999996169872557 0.3
8 1 0 0.3
9 1.099999999999971 0 0
10 1.200000000000202 0 0
11 1.049999999999885 0 0
12 1.150000000000063 0 0
13 1.250000000000066 0 0
14 1.295053115870909 0.1133023701122366 0
15 1.280250112195311 0.2257424422298429 0
16 1.255703648579284 0.3364644809555308 0
17 1.221600538116939 0.4446258261419431 0
18 1.178200325632745 0.5494033060320026 0
19 1.298762690146314 0.05670515570837312 0
20 1.288878338547328 0.1696839073792169 0
21 1.26918486110636 0.2813712642371825 0
22 1.23983213682489 0.3909172194931147 0
23 1.201043557281114 0.4974880636894992 0
24 1.153114326488211 0.6002727297217826 0
25 0.9959294686547421 0.5749995595355634 0
26 1.060881390523315 0.6124995308094978 0
27 0.9309775467856902 0.5374995882613522 0
28 0.9945219046141507 0.1045283752989688 0
29 0.9781476375147221 0.207911517777077 0
30 0.9510565982957362 0.3090167420029903 0
31 0.9135456015509456 0.406736319852212 0
32 0.9986295370692144 0.0523359120769526 0
33 0.9876883613508305 0.1564343339938877 0
34 0.9659258835225514 0.2588188315041596 0
35 0.9335805374428362 0.3583676605219075 0
36 0.891006704894015 0.4539901450845707 0
37 1.295053115870909 0.1133023701122366 0.3
38 1.280250112195311 0.2257424422298429 0.3
39 1.255703648579284 0.3364644809555308 0.3
40 1.221600538116939 0.4446258261419431 0.3
41 1.178200325632745 0.5494033060320026 0.3
42 1.298762690146314 0.05670515570837312 0.3
43 1.288878338547328 0.1696839073792169 0.3
44 1.26918486110636 0.2813712642371825 0.3
45 1.23983213682489 0.3909172194931147 0.3
46 1.201043557281114 0.4974880636894992 0.3
47 1.153114326488211 0.6002727297217826 0.3
48 0.9959294686547421 0.5749995595355634 0.3
49 1.060881390523315 0.6124995308094978 0.3
50 0.9309775467856902 0.5374995882613522 0.3
51 0.9135456015508329 0.4067363198524653 0.3
52 0.9510565982953425 0.309016742004202 0.3
53 0.9781476375144285 0.2079115177784585 0.3
54 0.9945219046140809 0.1045283752996341 0.3
55 0.8910067048939387 0.4539901450847206 0.3
56 0.9335805374424866 0.3583676605228183 0.3
57 0.9659258835221045 0.2588188315058274 0.3
58 0.9876883613506741 0.1564343339948753 0.3
59 0.9986295370691977 0.05233591207727206 0.3
60 1.099999999999971 0 0.3
61 1.200000000000202 0 0.3
62 1.049999999999885 0 0.3
63 1.150000000000063 0 0.3
64 1.250000000000066 0 0.3
65 1.3 0 0.1499999999996189
66 1.3 0 0.07499999999982854
67 1.3 0 0.2249999999998037
68 1.125833312391888 0.6499995020834324 0.1499999999996189
69 1.125833312391888 0.6499995020834324 0.07499999999982854
70 1.125833312391888 0.6499995020834324 0.2249999999998037
71 0.8660256249168368 0.4999996169872557 0.1499999999996189
72 0.8660256249168368 0.4999996169872557 0.07499999999982854
73 0.8660256249168368 0.4999996169872557 0.2249999999998037
74 1 0 0.1499999999996189
75 1 0 0.07499999999982854
76 1 0 0.2249999999998037
77 1.173633587090994 0.2476845667018168 0
78 1.091111347814268 0.3565002416556043 0
79 0.9932311266157051 0.4408713657951353 0
80 1.077253455048955 0.1675391127923119 0
81 1.14164375801419 0.1016279627078274 0
82 1.223825331988383 0.135198978744715 0
83 1.120688604050218 0.4877065576254251 0
84 1.179111876220945 0.3727281835775848 0
85 1.065385898366931 0.07890885674180041 0
86 1.056255799709978 0.258857931862946 0
87 1.103568759768075 0.08998273997316678 0
88 1.109932779738074 0.1355656185246088 0
89 1.072235107535426 0.1228861894454205 0
90 1.030029051736701 0.0922531787823312 0
91 1.036350301754606 0.1349668489169587 0
92 1.067731308492222 0.2134527916863101 0
93 1.126113692770578 0.2062432458628863 0
94 1.114889232348164 0.2541872514903963 0
95 1.017473838493441 0.2327536123737233 0
96 1.027866408944528 0.1890202201271515 0
97 1.159933140305097 0.1733933693708581 0
98 1.083411432048304 0.04006709326848115 0
99 1.121972680670338 0.0498398890323961 0
100 1.033445589357235 0.03821923933218258 0
101 1.074761037359192 0.306802683470311 0
102 1.133659111062725 0.3038766892225507 0
103 1.021103075246853 0.3327010273468805 0
104 1.003898055721937 0.2856850535280249 0
105 1.056867568858016 0.4645179819335113 0
106 1.042966979514515 0.4006616101529937 0
107 1.107765422094382 0.4209308734252984 0
108 0.9742533402618887 0.3733494949142114 0
109 1.059083930088009 0.5340298917949217 0
110 0.9967353877797871 0.5071528954512835 0
111 0.9533785758339479 0.4238262704280824 0
112 0.9298906714116223 0.4731413695564851 0
113 1.178023553184191 0.3096982602724614 0
114 1.135059402871413 0.364821791085908 0
115 1.151333654810586 0.4311551711334046 0
116 1.182846110219769 0.1179703886615803 0
117 1.200045514324068 0.192440904536468 0
118 1.252846455844321 0.1794670661822726 0
119 1.226953703704401 0.2375720860384619 0
120 1.171923421463186 0.05205878386031124 0
121 1.213796219245807 0.06684219926830115 0
122 1.248810278986942 0.05452418818111873 0
123 1.259482262511564 0.1246479048540385 0
124 1.215423177521036 0.2908648941403538 0
125 1.217510406379622 0.3553586059033962 0
126 1.200851096608138 0.4081273970310142 0
127 1.171253904347008 0.4674952840641438 0
128 1.126052072768789 0.567797744345146 0
129 1.149747291367802 0.5181396675248146 0
130 1.258306299676308 0.3265964730289011 0.1646067176870576
131 1.229749337763907 0.421564427186678 0.1870877818719788
132 1.296805519188719 0.0910793357555755 0.1898809523808488
133 1.181031488888577 0.5432905504917527 0.1967616213151038
134 1.281405016677207 0.2190917233363414 0.2042454243601923
135 1.28981791016744 0.1623876799861909 0.08849914965980844
136 1.203404393317814 0.4917498003491056 0.08615835222972734
137 1.270765422336583 0.2741445629475904 0.08673115079363122
138 1.242849831775767 0.3812142385259868 0.07499999999998398
139 1.297923744810567 0.07344353379919634 0.08567602040805522
140 1.164567483764713 0.5777391935449123 0.08658399470889
141 1.264807789543181 0.300435110316509 0.1256689342403444
142 1.257947292331316 0.3279765383625948 0.0808655753968076
143 1.250876202328612 0.353989726472322 0.1198033588435208
144 1.270992805017062 0.2730884281599272 0.184426071023625
145 1.276382071023906 0.2466755131113026 0.1454882875769117
146 1.236464191852441 0.4014427758307407 0.1310438909359814
147 1.244933709812991 0.3743528524951599 0.1758472497795182
148 1.243454718533292 0.3792365527705532 0.2435438909359894
149 1.257014657582453 0.3315330309680612 0.2323033588435288
150 1.26991109369423 0.2780751950683922 0.2521227121800961
151 1.263618785322041 0.3053973892836184 0.04336557539681561
152 1.249477094127474 0.3588969089456782 0.03749999999999199
153 1.285924053751213 0.19078607911493 0.1463722870100004
154 1.281510495819939 0.2184739094339086 0.08761515022671984
155 1.285424391540643 0.1941240161143572 0.04424957482990422
156 1.275737338043476 0.2499884883784548 0.04336557539681561
157 1.172925962019808 0.5605753184184149 0.1416728080119969
158 1.192496428220923 0.5176410616250818 0.1414599867724156
159 1.184766325736422 0.5350969570096793 0.08637117346930867
160 1.145770195024385 0.6141747798418477 0.1182919973542544
161 1.15466575377212 0.5972830125374922 0.1733808106573613
162 1.171469582540463 0.5636124707478301 0.043291997354445
163 1.191151225080709 0.5207290648588057 0.04307917611486367
164 1.145770195024385 0.6141747798418477 0.043291997354445
165 1.217082892173213 0.4568470570982024 0.1366230670508531
166 1.224375130854076 0.4369273840652055 0.08057917611485566
167 1.206925996410935 0.483042067720267 0.1919247015935413
168 1.202328510123549 0.4943745075791084 0.2483808106575519
169 1.225729175032439 0.4331142914685416 0.2435438909359894
170 1.232633020723146 0.4130566985571502 0.03749999999999199
171 1.212731378585953 0.4682762041712281 0.04307917611486367
172 1.293803080577868 0.1267816575345889 0.1391900510203286
173 1.290693296122688 0.1552765769327497 0.1970631883705205
174 1.297394598316653 0.08226333483861117 0.137778486394452
175 1.294634884248185 0.1179852384312872 0.08708758503393184
176 1.289314536491086 0.1663370854403063 0.2521227121800961
177 1.295976952668254 0.1021946092154879 0.2449404761904244
178 1.299201134340895 0.04556766975973891 0.1699404761902338
179 1.299480832535389 0.03673643794832775 0.1178380102038371
180 1.299201134340895 0.04556766975973891 0.2449404761904244
181 1.296641597248618 0.09338398301931568 0.04283801020402761
182 1.292668517921161 0.1378698762438981 0.04424957482990422
183 1.280831881175343 0.2224178323894724 0.2521227121800961
184 1.15466575377212 0.5972830125374922 0.2483808106575519
185 1.179619866782289 0.5463487621405713 0.2483808106575519
186 1.299480832535389 0.03673643794832775 0.04283801020402761
187 0.9628295482855107 0.5558893311188076 0.188220486110962
188 1.033714096505522 0.5968145023153572 0.1063700810183666
189 0.9449048726558897 0.5455405253888479 0.08891811342578951
190 1.04882794764591 0.6055404794273186 0.2089181134257895
191 0.9982718223955164 0.5763519167170824 0.1472952835646643
192 0.9893094845807059 0.5711775138521026 0.09764409722207808
193 0.9538672104707002 0.5507149282538277 0.1385692997683757
194 0.9054652487863633 0.5227700711880519 0.1194590567127042
195 0.9144275866011737 0.5279444740530317 0.1691102430552905
196 1.014821782580132 0.5859070309254603 0.05318504050918332
197 0.970417170655316 0.5602700424622056 0.04445905671289475
198 0.9054652487863633 0.5227700711880519 0.04445905671289475
199 1.00582874796571 0.5807149052730631 0.1985692997683758
200 1.041271022075716 0.6011774908713379 0.1576440972220781
201 1.022378708150326 0.590270019481441 0.2544590567128948
202 0.9793795084701264 0.5654444453271854 0.244110243055481
203 1.087330630018899 0.6277699907553754 0.1794590567127042
204 1.079773704448705 0.6234070021993948 0.1281850405089928
205 1.087330630018899 0.6277699907553754 0.2544590567128948
206 0.9144275866011737 0.5279444740530317 0.244110243055481
207 1.079773704448705 0.6234070021993948 0.05318504050918332
208 0.9713089671157554 0.2378211311059729 0.09482988723892645
209 0.9625695328317972 0.2710348583927454 0.2020904238315071
210 0.9875584397386387 0.1572524343245137 0.1864671929616817
211 0.9294574260066442 0.3689293878794473 0.2123952708295452
212 0.936536245212864 0.3505707651852765 0.1098859303165996
213 0.9929636427070815 0.1184196109682996 0.07188284670003785
214 0.9670818481700084 0.254465516210116 0.1484601555352168
215 0.9802618059143079 0.1977037983085295 0.1406485401003041
216 0.9767222672577556 0.214507838185157 0.1942788083965944
217 0.9503852793304314 0.3110752655419873 0.1559881770740534
218 0.9555869706874215 0.2947092490106767 0.102357908777763
219 0.9831793738792066 0.1826425984771659 0.2432335964808409
220 0.9708717334703602 0.2395998271039816 0.2510452119157536
221 0.9472789124480265 0.3204101465797924 0.2072428473305261
222 0.9330419899525536 0.3597674873934259 0.1611406005730724
223 0.940734091113454 0.3391450571907892 0.2561976354147726
224 0.9570015142641232 0.2900829221036205 0.2510452119157536
225 0.9904513752861555 0.1378625155499611 0.1291750198308598
226 0.9839491359708852 0.1784491463194725 0.08335636696948215
227 0.9748430179145351 0.2228925535393264 0.04741494361946322
228 0.9865708895464518 0.1633336459506212 0.03594142335001892
229 0.9440250896702265 0.3298736577435682 0.05494296515829981
230 0.9618417466104863 0.2736063860316297 0.04741494361946322
231 0.9982393607514887 0.05931423645685123 0.1109414233498284
232 0.9968847575669514 0.07887192232144875 0.1682335964806503
233 0.9986295370691979 0.05233591207726864 0.2249999999998094
234 0.9913907299684437 0.1309367042988193 0.2432335964808409
235 0.9001303782108268 0.4356205943502142 0.181197635414582
236 0.9043724726842837 0.4267439872463518 0.1299429651581092
237 0.891006704893978 0.4539901450846433 0.2249999999998094
238 0.9216953840194761 0.3879144481418427 0.2561976354147726
239 0.9982393607514887 0.05931423645685123 0.03594142335001892
240 0.9937670460474123 0.1114767159105446 0.03594142335001892
241 0.9254670995308305 0.3788279922154536 0.05494296515829981
242 0.891006704894041 0.4539901450845198 0.07499999999980946
243 1.222466089365511 0 0.149999999999913
244 1.108516233690795 0 0.214999999999903
245 1.105163720509413 0 0.08583333333323916
246 1.106839977100104 0 0.1504166666665711
247 1.163814904937462 0 0.1179166666665761
248 1.165491161528153 0 0.182499999999908
249 1.152581860254808 0 0.04291666666661958
250 1.211233044682857 0 0.07499999999995652
251 1.154258116845499 0 0.2574999999999515
252 1.211233044682857 0 0.2249999999999565
253 1.261233044682756 0 0.07499999999995652
254 1.261233044682756 0 0.2249999999999565
255 1.261233044682756 0 0.149999999999766
256 1.054258116845398 0 0.1824999999997609
257 1.052581860254707 0 0.117916666666429
258 1.102581860254692 0 0.04291666666661958
259 1.052581860254707 0 0.04291666666661958
260 1.054258116845398 0 0.2574999999999515
261 1.104258116845383 0 0.2574999999999515
262 1.173633587090933 0.2476845667021079 0.3
263 1.091111347814111 0.3565002416560866 0.3
264 0.9932311266155475 0.4408713657954905 0.3
265 1.077253455048862 0.16753911279291 0.3000000000000001
266 1.141643758014168 0.1016279627080715 0.3
267 1.223825331988371 0.1351989787448242 0.3
268 1.120688604050143 0.4877065576255967 0.3
269 1.179111876220872 0.3727281835778151 0.3
270 1.065385898366908 0.07890885674211251 0.3000000000000001
271 1.056255799709774 0.2588579318637766 0.3
272 1.067731308492079 0.2134527916870263 0.3
273 1.126113692770495 0.2062432458633386 0.3
274 1.114889232348033 0.2541872514909729 0.3
275 1.017473838493185 0.2327536123748419 0.2999999999999999
276 1.027866408944343 0.1890202201281628 0.3
277 1.074761037359004 0.3068026834709711 0.3
278 1.133659111062621 0.303876689222942 0.2999999999999999
279 1.021103075246567 0.3327010273477567 0.3
280 1.003898055721642 0.2856850535290591 0.3
281 1.103568759768052 0.08998273997344636 0.3
282 1.109932779738022 0.1355656185250356 0.3
283 1.072235107535374 0.1228861894458752 0.3
284 1.030029051736657 0.09225317878282656 0.3
285 1.036350301754524 0.134966848917593 0.2999999999999999
286 1.159933140305057 0.1733933693711259 0.3000000000000001
287 1.083411432048298 0.04006709326863984 0.3
288 1.121972680670333 0.04983988903251604 0.2999999999999999
289 1.033445589357229 0.03821923933233396 0.3
290 1.178023553184122 0.3096982602727223 0.3
291 1.135059402871297 0.3648217910862697 0.2999999999999999
292 1.215423177521 0.2908648941405045 0.2999999999999999
293 1.217510406379588 0.3553586059035149 0.3
294 1.182846110219751 0.1179703886617596 0.3
295 1.200045514324036 0.1924409045366703 0.3
296 1.252846455844313 0.1794670661823285 0.2999999999999999
297 1.226953703704371 0.237572086038614 0.3
298 1.151333654810511 0.4311551711336051 0.3
299 1.107765422094257 0.4209308734256282 0.3
300 1.200851096608098 0.4081273970311314 0.3
301 1.171253904346972 0.4674952840642335 0.3
302 1.056867568857897 0.4645179819337814 0.3
303 1.042966979514355 0.4006616101534108 0.3
304 1.059083930087968 0.5340298917950027 0.3
305 0.9967353877796964 0.5071528954514618 0.3
306 1.126052072768747 0.5677977443452323 0.3
307 1.149747291367763 0.5181396675249024 0.2999999999999999
308 0.9742533402615843 0.3733494949150064 0.3
309 0.9533785758338131 0.423826270428385 0.2999999999999999
310 0.929890671411538 0.4731413695566514 0.3
311 1.17192342146318 0.05205878386043651 0.3
312 1.213796219245804 0.06684219926835534 0.3
313 1.259482262511558 0.1246479048540947 0.2999999999999999
314 1.248810278986942 0.05452418818111873 0.3000000000000001
315 1.076011649341471 0.4388568128008947 0.1614274332107754
316 1.143178429084526 0.1595071821691723 0.1513204911169751
317 1.122191837696421 0.2995559071967969 0.1280174253585266
318 1.191966890031424 0.08477925884772354 0.09267142484330135
319 1.192175629869634 0.08392811688936291 0.2080177129138241
320 1.087720644329211 0.1065094963309108 0.09047731029979547
321 1.0552442701381 0.5013720304245008 0.09891076801858818
322 1.04328663448845 0.5014993465452926 0.2295713212491635
323 1.131368386415455 0.4208008908270684 0.07576612930010565
324 1.050825446010252 0.3339127466095365 0.2019714307955034
325 1.028035540433748 0.3822867674217258 0.0764858661573118
326 1.072871646506045 0.09907482985558949 0.1983114533578317
327 1.073242982097082 0.2130914453750607 0.09439908611393014
328 1.08014059561124 0.2311296659129779 0.1995496924732832
329 1.139488745936272 0.4249270404475052 0.2264351645420772
330 1.171491205790617 0.310420239795779 0.2180553233947535
331 0.9643988802879632 0.4511356297264927 0.1470579424303925
332 1.197071938959435 0.1907021770858409 0.07592884450775114
333 1.159967865548498 0.1741461166954167 0.242806091788824
334 1.136304568511464 0.05085981771815 0.1501983369679697
335 1.226448111233912 0.2647559815660602 0.2111503738774729
336 1.214898752733463 0.3185083564123401 0.1913310205409056
337 1.227689119317872 0.258649325057371 0.1202677810974044
338 1.184281572375026 0.25056120844081 0.1469920839512523
339 1.239238477818321 0.2048969502110911 0.1400871344339717
340 1.044479183321811 0.5490932663699291 0.1026404245184774
341 1.10737279269705 0.570052526403555 0.1515658511667352
342 1.118137879513339 0.5223312904581268 0.147836194666846
343 1.049265452313275 0.5014356884848967 0.1642410446338758
344 1.112159061688514 0.5223949485185226 0.2131664712821336
345 1.038500365496986 0.5491569244303249 0.1679707011337651
346 1.233918680648009 0.2324233700167156 0.08132999765069118
347 0.9381875749181718 0.4813128254856364 0.244110243055481
348 0.963614214286737 0.5035124804226501 0.1676392142706772
349 0.938972240919398 0.428935974789479 0.2235289712151962
350 0.9152122526024 0.4755676233568742 0.2235289712151962
351 1.069128772436476 0.088991843298851 0.2491557266789159
352 1.036435823253022 0.04953741492779475 0.2491557266789158
353 1.033696775560063 0.1018016025776118 0.2491557266789158
354 1.099140790135118 0.5872768479301347 0.09647703786362832
355 1.109905876951407 0.5395556119847066 0.09274738136373908
356 1.120289566553092 0.5082980031729035 0.1240057139598327
357 1.128521569115024 0.4910736816463237 0.1790945272629396
358 1.065627959739786 0.4701144216126978 0.1301691006146818
359 1.139708021329642 0.4653033065750002 0.1237928927202514
360 1.190249068686365 0.313076190112849 0.1463120715227921
361 1.146841521743519 0.304988073496288 0.17303637437664
362 1.159631888327928 0.2451290421413189 0.1019731349331389
363 1.196478630016502 0.2868502350721936 0.1073742880760789
364 1.260194917088039 0.03672176689959817 0.1178380102039841
365 1.259635804277115 0.04553966787778775 0.1699404761903809
366 1.212291722880867 0.1892994527527568 0.1777829577385837
367 1.157334817437572 0.2349637109824757 0.1846879072558643
368 1.170125184021981 0.1751046796275066 0.1136246678123631
369 0.9613442763110958 0.4049003768374689 0.2561976354147726
370 0.9788150034517553 0.4460034977609916 0.2235289712151962
371 0.9469281531473037 0.41003250880297 0.1797266066299688
372 1.167572659557975 0.1221432205084479 0.1219959579801382
373 1.216498169625983 0.1609474310776816 0.1199098203883918
374 1.240892400099432 0.1235834694169572 0.0905852872515549
375 1.192071259950529 0.08435368786854322 0.1503445688785627
376 1.240996770018537 0.1231578984377769 0.1482584312868163
377 1.16767702947708 0.1217176495292676 0.1796691020153996
378 1.085274809438172 0.03945442837090021 0.04291666666661958
379 1.076553271348071 0.09270917653635558 0.04523865514989774
380 1.043860322164605 0.05325474816545538 0.04523865514989774
381 1.096442182419312 0.05325474816545538 0.08815532181651731
382 1.179385328938488 0.025429908859075 0.1500991684839414
383 1.12241040110113 0.025429908859075 0.1825991684839364
384 1.120734144510439 0.025429908859075 0.1180158351506045
385 1.142628043907466 0.5327228755851687 0.043291997354445
386 1.07720135027787 0.5422605299703911 0.05318504050918332
387 1.025586869396421 0.5381857949800322 0.04945538400929409
388 1.087966437094159 0.494539294024963 0.04945538400929409
389 1.244386204610071 0.08792929730164953 0.1412761886120751
390 1.244490574529177 0.08750372632246921 0.1989493326473364
391 1.207320859617573 0.04196405844468146 0.1790088564568686
392 1.246087814934817 0.04196405844468146 0.2540088564569121
393 1.0220282863129 0.3873920562025135 0.2509857153977517
394 1.070968396912181 0.3452064941328116 0.2509857153977517
395 1.095157095973262 0.3794198935285208 0.2142032976687903
396 1.115300046875191 0.390713641051796 0.2632175822710386
397 1.06635993627591 0.4328992031214979 0.2632175822710386
398 1.196087814934918 0.04196405844468146 0.2540088564569121
399 1.208241709433381 0.3144494026139019 0.03749999999999199
400 1.210980853998356 0.3769712110517858 0.03749999999999199
401 1.182520834736094 0.3403850728613919 0.1015087126792553
402 1.150651856958683 0.3361420453871908 0.06400871267926329
403 1.147912712393708 0.2736202369493069 0.06400871267926329
404 1.114929718267244 0.5744155149595356 0.2028398673704466
405 1.04605729106718 0.5535199129863055 0.2192447173374765
406 1.219991974136623 0.1252932589623739 0.1706007217489119
407 0.9152122526024 0.4755676233568742 0.1485289712150057
408 1.132685133390474 0.2295315446829846 0.1396689582377508
409 1.129324331727957 0.4965609153868032 0.09253456012415776
410 1.103690017878463 0.4298288518139816 0.1185967812554405
411 1.167386389866634 0.456275345588087 0.0809622407649165
412 1.093306328276777 0.4610864606257846 0.08733844865934692
413 1.084758275848027 0.5466235185264576 0.2544590567128948
414 1.113514136639327 0.5774718927296606 0.2544590567128948
415 1.110743480060597 0.5254513262886475 0.2647856606245818
416 1.081987619269297 0.4946029520854447 0.2647856606245818
417 1.208000480929003 0.1095635478170936 0.2540088564569121
418 1.243614372870272 0.09861524350079975 0.2540088564569121
419 1.059649141914961 0.4701780796730937 0.1954993772299695
420 1.018258880551999 0.4711853561703915 0.2647856606245818
421 1.034621387978509 0.4398640892981926 0.2307137166053877
422 1.107750197638871 0.4318919266242 0.1939312988764263
423 1.091387690212361 0.4632131934963989 0.2280032428956204
424 1.15086004646936 0.5154985540586747 0.2483808106575519
425 1.175970587730164 0.3605601671917374 0.1575526036152527
426 1.180558862089681 0.4211826590068732 0.1314269555860422
427 1.126780112055938 0.3601783990119327 0.1018917773293161
428 1.187109109095611 0.4010075646765277 0.07538306465004482
429 1.23679032327342 0.1515099201128521 0.2061315686370082
430 1.036435823253022 0.04953741492779475 0.1741557266787253
431 1.063418547675862 0.3863847797052156 0.1816994320031394
432 1.248961872405385 0.03672176689959817 0.04283801020402761
433 1.260874538399475 0.1043212562719557 0.04283801020402761
434 1.184619041850089 0.4232457338170916 0.206761473207028
435 1.135428566175863 0.4228639656372868 0.1511006469210914
436 1.130840291816346 0.3622414738221511 0.1772262949503019
437 1.002734537674058 0.403893100340171 0.1869113520201603
438 0.9901414360084482 0.3514210672444919 0.2071833508125243
439 1.086951066028851 0.03945442837105625 0.2574999999999515
440 1.09069394009842 0.04953741492779475 0.2066557266788673
441 0.9504675627504136 0.4008531974558846 0.128471936373496
442 0.9389722409194543 0.4289359747893524 0.07352897121519623
443 1.049063681608247 0.05920980548414981 0.0788580900166385
444 1.043860322164605 0.05325474816545538 0.1202386551497072
445 1.040342143518146 0.1124645536496052 0.08118007849991665
446 1.130088674993208 0.456316799036551 0.2632175822710386
447 1.222199504713789 0.2609145648247036 0.04336557539681561
448 1.151573147316512 0.1668266494322945 0.1970632914528995
449 1.165729535669558 0.2422831782455979 0.2304307075917887
450 1.220686441112852 0.1966189200158791 0.2235257580745081
451 1.030215043122342 0.1281636320900516 0.1923893231597567
452 1.011067206563004 0.2858669388577547 0.1484006590172149
453 1.046750402406088 0.2686885191513849 0.1114236562987265
454 1.086508641853337 0.3167343269031667 0.164994428077015
455 1.039430493222 0.3580997570156311 0.1392286484764076
456 1.075113689065085 0.3409213373092613 0.1022516457579192
457 0.9996722537747518 0.3100539492638493 0.08565787669811913
458 1.171446569627043 0.4583384203983054 0.1562967583859023
459 1.207216489698467 0.04238962942386177 0.1213357124216072
460 1.195983445015813 0.04238962942386177 0.04633571242165067
461 1.244945317420995 0.07911139632345994 0.08917372262567828
462 1.020205264814717 0.4449962212636937 0.154242687820584
463 1.003842757388206 0.4763174881358926 0.188314631839778
464 1.252615174332789 0.1771453510405828 0.2521227121800961
465 1.176071747709066 0.1290371167923898 0.2254119023513241
466 1.191896598768435 0.1546725477201205 0.271403045894412
467 1.260315425588545 0.1131391572501999 0.2449404761904244
468 1.099101743518946 0.3692063599988458 0.144722429284651
469 1.042145670071863 0.3205723496423359 0.0382429330786559
470 1.013782383412867 0.2483395314844595 0.04741494361946322
471 1.050639261265415 0.2976891063983932 0.08544247613562098
472 1.022275974606419 0.2254562882405168 0.0946144866764283
473 1.06474939090353 0.2359746886190033 0.04719954305696507
474 1.06229975651558 0.4308361283111019 0.03788306465005283
475 1.126028495232837 0.4542537242262468 0.03788306465005283
476 1.111239867114861 0.3886505662413363 0.03788306465005283
477 1.00305809138698 0.5286943388320501 0.2088959036800627
478 0.978030337450529 0.498380348457149 0.244110243055481
479 1.1552401313182 0.3967645372023266 0.03788306465005283
480 1.0892238187032 0.2792069195298715 0.06400871267926329
481 1.097717409896751 0.2563236762859288 0.1112082557362284
482 1.160260117412424 0.4841087954696289 0.2115983929285905
483 1.148565305270418 0.04238962942386177 0.08925237908827025
484 1.155489975863444 0.3676736401216422 0.2222452439684153
485 1.200620271777262 0.3659923334912285 0.2025715526333661
486 1.207896111009903 0.1099891187962193 0.04633571242165067
487 0.9690679996357974 0.4932059455919916 0.04445905671289475
488 0.9292252371034176 0.47613842262053 0.04445905671289475
489 0.9546518764719265 0.4983380775576703 0.117988027928091
490 0.9788150034518341 0.446003497760814 0.07352897121519623
491 0.9152122526024 0.4755676233568742 0.07352897121519623
492 1.029174770537006 0.09866423385505002 0.03594142335001892
493 1.243444924563438 0.1765449285360159 0.0822139970837798
494 1.150345931780214 0.04196405844468146 0.2115088564568636
495 1.106697715705312 0.5916398364861155 0.1477510540673397
496 1.019608051571596 0.538249453040428 0.2647856606245818
497 1.024237698376903 0.4711216981098181 0.04945538400929409
498 1.000941022152797 0.3214647443068692 0.2509857153977517
499 1.062034214053667 0.2735020959922986 0.1481852584547168
500 1.194519414495429 0.1377407179667822 0.08430013467552624
501 0.9936808456115581 0.3422417558974065 0.1559286805560515
502 0.9822858928233061 0.3664287663035012 0.09318589823695571
503 1.106651592755345 0.3280280744262006 0.06400871267926329
504 1.010633333524727 0.4115790666084306 0.0382429330786559
505 1.079701963424601 0.4015438291243971 0.07612599772870873
506 1.059573444124008 0.369393504538665 0.0382429330786559
507 1.080296145417628 0.1027921630932501 0.1443943818288136
508 1.032917644606563 0.1087472204119446 0.1350971500289347
509 1.082487049689083 0.1370243045616114 0.04523865514989774
510 1.114682201171701 0.1040687295193691 0.04523865514989774
511 1.137162697004195 0.1791206449390764 0.03796442225387557
512 1.169357848486813 0.1461650698968341 0.03796442225387557
513 1.142396291644323 0.1486058367083758 0.08320307740377331
514 1.076691788854161 0.2221105556440193 0.1469743892936067
515 1.025724781363498 0.2344753985094754 0.1471897898561048
516 1.065483020810746 0.2825212062612572 0.2007605616343933
517 1.213597427184951 0.3234423603756549 0.2590276616973767
518 1.225870658992964 0.2680813410128109 0.2590276616973767
519 1.162046498684016 0.4897281789872654 0.04307917611486367
520 1.125079995852482 0.05081398135403577 0.2574999999999515
521 1.107257702260106 0.1003513962818305 0.2491557266789158
522 1.041639905285924 0.4418293989231133 0.08769831708794999
523 0.9707905709923469 0.3945115436369689 0.0382429330786559
524 0.9962172103608558 0.4167111985741092 0.1117719042938521
525 1.101166216653831 0.2653427865548874 0.1637835589159049
526 1.166909693941901 0.09277803979871722 0.2540088564569121
527 1.132523638187839 0.0915014733724762 0.2031645831358279
528 1.111659512347883 0.1953184240410751 0.1754350917951291
529 1.125815900700929 0.2707749528543785 0.2088025079340183
530 1.123403739261802 0.05081398135391371 0.04291666666661958
531 1.166805324022807 0.09320361077777548 0.04633571242165067
532 1.166800726319716 0.2109153416987623 0.271403045894412
533 1.150805811781333 0.1378870397017441 0.271403045894412
534 0.9895460693647422 0.345651754712358 0.0382429330786559
535 1.075062550777453 0.1333069713242497 0.2491557266789159
536 1.120054230579869 0.2026378913041973 0.2211778921310536
537 1.180544642026605 0.4347764332947242 0.2632175822710386
538 1.006697489421025 0.302473802501141 0.2020309273135052
539 1.021355064221518 0.2510822621528617 0.2008200581523952
540 1.164135729271444 0.06781953828293677 0.1214348809056355
541 1.139843767180317 0.09564437758931715 0.09157436757154841
542 1.075248218573018 0.1903152790836863 0.04719954305696507
543 1.080481813213146 0.1598004708529857 0.0924381982068628
544 1.135157460528259 0.2018968112304508 0.08516396531084064
545 1.009036909211805 0.5286306807716542 0.1435656270647751
546 1.185352763025215 0.2191933718938289 0.03796442225387557
547 1.111158325900435 0.3221664932026578 0.2100133770951284
548 1.172562396440775 0.2790524032489435 0.2590276616973767
549 1.007612163149108 0.3925241881680146 0.1745146866129479
550 1.037639542033925 0.1318809653277122 0.1384722516307386
551 1.03040071091786 0.1851719398497872 0.1404331395378059
552 1.033103312402082 0.1657555281716802 0.08314096640698398
553 1.20443060699239 0.3971463053822465 0.2435438909359894
554 1.175301541005745 0.341574211686797 0.2590276616973767
555 1.05202359488761 0.4105717901113103 0.1189566496840436
556 1.210448635473909 0.1629505779152779 0.03796442225387557
557 1.009821575213032 0.4762538300754968 0.1229843552244903
558 1.164240099190549 0.06739396730375646 0.1791080249408969
559 1.108025037795286 0.1292910060123809 0.1748159722374034
560 1.115449536706869 0.1330083392500415 0.1208989007083853
561 1.073057314301563 0.1560831376153251 0.1463552697358809
562 1.108210705590804 0.1862993137721165 0.1228597886154526
563 1.035108548878018 0.1429793618803058 0.03594142335001892
564 1.025695309805902 0.2105014815760688 0.04719954305696507
565 1.053540622860013 0.2963853392366566 0.2509857153977517
566 1.113873502750196 0.2846390858297778 0.2590276616973767
567 1.131301276802364 0.3334602407259328 0.2590276616973767
568 1.11861066029868 0.1708426147441633 0.2714030458944121
569 1.076506121058642 0.1651022478842837 0.1989305729155574
570 1.220108988871905 0.1999442794626298 0.271403045894412
571 1.03240594739375 0.1623957735587118 0.2432335964808409
572 1.22751930188407 0.2333881450192246 0.2521227121800961
573 1.256821621077912 0.148793329365453 0.04424957482990422
574 1.123438284594038 0.2303880060384388 0.04719954305696507
575 1.068198197660507 0.2449937988883773 0.2497748462366416
576 1.000074571396995 0.5234562779066744 0.09391444072218885
577 1.159300311078572 0.3988276120126601 0.2632175822710386
578 1.033849517674939 0.1941910501187458 0.1930084427174825
579 1.104588107508754 0.07496732378686974 0.1742548951629007
580 1.068152284255732 0.025429908859075 0.1500991684837943
581 1.112012606420338 0.07868465702453037 0.1203378236338826
582 1.116419756027272 0.1366104732755031 0.2205587725733278
583 1.029144116562834 0.2195205918457182 0.2497748462366416
584 1.078697025330051 0.199334389352944 0.2497748462366416
585 1.176484462266197 0.4327133584845058 0.03788306465005283
586 1.009412666270786 0.264946395128261 0.2510452119157536
587 1.108111832629136 0.2165020242795967 0.271403045894412
588 1.126887091351086 0.2394071163075429 0.2497748462366416
589 1.238661025577373 0.2082223096578419 0.03796442225387557
590 1.139741498797995 0.1051834999436612 0.1507594140424724
$EndNodes
$Elements
469
1 9 2 4 6 85 81 80 87 88 89
2 9 2 4 6 28 85 80 90 89 91
3 9 2 4 6 86 80 77 92 93 94
4 9 2 4 6 86 29 80 95 96 92
5 9 2 4 6 77 80 81 93 88 97
6 9 2 4 6 80 29 28 96 33 91
7 9 2 4 6 81 85 9 87 98 99
8 9 2 4 6 85 28 1 90 32 100
9 9 2 4 6 9 85 1 98 100 11
10 9 2 4 6 78 86 77 101 94 102
11 9 2 4 6 86 78 30 101 103 104
12 9 2 4 6 30 29 86 34 95 104
13 9 2 4 6 83 79 78 105 106 107
14 9 2 4 6 79 30 78 108 103 106
15 9 2 4 6 79 83 25 105 109 110
16 9 2 4 6 31 30 79 35 108 111
17 9 2 4 6 31 79 2 111 112 36
18 9 2 4 6 25 2 79 27 112 110
19 9 2 4 6 78 77 84 102 113 114
20 9 2 4 6 78 84 83 114 115 107
21 9 2 4 6 81 82 77 116 117 97
22 9 2 4 6 82 15 77 118 119 117
23 9 2 4 6 81 10 82 120 121 116
24 9 2 4 6 82 10 14 121 122 123
25 9 2 4 6 15 82 14 118 123 20
26 9 2 4 6 84 77 16 113 124 125
27 9 2 4 6 16 77 15 124 119 21
28 9 2 4 6 84 17 83 126 127 115
29 9 2 4 6 3 83 18 128 129 24
30 9 2 4 6 3 25 83 26 109 128
31 9 2 4 6 83 17 18 127 23 129
32 9 2 4 6 81 9 10 99 12 120
33 9 2 4 6 17 84 16 126 125 22
34 9 2 4 6 4 14 10 19 122 13
35 9 2 4 15 130 137 138 141 142 143
36 9 2 4 15 137 130 134 141 144 145
37 9 2 4 15 138 131 130 146 147 143
38 9 2 4 15 131 39 130 148 149 147
39 9 2 4 15 130 39 134 149 150 144
40 9 2 4 15 138 137 16 142 151 152
41 9 2 4 15 134 135 137 153 154 145
42 9 2 4 15 137 135 15 154 155 156
43 9 2 4 15 137 15 16 156 21 151
44 9 2 4 15 140 133 136 157 158 159
45 9 2 4 15 133 140 68 157 160 161
46 9 2 4 15 18 140 136 162 159 163
47 9 2 4 15 68 140 3 160 164 69
48 9 2 4 15 140 18 3 162 24 164
49 9 2 4 15 136 131 138 165 146 166
50 9 2 4 15 136 133 131 158 167 165
51 9 2 4 15 133 40 131 168 169 167
52 9 2 4 15 131 40 39 169 45 148
53 9 2 4 15 136 138 17 166 170 171
54 9 2 4 15 138 16 17 152 22 170
55 9 2 4 15 132 135 134 172 153 173
56 9 2 4 15 132 139 135 174 175 172
57 9 2 4 15 132 134 37 173 176 177
58 9 2 4 15 139 132 65 174 178 179
59 9 2 4 15 132 37 5 177 42 180
60 9 2 4 15 65 132 5 178 180 67
61 9 2 4 15 139 14 135 181 182 175
62 9 2 4 15 15 135 14 155 182 20
63 9 2 4 15 134 38 37 183 43 176
64 9 2 4 15 134 39 38 150 44 183
65 9 2 4 15 133 68 6 161 70 184
66 9 2 4 15 41 133 6 185 184 47
67 9 2 4 15 40 133 41 168 185 46
68 9 2 4 15 136 17 18 171 23 163
69 9 2 4 15 14 139 4 181 186 19
70 9 2 4 15 139 65 4 179 66 186
71 9 2 3 19 187 188 189 191 192 193
72 9 2 3 19 189 71 187 194 195 193
73 9 2 3 19 189 188 25 192 196 197
74 9 2 3 19 71 189 2 194 198 72
75 9 2 3 19 189 25 2 197 27 198
76 9 2 3 19 188 187 190 191 199 200
77 9 2 3 19 48 190 187 201 199 202
78 9 2 3 19 188 190 68 200 203 204
79 9 2 3 19 68 190 6 203 205 70
80 9 2 3 19 190 48 6 201 49 205
81 9 2 3 19 187 71 7 195 73 206
82 9 2 3 19 48 187 7 202 206 50
83 9 2 3 19 188 68 3 204 69 207
84 9 2 3 19 25 188 3 196 207 26
85 9 2 4 23 209 208 210 214 215 216
86 9 2 4 23 208 209 212 214 217 218
87 9 2 4 23 209 210 53 216 219 220
88 9 2 4 23 212 209 211 217 221 222
89 9 2 4 23 52 211 209 223 221 224
90 9 2 4 23 209 53 52 220 57 224
91 9 2 4 23 213 210 208 225 215 226
92 9 2 4 23 208 29 213 227 228 226
93 9 2 4 23 212 30 208 229 230 218
94 9 2 4 23 29 208 30 227 230 34
95 9 2 4 23 210 213 74 225 231 232
96 9 2 4 23 74 54 210 233 234 232
97 9 2 4 23 210 54 53 234 58 219
98 9 2 4 23 212 211 71 222 235 236
99 9 2 4 23 51 71 211 237 235 238
100 9 2 4 23 51 211 52 238 223 56
101 9 2 4 23 1 213 28 239 240 32
102 9 2 4 23 1 74 213 75 231 239
103 9 2 4 23 29 28 213 33 240 228
104 9 2 4 23 212 31 30 241 35 229
105 9 2 4 23 71 31 212 242 241 236
106 9 2 4 23 31 71 2 242 72 36
107 9 2 4 23 71 51 7 237 55 73
108 9 2 4 23 54 74 8 233 76 59
109 9 2 2 27 244 245 243 246 247 248
110 9 2 2 27 245 10 243 249 250 247
111 9 2 2 27 61 244 243 251 248 252
112 9 2 2 27 243 10 4 250 13 253
113 9 2 2 27 61 243 5 252 254 64
114 9 2 2 27 65 243 4 255 253 66
115 9 2 2 27 243 65 5 255 67 254
116 9 2 2 27 245 244 74 246 256 257
117 9 2 2 27 10 245 9 249 258 12
118 9 2 2 27 1 245 74 259 257 75
119 9 2 2 27 1 9 245 11 258 259
120 9 2 2 27 244 8 74 260 76 256
121 9 2 2 27 244 61 60 251 63 261
122 9 2 2 27 60 8 244 62 260 261
123 9 2 4 28 271 265 262 272 273 274
124 9 2 4 28 271 53 265 275 276 272
125 9 2 4 28 263 271 262 277 274 278
126 9 2 4 28 271 263 52 277 279 280
127 9 2 4 28 52 53 271 57 275 280
128 9 2 4 28 270 266 265 281 282 283
129 9 2 4 28 54 270 265 284 283 285
130 9 2 4 28 262 265 266 273 282 286
131 9 2 4 28 265 53 54 276 58 285
132 9 2 4 28 266 270 60 281 287 288
133 9 2 4 28 270 54 8 284 59 289
134 9 2 4 28 60 270 8 287 289 62
135 9 2 4 28 263 262 269 278 290 291
136 9 2 4 28 269 262 39 290 292 293
137 9 2 4 28 266 267 262 294 295 286
138 9 2 4 28 267 38 262 296 297 295
139 9 2 4 28 39 262 38 292 297 44
140 9 2 4 28 263 269 268 291 298 299
141 9 2 4 28 269 40 268 300 301 298
142 9 2 4 28 40 269 39 300 293 45
143 9 2 4 28 268 264 263 302 303 299
144 9 2 4 28 264 268 48 302 304 305
145 9 2 4 28 6 268 41 306 307 47
146 9 2 4 28 6 48 268 49 304 306
147 9 2 4 28 268 40 41 301 46 307
148 9 2 4 28 264 52 263 308 279 303
149 9 2 4 28 51 52 264 56 308 309
150 9 2 4 28 48 7 264 50 310 305
151 9 2 4 28 51 264 7 309 310 55
152 9 2 4 28 266 61 267 311 312 294
153 9 2 4 28 266 60 61 288 63 311
154 9 2 4 28 38 267 37 296 313 43
155 9 2 4 28 267 61 37 312 314 313
156 9 2 4 28 5 37 61 42 314 64
157 11 2 1 1 130 134 330 332 144 335 336 337 338 339
158 11 2 1 1 188 321 133 322 340 342 341 345 344 343
159 11 2 1 1 130 137 134 332 141 145 144 337 339 346
160 11 2 1 1 7 187 51 331 206 347 55 350 349 348
161 11 2 1 1 54 270 8 326 284 289 59 353 352 351
162 11 2 1 1 188 140 133 321 354 157 341 340 342 355
163 11 2 1 1 140 315 133 321 356 357 157 355 342 358
164 11 2 1 1 133 140 136 315 157 159 158 357 359 356
165 11 2 1 1 317 130 330 332 360 336 361 362 338 337
166 11 2 1 1 137 130 317 332 141 360 363 346 362 337
167 11 2 1 1 139 65 243 4 179 255 364 186 253 66
168 11 2 1 1 65 132 243 5 178 365 255 67 254 180
169 11 2 1 1 134 316 330 332 366 367 335 339 338 368
170 11 2 1 1 264 211 51 331 369 238 309 370 349 371
171 11 2 1 1 316 318 135 319 372 374 373 377 376 375
172 11 2 1 1 245 85 1 320 378 100 259 381 380 379
173 11 2 1 1 243 245 244 334 247 246 248 382 383 384
174 11 2 1 1 3 83 18 140 128 129 24 164 162 385
175 11 2 1 1 83 188 25 321 386 196 109 388 387 340
176 11 2 1 1 318 132 135 319 389 172 374 375 376 390
177 11 2 1 1 132 243 5 319 365 254 180 390 392 391
178 11 2 1 1 324 264 263 329 393 303 394 395 396 397
179 11 2 1 1 243 61 5 319 252 64 254 391 392 398
180 11 2 1 1 77 138 84 317 399 400 113 403 402 401
181 11 2 1 1 190 188 133 322 200 341 404 405 344 345
182 11 2 1 1 132 316 135 319 406 373 172 390 376 377
183 11 2 1 1 211 71 51 331 235 237 238 371 349 407
184 11 2 1 1 3 83 140 188 128 385 164 207 354 386
185 11 2 1 1 316 317 330 332 408 361 367 368 338 362
186 11 2 1 1 315 321 136 323 358 409 359 410 411 412
187 11 2 1 1 268 190 41 322 413 414 307 416 415 405
188 11 2 1 1 267 37 61 319 313 314 312 417 398 418
189 11 2 1 1 77 84 138 16 113 400 399 124 152 125
190 11 2 1 1 315 322 264 329 419 420 421 422 397 423
191 11 2 1 1 71 7 51 331 73 55 237 407 349 350
192 11 2 1 1 133 268 41 322 424 307 185 344 415 416
193 11 2 1 1 131 138 317 323 146 401 425 426 427 428
194 11 2 1 1 316 132 134 319 406 173 366 377 429 390
195 11 2 1 1 135 132 134 316 172 173 153 373 366 406
196 11 2 1 1 74 54 8 326 233 59 76 430 352 353
197 11 2 1 1 324 315 264 329 431 421 393 395 397 422
198 11 2 1 1 139 14 10 82 181 122 432 433 121 123
199 11 2 1 1 317 131 323 329 425 426 427 436 435 434
200 11 2 1 1 315 264 211 324 421 369 437 431 438 393
201 11 2 1 1 270 244 8 326 439 260 289 351 352 440
202 11 2 1 1 212 31 71 331 241 242 236 441 407 442
203 11 2 1 1 245 213 74 320 443 231 257 381 444 445
204 11 2 1 1 264 268 263 329 302 299 303 397 396 446
205 11 2 1 1 137 138 77 317 142 399 447 363 403 401
206 11 2 1 1 316 134 330 333 366 335 367 448 449 450
207 11 2 1 1 74 210 54 326 232 234 233 430 353 451
208 11 2 1 1 208 324 317 325 452 454 453 457 456 455
209 11 2 1 1 136 315 323 329 359 410 411 458 435 422
210 11 2 1 1 243 139 10 318 364 432 250 459 460 461
211 11 2 1 1 264 315 211 331 421 437 369 370 371 462
212 11 2 1 1 130 131 138 317 147 146 143 360 401 425
213 11 2 1 1 10 139 243 4 432 364 250 13 253 186
214 11 2 1 1 268 6 41 190 306 47 307 413 414 205
215 11 2 1 1 37 132 5 319 177 180 42 418 392 390
216 11 2 1 1 83 3 25 188 128 26 109 386 196 207
217 11 2 1 1 138 77 16 137 399 124 152 142 151 447
218 11 2 1 1 322 315 264 331 419 421 420 463 370 462
219 11 2 1 1 267 134 319 333 464 429 417 466 465 450
220 11 2 1 1 134 132 267 319 173 467 464 429 417 390
221 11 2 1 1 322 268 264 329 416 302 420 423 397 446
222 11 2 1 1 61 37 5 319 314 42 64 398 392 418
223 11 2 1 1 315 317 323 329 468 427 410 422 435 436
224 11 2 1 1 86 325 208 327 469 457 470 473 472 471
225 11 2 1 1 79 78 83 323 106 107 105 474 475 476
226 11 2 1 1 187 322 264 331 477 420 478 348 370 463
227 11 2 1 1 71 187 7 331 195 206 73 407 350 348
228 11 2 1 1 317 138 84 323 401 400 402 427 479 428
229 11 2 1 1 325 86 317 327 469 480 456 471 481 473
230 11 2 1 1 133 315 136 329 357 359 158 482 458 422
231 11 2 1 1 245 243 10 318 247 250 249 483 460 459
232 11 2 1 1 131 329 317 330 434 436 425 485 361 484
233 11 2 1 1 139 82 10 318 433 121 432 461 460 486
234 11 2 1 1 74 245 1 213 257 259 75 231 239 443
235 11 2 1 1 79 189 31 331 487 488 111 490 442 489
236 11 2 1 1 208 325 317 327 457 456 453 472 481 471
237 11 2 1 1 267 134 37 132 464 176 313 467 177 173
238 11 2 1 1 31 189 2 331 488 198 36 442 491 489
239 11 2 1 1 71 31 2 331 242 36 72 407 491 442
240 11 2 1 1 190 133 41 322 404 185 414 405 415 344
241 11 2 1 1 85 28 1 213 90 32 100 492 239 240
242 11 2 1 1 135 316 134 332 373 366 153 493 339 368
243 11 2 1 1 243 244 61 319 248 251 252 391 398 494
244 11 2 1 1 140 133 190 188 157 404 495 354 200 341
245 11 2 1 1 190 268 48 322 413 304 201 405 496 416
246 11 2 1 1 321 79 83 323 497 105 388 412 475 474
247 11 2 1 1 133 68 140 190 161 160 157 404 495 203
248 11 2 1 1 131 136 323 329 165 411 426 434 435 458
249 11 2 1 1 264 263 52 324 303 279 308 393 498 394
250 11 2 1 1 68 140 190 188 160 495 203 204 200 354
251 11 2 1 1 324 208 317 327 452 453 454 499 481 472
252 11 2 1 1 130 131 317 330 147 425 360 336 361 485
253 11 2 1 1 318 316 135 332 372 373 374 500 493 368
254 11 2 1 1 134 316 319 333 366 377 429 450 465 448
255 11 2 1 1 324 208 212 325 452 218 501 455 502 457
256 11 2 1 1 78 77 84 317 102 113 114 503 402 403
257 11 2 1 1 187 48 7 264 202 50 206 478 310 305
258 11 2 1 1 79 78 323 325 106 476 474 504 505 506
259 11 2 1 1 137 130 138 317 141 143 142 363 401 360
260 11 2 1 1 78 86 317 325 101 480 503 506 456 469
261 11 2 1 1 268 6 190 48 306 205 413 304 201 49
262 11 2 1 1 78 317 84 323 503 402 114 476 479 427
263 11 2 1 1 320 213 74 326 445 231 444 507 430 508
264 11 2 1 1 80 320 81 332 509 510 88 511 512 513
265 11 2 1 1 327 324 208 328 499 452 472 514 515 516
266 11 2 1 1 189 2 79 31 198 112 487 488 111 36
267 11 2 1 1 134 38 39 330 183 44 150 335 517 518
268 11 2 1 1 268 264 48 322 302 305 304 416 496 420
269 11 2 1 1 136 140 83 321 159 385 519 409 388 355
270 11 2 1 1 130 134 39 330 144 150 149 336 517 335
271 11 2 1 1 79 83 25 321 105 109 110 497 387 388
272 11 2 1 1 211 264 52 324 369 308 223 438 498 393
273 11 2 1 1 244 270 266 326 439 281 520 440 521 351
274 11 2 1 1 136 321 83 323 409 388 519 411 475 412
275 11 2 1 1 321 79 323 325 497 474 412 522 505 504
276 11 2 1 1 325 79 31 331 504 111 523 524 442 490
277 11 2 1 1 324 327 317 328 499 481 454 516 525 514
278 11 2 1 1 244 74 8 326 256 76 260 440 352 430
279 11 2 1 1 131 133 136 329 167 158 165 434 458 482
280 11 2 1 1 189 71 2 331 194 72 198 489 491 407
281 11 2 1 1 133 268 40 41 424 301 168 185 46 307
282 11 2 1 1 211 212 71 331 222 236 235 371 407 441
283 11 2 1 1 244 266 319 326 520 526 494 440 527 521
284 11 2 1 1 322 315 133 329 419 357 344 423 482 422
285 11 2 1 1 264 187 48 322 478 202 305 420 496 477
286 11 2 1 1 14 139 10 4 181 432 122 19 13 186
287 11 2 1 1 328 316 317 330 528 408 525 529 361 367
288 11 2 1 1 81 245 10 318 530 249 120 531 460 483
289 11 2 1 1 134 267 37 38 464 313 176 183 43 296
290 11 2 1 1 266 262 267 333 286 295 294 533 466 532
291 11 2 1 1 78 86 77 317 101 94 102 503 403 480
292 11 2 1 1 208 86 30 325 470 104 230 457 534 469
293 11 2 1 1 265 270 54 326 283 284 285 535 353 351
294 11 2 1 1 328 316 330 333 528 367 529 536 449 448
295 11 2 1 1 82 81 10 318 116 120 121 486 460 531
296 11 2 1 1 268 133 40 329 424 168 301 446 537 482
297 11 2 1 1 324 209 208 328 538 214 452 516 515 539
298 11 2 1 1 78 79 30 325 106 108 103 506 534 504
299 11 2 1 1 267 132 37 319 467 177 313 417 418 390
300 11 2 1 1 243 318 245 334 459 483 247 382 384 540
301 11 2 1 1 81 10 245 9 120 249 530 99 258 12
302 11 2 1 1 85 245 81 320 378 530 87 379 510 381
303 11 2 1 1 315 324 317 329 431 454 468 422 436 395
304 11 2 1 1 245 81 9 85 530 99 258 378 98 87
305 11 2 1 1 244 266 61 319 520 311 251 494 398 526
306 11 2 1 1 244 60 270 8 261 287 439 260 289 62
307 11 2 1 1 320 318 81 332 541 531 510 513 512 500
308 11 2 1 1 266 267 61 319 294 312 311 526 398 417
309 11 2 1 1 266 244 60 270 520 261 288 281 287 439
310 11 2 1 1 80 327 320 332 542 543 509 511 513 544
311 11 2 1 1 6 133 41 190 184 185 47 205 414 404
312 11 2 1 1 245 318 81 320 483 531 530 381 510 541
313 11 2 1 1 187 321 188 322 545 340 191 477 345 343
314 11 2 1 1 213 210 74 326 225 232 231 508 430 451
315 11 2 1 1 209 208 212 324 214 218 217 538 501 452
316 11 2 1 1 318 243 132 319 459 365 389 375 390 391
317 11 2 1 1 137 317 77 332 363 403 447 346 546 362
318 11 2 1 1 329 324 317 330 395 454 436 484 361 547
319 11 2 1 1 244 266 60 61 520 288 261 251 63 311
320 11 2 1 1 38 262 39 330 297 292 44 518 517 548
321 11 2 1 1 243 132 139 318 365 174 364 459 461 389
322 11 2 1 1 132 135 139 318 172 175 174 389 461 374
323 11 2 1 1 315 324 211 331 431 438 437 462 371 549
324 11 2 1 1 268 322 133 329 416 344 424 446 482 423
325 11 2 1 1 210 320 213 327 550 445 225 551 552 543
326 11 2 1 1 269 131 39 330 553 148 293 554 517 485
327 11 2 1 1 137 135 134 332 154 153 145 346 339 493
328 11 2 1 1 324 315 325 331 431 555 455 549 524 462
329 11 2 1 1 9 245 85 1 258 378 98 11 100 259
330 11 2 1 1 82 77 81 332 117 97 116 556 512 546
331 11 2 1 1 131 269 39 40 553 293 148 169 45 300
332 11 2 1 1 187 321 322 331 545 343 477 348 463 557
333 11 2 1 1 212 325 31 331 502 523 241 441 442 524
334 11 2 1 1 320 210 213 326 550 225 445 507 508 451
335 11 2 1 1 243 244 319 334 248 494 391 382 558 383
336 11 2 1 1 189 2 25 79 198 27 197 487 110 112
337 11 2 1 1 326 316 320 327 559 560 507 561 543 562
338 11 2 1 1 213 80 29 327 563 96 228 552 564 542
339 11 2 1 1 271 324 263 330 565 394 277 566 567 547
340 11 2 1 1 265 262 266 333 273 286 282 568 533 532
341 11 2 1 1 327 326 316 328 561 559 562 514 528 569
342 11 2 1 1 78 317 323 325 503 427 476 506 505 456
343 11 2 1 1 324 325 212 331 455 502 501 549 441 524
344 11 2 1 1 134 267 38 333 464 296 183 450 570 466
345 11 2 1 1 210 265 54 326 571 285 234 451 353 535
346 11 2 1 1 210 326 320 327 451 507 550 551 543 561
347 11 2 1 1 138 131 136 323 146 165 166 428 411 426
348 11 2 1 1 133 131 40 329 167 169 168 482 537 434
349 11 2 1 1 211 324 212 331 438 501 222 371 441 549
350 11 2 1 1 134 262 38 330 572 297 183 335 518 548
351 11 2 1 1 135 82 139 318 573 433 175 374 461 486
352 11 2 1 1 131 130 39 330 147 149 148 485 517 336
353 11 2 1 1 317 86 77 327 480 94 403 481 574 473
354 11 2 1 1 321 315 322 331 358 419 343 557 463 462
355 11 2 1 1 85 80 213 320 89 563 492 379 445 509
356 11 2 1 1 263 271 52 324 277 280 279 394 498 565
357 11 2 1 1 324 271 328 330 565 575 516 547 529 566
358 11 2 1 1 321 189 79 331 576 487 497 557 490 489
359 11 2 1 1 68 133 6 190 161 184 70 203 205 404
360 11 2 1 1 86 78 30 325 101 103 104 469 534 506
361 11 2 1 1 14 139 135 82 181 175 182 123 573 433
362 11 2 1 1 85 80 28 213 89 91 90 492 240 563
363 11 2 1 1 77 80 81 332 93 88 97 546 512 511
364 11 2 1 1 320 80 213 327 509 563 445 543 552 542
365 11 2 1 1 134 262 330 333 572 548 335 450 449 532
366 11 2 1 1 83 78 84 323 107 114 115 475 479 476
367 11 2 1 1 317 315 323 325 468 410 427 456 505 555
368 11 2 1 1 28 80 29 213 91 96 33 240 228 563
369 11 2 1 1 268 269 263 329 298 291 299 446 396 577
370 11 2 1 1 208 213 29 327 226 228 227 472 564 552
371 11 2 1 1 132 139 65 243 174 179 178 365 255 364
372 11 2 1 1 270 265 266 326 283 282 281 351 521 535
373 11 2 1 1 265 54 53 210 285 58 276 571 219 234
374 11 2 1 1 326 327 210 328 561 551 451 569 578 514
375 11 2 1 1 52 51 264 211 56 309 308 223 369 238
376 11 2 1 1 320 326 74 334 507 430 444 581 580 579
377 11 2 1 1 326 266 319 333 521 526 527 582 465 533
378 11 2 1 1 271 265 53 328 272 276 275 575 583 584
379 11 2 1 1 212 208 30 325 218 230 229 502 534 457
380 11 2 1 1 265 326 328 333 535 569 584 568 536 582
381 11 2 1 1 79 31 30 325 111 35 108 504 534 523
382 11 2 1 1 324 315 317 325 431 468 454 455 456 555
383 11 2 1 1 327 316 320 332 562 560 543 544 513 368
384 11 2 1 1 318 82 81 332 486 116 531 500 512 556
385 11 2 1 1 262 271 263 330 274 277 278 548 567 566
386 11 2 1 1 68 3 140 188 69 164 160 204 354 207
387 11 2 1 1 245 320 74 334 381 444 257 384 580 581
388 11 2 1 1 265 210 53 328 571 219 276 584 583 578
389 11 2 1 1 265 326 210 328 535 451 571 584 578 569
390 11 2 1 1 324 329 263 330 395 396 394 547 567 484
391 11 2 1 1 317 327 77 332 481 574 403 362 546 544
392 11 2 1 1 190 187 188 322 199 191 200 405 345 477
393 11 2 1 1 189 79 25 321 487 110 197 576 387 497
394 11 2 1 1 83 84 17 323 115 126 127 475 585 479
395 11 2 1 1 326 244 74 334 440 256 430 579 580 383
396 11 2 1 1 326 265 266 333 535 282 521 582 533 568
397 11 2 1 1 208 210 213 327 215 225 226 472 552 551
398 11 2 1 1 244 326 319 334 440 527 494 383 558 579
399 11 2 1 1 209 271 53 328 586 275 220 539 583 575
400 11 2 1 1 271 265 328 333 272 584 575 587 536 568
401 11 2 1 1 244 245 74 334 246 257 256 383 580 384
402 11 2 1 1 271 262 328 330 274 588 575 566 529 548
403 11 2 1 1 325 321 79 331 522 497 504 524 490 557
404 11 2 1 1 82 318 135 332 486 374 573 556 493 500
405 11 2 1 1 83 136 18 140 519 163 129 385 162 159
406 11 2 1 1 316 318 320 332 372 541 560 368 513 500
407 11 2 1 1 327 80 77 332 542 93 574 544 546 511
408 11 2 1 1 316 327 317 332 562 481 408 368 362 544
409 11 2 1 1 269 268 40 329 298 301 300 577 537 446
410 11 2 1 1 329 131 269 330 434 553 577 484 554 485
411 11 2 1 1 187 189 321 331 193 576 545 348 557 489
412 11 2 1 1 31 212 30 325 241 229 35 523 534 502
413 11 2 1 1 84 138 17 323 400 170 126 479 585 428
414 11 2 1 1 135 14 82 15 182 123 573 155 118 20
415 11 2 1 1 187 189 188 321 193 192 191 545 340 576
416 11 2 1 1 262 134 38 333 572 183 297 532 570 450
417 11 2 1 1 138 136 17 323 166 171 170 428 585 411
418 11 2 1 1 269 262 263 330 290 278 291 554 567 548
419 11 2 1 1 136 83 17 323 519 127 171 411 585 475
420 11 2 1 1 267 262 38 333 295 297 296 466 570 532
421 11 2 1 1 329 269 263 330 577 291 396 484 567 554
422 11 2 1 1 86 80 77 327 92 93 94 473 574 542
423 11 2 1 1 271 209 52 324 586 224 280 565 498 538
424 11 2 1 1 211 209 212 324 221 217 222 438 501 538
425 11 2 1 1 80 85 81 320 89 87 88 509 510 379
426 11 2 1 1 327 208 210 328 472 215 551 514 578 515
427 11 2 1 1 265 271 262 333 272 274 273 568 532 587
428 11 2 1 1 136 83 18 17 519 129 163 171 23 127
429 11 2 1 1 210 209 53 328 216 220 219 578 583 539
430 11 2 1 1 318 243 319 334 459 391 375 540 558 382
431 11 2 1 1 208 209 210 328 214 216 215 515 578 539
432 11 2 1 1 324 271 209 328 565 586 538 516 539 575
433 11 2 1 1 131 269 40 329 553 300 169 434 537 577
434 11 2 1 1 262 271 328 333 274 575 588 532 536 587
435 11 2 1 1 326 316 328 333 559 528 569 582 536 448
436 11 2 1 1 245 318 320 334 483 541 381 384 581 540
437 11 2 1 1 209 211 52 324 221 223 224 538 498 438
438 11 2 1 1 327 316 317 328 562 408 481 514 525 528
439 11 2 1 1 80 86 29 327 92 95 96 542 564 473
440 11 2 1 1 262 328 330 333 588 529 548 532 449 536
441 11 2 1 1 77 16 137 15 124 151 447 119 156 21
442 11 2 1 1 262 269 39 330 290 293 292 548 517 554
443 11 2 1 1 316 326 319 333 559 527 377 448 465 582
444 11 2 1 1 266 267 319 333 294 417 526 533 465 466
445 11 2 1 1 82 135 15 332 573 155 118 556 589 493
446 11 2 1 1 86 208 30 29 470 230 104 95 34 227
447 11 2 1 1 86 208 29 327 470 227 95 473 564 472
448 11 2 1 1 324 328 317 330 516 525 454 547 361 529
449 11 2 1 1 271 53 52 209 275 57 280 586 224 220
450 11 2 1 1 326 316 319 334 559 377 527 579 558 590
451 11 2 1 1 315 321 323 325 358 412 410 555 505 522
452 11 2 1 1 316 318 319 334 372 375 377 590 558 540
453 11 2 1 1 77 82 15 332 117 118 119 546 589 556
454 11 2 1 1 138 84 17 16 400 126 170 152 22 125
455 11 2 1 1 325 315 321 331 555 358 522 524 557 462
456 11 2 1 1 135 137 15 332 154 156 155 493 589 346
457 11 2 1 1 137 77 15 332 447 119 156 346 589 546
458 11 2 1 1 316 326 320 334 559 507 560 590 581 579
459 11 2 1 1 318 316 320 334 372 560 541 540 581 590
460 11 2 1 1 188 189 25 321 192 197 196 340 387 576
461 11 2 1 1 187 190 48 322 199 201 202 477 496 405
462 11 2 1 1 189 187 71 331 193 195 194 489 407 348
463 11 2 1 1 315 140 136 321 356 159 359 358 409 355
464 11 2 1 1 187 264 51 331 478 309 347 348 349 370
465 11 2 1 1 321 315 133 322 358 357 342 343 344 419
466 11 2 1 1 140 188 83 321 354 386 385 355 388 340
467 11 2 1 1 85 213 1 320 492 239 100 379 380 445
468 11 2 1 1 51 187 7 264 347 206 55 309 310 478
469 11 2 1 1 213 245 1 320 443 259 239 445 380 381
$EndElements
