
0                         1.0022285219423706
8.33E-4                   0.9744802089331179
0.001667                  0.9209488041836413
0.0025                    0.8439262189829515
0.003333                  0.746138395199971
0.004167                  0.630671634027421
0.005                     0.5014339733038585
0.005833                  0.3622012300366764
0.006667                  0.21686032657286078
0.0075                    0.06987551557816524
0.008333                  -0.0748795389910747
0.009167                  -0.21369417118220907
0.01                      -0.3426354253876265
0.010833                  -0.45864496515665454
0.011667                  -0.5590406913793711
0.0125                    -0.6412961692137157
0.013333                  -0.7038159972569078
0.014167                  -0.7454888895806049
0.015                     -0.7656698359210617
0.015833                  -0.7644791581665414
0.016667                  -0.7425072391037979
0.0175                    -0.7009869673876961
0.018333                  -0.6415856594971622
0.019167                  -0.5663179824766469
0.02                      -0.47785280421499504
0.020833                  -0.3788881534229223
0.021667                  -0.272275614251443
0.0225                    -0.16137888481431956
0.023333                  -0.04921196077747679
0.024167                  0.06127138940249737
0.025                     0.16685535611031618
0.025833                  0.2649399521438456
0.026667                  0.35316760921506113
0.0275                    0.4292095082708979
0.028333                  0.4914531033584825
0.029167                  0.538638896857183
0.03                      0.5697963816080011
0.030833                  0.5845962176686279
0.031667                  0.5830812024515742
0.0325                    0.5657545265562746
0.033333                  0.5335418189736847
0.034167                  0.48767143809778746
0.035                     0.4298819407556599
0.035833                  0.36203483750219234
0.036667                  0.28615993051623606
0.0375                    0.20472375967999626
0.038333                  0.12001215741150391
0.039167                  0.0343165150884104
0.04                      -0.04980450134935027
0.040833                  -0.13020949264609114
0.041667                  -0.20490219422819342
0.0425                    -0.2718370770175288
0.043333                  -0.32950557460107094
0.044167                  -0.37664869408967355
0.045                     -0.4121698283258551
0.045833                  -0.43549378235113023
0.046667                  -0.4463325125936583
0.0475                    -0.44471673073485113
0.048333                  -0.43106248121330015
0.049167                  -0.4060403783780799
0.05                      -0.3707088830593333
0.050833                  -0.3262968475908179
0.051667                  -0.27419831481306534
0.0525                    -0.2161680004112069
0.053333                  -0.15389388298208503
0.054167                  -0.08910848877548141
0.055                     -0.023795816123853387
0.055833                  0.04032897720989016
0.056667                  0.10162734721141711
0.0575                    0.15836827307296583
0.058333                  0.20921231159938705
0.059167                  0.2529899671173265
0.06                      0.28860683401660286
0.060833                  0.31538128804830995
0.061667                  0.3328476363345052
0.0625                    0.3407515678252966
0.063333                  0.3391745917212719
0.064167                  0.3284059213637579
0.065                     0.30902189373656763
0.065833                  0.28178556407379174
0.066667                  0.24761161850213087
0.0675                    0.20770432782533796
0.068333                  0.16327418157945037
0.069167                  0.11559640128276344
0.07                      0.06617040459252516
0.070833                  0.016334669452705987
0.071667                  -0.03260249245145092
0.0725                    -0.07922097547515293
0.073333                  -0.12237747577234892
0.074167                  -0.16103892918057455
0.075                     -0.1941897826556626
0.075833                  -0.22113298920288493
0.076667                  -0.24132949976908244
0.0775                    -0.2543723929695861
0.078333                  -0.26013713564039026
0.079167                  -0.25866412773546743
0.08                      -0.25020025400083296
0.080833                  -0.2351756630484647
0.081667                  -0.2141532744968126
0.0825                    -0.187922520076357
0.083333                  -0.157322284287356
0.084167                  -0.12326368082917014
0.085                     -0.08684980747263557
0.085833                  -0.049098818535803015
0.086667                  -0.011028644791479327
0.0875                    0.026227345090254612
0.088333                  0.06172426391630756
0.089167                  0.0945839103149225
0.09                      0.12390988408959941
0.090833                  0.1490452886948328
0.091667                  0.16944535040574263
0.0925                    0.18464061730696738
0.093333                  0.19439203273641154
0.094167                  0.19858818359208863
0.095                     0.19726123884040048
0.095833                  0.1906115797984548
0.096667                  0.17895166207775245
0.0975                    0.16276664778703165
0.098333                  0.14261353009425926
0.099167                  0.11912090236445978
0.1                       0.09307645708862798
0.100833                  0.06523445600717084
0.101667                  0.03636687820777976
0.1025                    0.007355143765164633
0.103333                  -0.021041582997718907
0.104167                  -0.04810002583178887
0.105                     -0.07305862138732766
0.105833                  -0.09533104763599207
0.106667                  -0.11440769896691608
0.1075                    -0.12981494874596997
0.108333                  -0.14126211761952076
0.109167                  -0.14855480350775171
0.11                      -0.15159435772467442
0.110833                  -0.1504294162073196
0.111667                  -0.14520035915191717
0.1125                    -0.1361758271658217
0.113333                  -0.12370459961293043
0.114167                  -0.10820160689811145
0.115                     -0.0902099205642674
0.115833                  -0.07027238768270457
0.116667                  -0.048959057697235485
0.1175                    -0.026938077548578722
0.118333                  -0.004803645504363387
0.119167                  0.01686494877295943
0.12                      0.03744081524154559
0.120833                  0.05642141965172052
0.121667                  0.0733543132137794
0.1225                    0.08779692470747695
0.123333                  0.09944826456370298
0.124167                  0.10807802231268399
0.125                     0.11351622466943344
0.125833                  0.11571722013315319
0.126667                  0.11470843123807317
0.1275                    0.1106098467000252
0.128333                  0.10362088984129252
0.129167                  0.09399918636043188
0.13                      0.08210289191784455
0.130833                  0.06830983240996093
0.131667                  0.05302878709546117
0.1325                    0.03675289218151979
0.133333                  0.01993549301768076
0.134167                  0.003028641847024347
0.135                     -0.013465805626181892
0.135833                  -0.029131076945676956
0.136667                  -0.04358099422518813
0.1375                    -0.05642293181969404
0.138333                  -0.06737105185789799
0.139167                  -0.07618986396670954
0.14                      -0.08267873848961849
0.140833                  -0.08673881323413637
0.141667                  -0.0883279461622334
0.1425                    -0.0874686352213632
0.143333                  -0.08425676381164095
0.144167                  -0.07883753585553976
0.145                     -0.07143303374459517
0.145833                  -0.06229552645956714
0.146667                  -0.05170828894084489
0.1475                    -0.04002475100283603
0.148333                  -0.02758181910176152
0.149167                  -0.014723349084698809
0.15                      -0.0018407907861524072
0.150833                  0.010729951007159082
0.151667                  0.022669730396270203
0.1525                    0.0336436373633095
0.153333                  0.04339515492914152
0.154167                  0.05170237522087678
0.155                     0.05836052987259075
0.155833                  0.06324590609844351
0.156667                  0.06627770265050867
0.1575                    0.06741846079894105
0.158333                  0.06669528691486987
0.159167                  0.06417579662566916
0.16                      0.0599848785728255
0.160833                  0.054281765005807905
0.161667                  0.04725452897966799
0.1625                    0.039147926208360356
0.163333                  0.030205288723753866
0.164167                  0.020681339983541828
0.165                     0.010873702940424654
0.165833                  0.0010460736423804657
0.166667                  -0.008545140720064718
0.1675                    -0.01762330837005628
0.168333                  -0.025967638281419948
0.169167                  -0.033380074829388505
0.17                      -0.039667878780318716
0.170833                  -0.04470122490199426
0.171667                  -0.04838189286114377
0.1725                    -0.050639184435273495
0.173333                  -0.05145711207112898
0.174167                  -0.05085205269217904
0.175                     -0.04888186185627941
0.175833                  -0.04563879426657933
0.176667                  -0.041240606018677226
0.1775                    -0.035849655009111296
0.178333                  -0.02963601577299212
0.179167                  -0.022783006482346303
0.18                      -0.015510995249423194
0.180833                  -0.008021768594373795
0.181667                  -5.160098350498925E-4
0.1825                    0.006784135602614814
0.183333                  0.013694906013910726
0.184167                  0.02004655614876987
0.185                     0.025667202481979352
0.185833                  0.030432557843807335
0.186667                  0.03424093212606221
0.1875                    0.03700673650420434
0.188333                  0.038689317479093405
0.189167                  0.039273217241024505
0.19                      0.038772062636338075
0.190833                  0.03723147593407434
0.191667                  0.03471877498968655
0.1925                    0.031335487373491115
0.193333                  0.027195782546437078
0.194167                  0.022427244211123357
0.195                     0.01718837938476296
0.195833                  0.011629616491880905
0.196667                  0.005904062021174031
0.1975                    1.8550502890091723E-4
0.198333                  -0.0053774790866653235
0.199167                  -0.010644118690616029
0.2                       -0.015467192451544974
0.200833                  -0.01973453343372202
0.201667                  -0.023349578227376405
0.2025                    -0.026223886726587476
0.203333                  -0.028304918671173275
0.204167                  -0.029559252823689753
0.205                     -0.029973072255061812
0.205833                  -0.029560849804848237
0.206667                  -0.02835493849282433
0.2075                    -0.026413256122726082
0.208333                  -0.023808415401105638
0.209167                  -0.020625595102987948
0.21                      -0.016975038839107864
0.210833                  -0.012965771751922026
0.211667                  -0.008711571065224003
0.2125                    -0.004344964754818642
0.213333                  1.7062155204305117E-5
0.214167                  0.004261056182939601
0.215                     0.008264989823597866
0.215833                  0.011931898147286514
0.216667                  0.015175127486800787
0.2175                    0.01791079567918096
0.218333                  0.020082967927770628
0.219167                  0.021649836046715918
0.22                      0.022582131598692733
0.220833                  0.02287465338198673
0.221667                  0.02253652949240779
0.2225                    0.021595466180266316
0.223333                  0.020094052731261282
0.224167                  0.018086046513501645
0.225                     0.015644986769267146
0.225833                  0.012847387649031495
0.226667                  0.009775420438887267
0.2275                    0.006527522404798641
0.228333                  0.0031934786400311024
0.229167                  -1.3764937089237478E-4
0.23                      -0.0033675615516151284
0.230833                  -0.0064152630065877755
0.231667                  -0.009206171179721659
0.2325                    -0.011665074440862282
0.233333                  -0.013737967713408097
0.234167                  -0.0153809828348635
0.235                     -0.01655767341524304
0.235833                  -0.017251427455458494
0.236667                  -0.017456821239479038
0.2375                    -0.017181510170020956
0.238333                  -0.016447091098946074
0.239167                  -0.015284700842112392
0.24                      -0.013740693845581804
0.240833                  -0.011866699377529545
0.241667                  -0.009720144983420666
0.2425                    -0.007372084388437044
0.243333                  -0.004889657643312177
0.244167                  -0.0023410136394390398
0.245                     1.9671650415878413E-4
0.245833                  0.002657836555017237
0.246667                  0.004980273971829466
0.2475                    0.007099335477400364
0.248333                  0.008965996354659113
0.249167                  0.010538261948933663
0.25                      0.011777969165760275
0.250833                  0.012662850101646436
0.251667                  0.013179151939713096
0.2525                    0.013321981917362929
0.253333                  0.013098837535121928
0.254167                  0.012525105664630973
0.255                     0.01162758004569357
0.255833                  0.010439332757943747
0.256667                  0.008998907974343199
0.2575                    0.007355930383345514
0.258333                  0.005559225450622301
0.259167                  0.0036595933936216427
0.26                      0.0017160271481131068
0.260833                  -2.1959039207011406E-4
0.261667                  -0.002097073527248406
0.2625                    -0.0038626086102583126
0.263333                  -0.005473624828794997
0.264167                  -0.006892223099354614
0.265                     -0.00808191446292683
0.265833                  -0.009018620716005303
0.266667                  -0.00968457488308032
0.2675                    -0.010067715930373868
0.268333                  -0.010166566827814206
0.269167                  -0.009985992725430756
0.27                      -0.009539175735446107
0.270833                  -0.008845732697554086
0.271667                  -0.007930169671103781
0.2725                    -0.0068257641415907224
0.273333                  -0.00556691607252376
0.274167                  -0.004190438797435845
0.275                     -0.0027402855969588967
0.275833                  -0.001256393156058164
0.276667                  2.217250638456725E-4
0.2775                    0.001650581051131088
0.278333                  0.002994483114678527
0.279167                  0.004220668009849905
0.28                      0.0052962322238187766
0.280833                  0.006197717510890929
0.281667                  0.006906209956815914
0.2825                    0.007406208207159629
0.283333                  0.0076909638422342054
0.284167                  0.007758694824100681
0.285                     0.007613496354840025
0.285833                  0.007265536567509071
0.286667                  0.006729177499690428
0.2875                    0.00602554853824457
0.288333                  0.0051779732007465155
0.289167                  0.004212280261067832
0.29                      0.0031603025669586075
0.290833                  0.0020519937008728556
0.291667                  9.176771874943967E-4
0.2925                    -2.0842225963511667E-4
0.293333                  -0.0012972598567519737
0.294167                  -0.002321467538612737
0.295                     -0.0032526176568948625
0.295833                  -0.0040692828772236735
0.296667                  -0.004753199881869154
0.2975                    -0.005287901967436534
0.298333                  -0.005663959029136825
0.299167                  -0.005875731447472655
0.3                       -0.005921578846443425
0.300833                  -0.005805287395715663
0.301667                  -0.0055341236851196495
0.3025                    -0.005120441853401886
0.303333                  -0.004579277152388972
0.304167                  -0.003928047869078796
0.305                     -0.0031890710462803046
0.305833                  -0.0023841982466462452
0.306667                  -0.0015361001925184197
0.3075                    -6.710292380227048E-4
0.308333                  1.8800779355383922E-4
0.309167                  0.0010188118462313557
0.31                      0.0017976476741138636
0.310833                  0.0025058199111563893
0.311667                  0.0031267458792336657
0.3125                    0.0036445432226317235
0.313333                  0.004048839902482385
0.314167                  0.004332081211397396
0.315                     0.004489302558428777
0.315833                  0.004520194865359064
0.316667                  0.0044272554781357104
0.3175                    0.004216702200201443
0.318333                  0.003897536529824219
0.319167                  0.00348090118580045
0.32                      0.0029818286381916434
0.320833                  0.002415766636765746
0.321667                  0.0017991936354686824
0.3225                    0.0011517253572104085
0.323333                  4.91121476003929E-4
0.324167                  -1.6508767292713167E-4
0.325                     -7.97657549581241E-4
0.325833                  -0.001390851580231021
0.326667                  -0.0019302656967457252
0.3275                    -0.0024014881861142865
0.328333                  -0.0027943129336946864
0.329167                  -0.003100568003263702
0.33                      -0.0033136423904140144
0.330833                  -0.0034307894076578502
0.331667                  -0.0034514659156853877
0.3325                    -0.003377765610730691
0.333333                  -0.0032144311440813313
0.334167                  -0.00296804995837134
0.335                     -0.0026482189371190776
0.335833                  -0.00226544981519845
0.336667                  -0.0018313393217619846
0.3375                    -0.0013601336756411747
0.338333                  -8.651883622887512E-4
0.339167                  -3.599932497367785E-4
0.34                      1.402607858571223E-4
0.340833                  6.227234234349248E-4
0.341667                  0.0010753139215882513
0.3425                    0.0014855180755594386
0.343333                  0.0018439471342024463
0.344167                  0.0021426321891620664
0.345                     0.002374435733582366
0.345833                  0.0025353370594783466
0.346667                  0.0026230010349287515
0.3475                    0.0026368914257119693
0.348333                  0.002578853670580168
0.349167                  0.0024522696188550765
0.35                      0.002262788994279651
0.350833                  0.0020172126558956403
0.351667                  0.0017233827058808617
0.3525                    0.001391311157114907
0.353333                  0.00103076286200116
0.354167                  6.518466542834665E-4
0.355                     2.6624569904527346E-4
0.355833                  -1.1583017664751581E-4
0.356667                  -4.845473511414392E-4
0.3575                    -8.294115001718999E-4
0.358333                  -0.0011421838735795982
0.359167                  -0.0014155752949070728
0.36                      -0.0016426286783417872
0.360833                  -0.0018188348273525425
0.361667                  -0.0019409391451815328
0.3625                    -0.002006853414417861
0.363333                  -0.0020165432464442374
0.364167                  -0.0019712165716642724
0.365                     -0.0018737422748800216
0.365833                  -0.0017282025674094754
0.366667                  -0.0015396213946343707
0.3675                    -0.0013147512917814862
0.368333                  -0.0010605036505174931
0.369167                  -7.842364643430429E-4
0.37                      -4.946963043962115E-4
0.370833                  -1.9978337525950046E-4
0.371667                  9.271389053349964E-5
0.3725                    3.7425362775218407E-4
0.373333                  6.37866216806904E-4
0.374167                  8.77180264047969E-4
0.375                     0.0010858293627134127
0.375833                  0.0012593197730862442
0.376667                  0.0013940632847907724
0.3775                    0.001487172032657648
0.378333                  0.001537470747024656
0.379167                  0.0015447611756597998
0.38                      0.0015100213926068588
0.380833                  0.0014353965314458622
0.381667                  0.001323847291298667
0.3825                    0.0011796748196468102
0.383333                  0.0010075748608927098
0.384167                  8.127211168597188E-4
0.385                     6.014675200460805E-4
0.385833                  3.7976146938480625E-4
0.386667                  1.5360754768125465E-4
0.3875                    -7.023022464427811E-5
0.388333                  -2.860355741298594E-4
0.389167                  -4.884344212074847E-4
0.39                      -6.718557381874949E-4
0.390833                  -8.321216696533153E-4
0.391667                  -9.656836598885552E-4
0.3925                    -0.0010693585350025985
0.393333                  -0.0011413499775988613
0.394167                  -0.001180608560988931
0.395                     -0.0011868823384732245
0.395833                  -0.001160978494174394
0.396667                  -0.0011043860225552228
0.3975                    -0.0010196040812901852
0.398333                  -9.09644232573873E-4
0.399167                  -7.779823619729921E-4
0.4                       -6.290666818478089E-4
0.400833                  -4.6723681757295286E-4
0.401667                  -2.969898293466954E-4
0.4025                    -1.2353603289881525E-4
0.403333                  4.856812023296361E-5
0.404167                  2.149266499374328E-4
0.405                     3.708327818033936E-4
0.405833                  5.125831335859754E-4
0.406667                  6.368893961306099E-4
0.4075                    7.405939359309216E-4
0.408333                  8.216314936209725E-4
0.409167                  8.784897522463897E-4
0.41                      9.101628890258517E-4
0.410833                  9.165667066177168E-4
0.411667                  8.981691048438033E-4
0.4125                    8.561737785525715E-4
0.413333                  7.923363148239749E-4
0.414167                  7.088366739466444E-4
0.415                     6.086328585407251E-4
0.415833                  4.94767669072189E-4
0.416667                  3.704936907113549E-4
0.4175                    2.3970239645269742E-4
0.418333                  1.0592122498893896E-4
0.419167                  -2.735750524086337E-5
0.42                      -1.5627653328468516E-4
0.420833                  -2.7767139902575006E-4
0.421667                  -3.8862933154568466E-4
0.4225                    -4.862079195478462E-4
0.423333                  -5.683005319611764E-4
0.424167                  -6.331933421229931E-4
0.425                     -6.794583040496346E-4
0.425833                  -7.064427571535314E-4
0.426667                  -7.139267019935505E-4
0.4275                    -7.022015414911724E-4
0.428333                  -6.721007981650196E-4
0.429167                  -6.248287794541615E-4
0.43                      -5.621932822644319E-4
0.430833                  -4.862056056425323E-4
0.431667                  -3.991069390527034E-4
0.4325                    -3.0369057581991086E-4
0.433333                  -2.025952839891467E-4
0.434167                  -9.850847122205312E-5
0.435                     5.502046508456186E-6
0.435833                  1.0681723960149932E-4
0.436667                  2.0294664811432798E-4
0.4375                    2.9126322650578987E-4
0.438333                  3.697575040489995E-4
0.439167                  4.36682183791751E-4
0.44                      4.904090878929376E-4
0.440833                  5.29942866182193E-4
0.441667                  5.546140980481966E-4
0.4425                    5.640822302934542E-4
0.443333                  5.585102930312165E-4
0.444167                  5.383729051993483E-4
0.445                     5.045945192125607E-4
0.445833                  4.583703170888921E-4
0.446667                  4.0112455469405164E-4
0.4475                    3.347438122914481E-4
0.448333                  2.611097000282214E-4
0.449167                  1.8220638778380227E-4
0.45                      1.0039010239708427E-4
0.450833                  1.775882338177214E-5
0.451667                  -6.362571250017773E-5
0.4525                    -1.4149510166201396E-4
0.453333                  -2.1401525807807856E-4
0.454167                  -2.795079073821515E-4
0.455                     -3.362869866534198E-4
0.455833                  -3.831665953438464E-4
0.456667                  -4.191925500292286E-4
0.4575                    -4.4358979609869574E-4
0.458333                  -4.560332156678155E-4
0.459167                  -4.564489492896734E-4
0.46                      -4.4507798686024033E-4
0.460833                  -4.224651832918899E-4
0.461667                  -3.893704513384194E-4
0.4625                    -3.4692780562009296E-4
0.463333                  -2.9637276457931006E-4
0.464167                  -2.3907644646698907E-4
0.465                     -1.7675963095048621E-4
0.465833                  -1.1103450583669822E-4
0.466667                  -4.354663998558683E-5
0.4675                    2.3806097266166135E-5
0.468333                  8.940601892383116E-5
0.469167                  1.5170365798018056E-4
0.47                      2.0904248445617168E-4
0.470833                  2.6014505251781717E-4
0.471667                  3.038820224164028E-4
0.4725                    3.391770425064253E-4
0.473333                  3.653431649294034E-4
0.474167                  3.818850060236299E-4
0.475                     3.885012144096369E-4
0.475833                  3.852057382387643E-4
0.476667                  3.722051157261966E-4
0.4775                    3.499941219112564E-4
0.478333                  3.192459007330932E-4
0.479167                  2.807877876074311E-4
0.48                      2.357658711063653E-4
0.480833                  1.8533791051978199E-4
0.481667                  1.3074854645163676E-4
0.4825                    7.35246365043618E-5
0.483333                  1.504501001366461E-5
0.484167                  -4.330559764624733E-5
0.485                     -9.995389934253775E-5
0.485833                  -1.535946278068009E-4
0.486667                  -2.0299459865794875E-4
0.4875                    -2.468622578096704E-4
0.488333                  -2.842319370266765E-4
0.489167                  -3.142701888133E-4
0.49                      -3.362249352641783E-4
0.490833                  -3.496572412991258E-4
0.491667                  -3.5429211166425914E-4
0.4925                    -3.5005713270230257E-4
0.493333                  -3.3711577162600867E-4
0.494167                  -3.1579397078635124E-4
0.495                     -2.866989244693381E-4
0.495833                  -2.5055042077630203E-4
0.496667                  -2.0819751919024144E-4
0.4975                    -1.607910653499959E-4
0.498333                  -1.0945180010929476E-4
0.499167                  -5.5371735345756457E-5
0.5                       1.8442492648293428E-18
