
0                         9.293788754763576E-5
8.33E-4                   9.266961039438534E-5
0.001667                  9.239184034252342E-5
0.0025                    9.211406300800886E-5
0.003333                  9.183720426728189E-5
0.004167                  9.156098322150031E-5
0.005                     9.128608968684166E-5
0.005833                  9.10121851772821E-5
0.006667                  9.073894034306562E-5
0.0075                    9.046700645067701E-5
0.008333                  9.019605175723495E-5
0.009167                  8.992574898517868E-5
0.01                      8.965674267222187E-5
0.010833                  8.938870451991259E-5
0.011667                  8.91213107614413E-5
0.0125                    8.885519895611749E-5
0.013333                  8.859004430572472E-5
0.014167                  8.832552648957567E-5
0.015                     8.806227617464202E-5
0.015833                  8.77999720212102E-5
0.016667                  8.753829711534872E-5
0.0175                    8.727787531063288E-5
0.018333                  8.701838868613703E-5
0.019167                  8.675952369501627E-5
0.02                      8.650189745666128E-5
0.020833                  8.624519542914978E-5
0.021667                  8.598910739319952E-5
0.0225                    8.573424381261276E-5
0.023333                  8.548029348526615E-5
0.024167                  8.522694947985533E-5
0.025                     8.4974815683513E-5
0.025833                  8.472358419396377E-5
0.026667                  8.447295132843839E-5
0.0275                    8.422351447670405E-5
0.028333                  8.397496899675062E-5
0.029167                  8.372701441507556E-5
0.03                      8.348024170211429E-5
0.030833                  8.323434943745064E-5
0.031667                  8.29890403170964E-5
0.0325                    8.274489897127685E-5
0.033333                  8.250162716143486E-5
0.034167                  8.225893071402614E-5
0.035                     8.201738799791388E-5
0.035833                  8.177670391670295E-5
0.036667                  8.153658738825258E-5
0.0375                    8.129761059825599E-5
0.038333                  8.105948155407313E-5
0.039167                  8.082191222544819E-5
0.04                      8.058546869368608E-5
0.040833                  8.034986203028107E-5
0.041667                  8.011480721797371E-5
0.0425                    7.988086431205197E-5
0.043333                  7.964774740924804E-5
0.044167                  7.941517446641325E-5
0.045                     7.918369959116011E-5
0.045833                  7.895303986642058E-5
0.046667                  7.87229161838782E-5
0.0475                    7.849387678213592E-5
0.048333                  7.826564169139412E-5
0.049167                  7.803793469941128E-5
0.05                      7.781129825378874E-5
0.050833                  7.758545529317603E-5
0.051667                  7.736013246261761E-5
0.0525                    7.713586649724037E-5
0.053333                  7.691238320500278E-5
0.054167                  7.668941204957088E-5
0.055                     7.646748413159996E-5
0.055833                  7.624632808982946E-5
0.056667                  7.602567616804287E-5
0.0575                    7.580605391015305E-5
0.058333                  7.558719274713755E-5
0.059167                  7.53688276642529E-5
0.06                      7.515147872678224E-5
0.060833                  7.493488011938736E-5
0.061667                  7.4718769530073E-5
0.0625                    7.45036616236438E-5
0.063333                  7.428929329965505E-5
0.064167                  7.407540491067522E-5
0.065                     7.386250579860575E-5
0.065833                  7.365033553989632E-5
0.066667                  7.34386371130922E-5
0.0675                    7.322791461465582E-5
0.068333                  7.301791025971761E-5
0.069167                  7.280836961453094E-5
0.07                      7.259979160810663E-5
0.070833                  7.239192105535737E-5
0.071667                  7.21845060725378E-5
0.0725                    7.197804049840882E-5
0.073333                  7.177227170955727E-5
0.074167                  7.156695033437205E-5
0.075                     7.136256519829225E-5
0.075833                  7.115886620217655E-5
0.076667                  7.09556064480722E-5
0.0775                    7.07532698253171E-5
0.078333                  7.055160872091312E-5
0.079167                  7.035037867291018E-5
0.08                      7.015005871176989E-5
0.080833                  6.995040367253838E-5
0.081667                  6.975117149160144E-5
0.0825                    6.955283641722614E-5
0.083333                  6.935515569481196E-5
0.084167                  6.915788962150537E-5
0.085                     6.896150774007129E-5
0.085833                  6.876576966889292E-5
0.086667                  6.857043802811637E-5
0.0875                    6.837597773126482E-5
0.088333                  6.818215073216261E-5
0.089167                  6.798872193673773E-5
0.09                      6.779615170583153E-5
0.090833                  6.760420429107849E-5
0.091667                  6.741264684704827E-5
0.0925                    6.72219352577203E-5
0.093333                  6.703183603526108E-5
0.094167                  6.684211854589789E-5
0.095                     6.665323427261342E-5
0.095833                  6.646495195114562E-5
0.096667                  6.627704312208894E-5
0.0975                    6.608995494299179E-5
0.098333                  6.59034583363083E-5
0.099167                  6.571732698012708E-5
0.1                       6.55320037821092E-5
0.100833                  6.534726181431465E-5
0.101667                  6.516287685588518E-5
0.1025                    6.497928763933206E-5
0.103333                  6.479626934980787E-5
0.104167                  6.46135998308406E-5
0.105                     6.443171371484122E-5
0.105833                  6.425038826335928E-5
0.106667                  6.406940334801296E-5
0.1075                    6.388918957559856E-5
0.108333                  6.370952624770841E-5
0.109167                  6.353019522770925E-5
0.11                      6.335162317100568E-5
0.110833                  6.317359138289865E-5
0.111667                  6.29958836827463E-5
0.1125                    6.28189228483263E-5
0.113333                  6.264249215274461E-5
0.114167                  6.246637733516308E-5
0.115                     6.229099736953078E-5
0.115833                  6.211613746077563E-5
0.116667                  6.194158523235303E-5
0.1175                    6.176775592758297E-5
0.118333                  6.159443664719508E-5
0.119167                  6.142141686354114E-5
0.12                      6.124910816223192E-5
0.120833                  6.10772995044593E-5
0.121667                  6.090578217607644E-5
0.1225                    6.0734964177535174E-5
0.123333                  6.056463629507535E-5
0.124167                  6.0394591592768274E-5
0.125                     6.022523455809643E-5
0.125833                  6.0056357767381E-5
0.126667                  5.9887756027951205E-5
0.1275                    5.971983038589391E-5
0.128333                  5.955237517277999E-5
0.129167                  5.938518690457057E-5
0.13                      5.921866325724324E-5
0.130833                  5.905260028264494E-5
0.131667                  5.888679617093262E-5
0.1325                    5.872164529922361E-5
0.133333                  5.8556945405039546E-5
0.134167                  5.8392496318322526E-5
0.135                     5.822868918768063E-5
0.135833                  5.806532340181737E-5
0.136667                  5.790220039677172E-5
0.1375                    5.7739708162673295E-5
0.138333                  5.757764770543589E-5
0.139167                  5.741582203311868E-5
0.14                      5.7254616046652714E-5
0.140833                  5.709383233556654E-5
0.141667                  5.693327544636386E-5
0.1425                    5.6773327260352024E-5
0.143333                  5.661379191599957E-5
0.144167                  5.64544754655694E-5
0.145                     5.629575683908439E-5
0.145833                  5.6137441691022185E-5
0.146667                  5.597933754594674E-5
0.1475                    5.582182045045785E-5
0.148333                  5.566469754230145E-5
0.149167                  5.550777778512441E-5
0.15                      5.535143441014867E-5
0.150833                  5.5195476004893714E-5
0.151667                  5.5039712939924056E-5
0.1525                    5.488451569771538E-5
0.153333                  5.472969428336848E-5
0.154167                  5.4575060441756396E-5
0.155                     5.442098197314645E-5
0.155833                  5.426727026782567E-5
0.156667                  5.411373841300341E-5
0.1575                    5.396075159259774E-5
0.158333                  5.380812255002175E-5
0.159167                  5.3655665682864816E-5
0.16                      5.3503743624267367E-5
0.160833                  5.335217043848619E-5
0.161667                  5.32007618023863E-5
0.1625                    5.304987786292561E-5
0.163333                  5.2899333973742734E-5
0.164167                  5.274894705975384E-5
0.165                     5.2599074845661545E-5
0.165833                  5.244953394351671E-5
0.166667                  5.230014249519466E-5
0.1675                    5.215125586666832E-5
0.168333                  5.200269189743683E-5
0.169167                  5.185426991566425E-5
0.17                      5.1706342991726664E-5
0.170833                  5.1558730161438497E-5
0.171667                  5.141125190914592E-5
0.1725                    5.126425907182886E-5
0.173333                  5.111757185159509E-5
0.174167                  5.097101185872109E-5
0.175                     5.0824927758028184E-5
0.175833                  5.067914088793361E-5
0.176667                  5.0533473955170316E-5
0.1775                    5.0388273513658987E-5
0.178333                  5.0243362007956896E-5
0.179167                  5.009856321202755E-5
0.18                      4.995422162882332E-5
0.180833                  4.981016077978595E-5
0.181667                  4.966620547690112E-5
0.1825                    4.9522698232035535E-5
0.183333                  4.937946361419066E-5
0.184167                  4.9236327444804934E-5
0.185                     4.909363030327869E-5
0.185833                  4.89511977773784E-5
0.186667                  4.8808856669573533E-5
0.1875                    4.866694568514577E-5
0.188333                  4.852529140221561E-5
0.189167                  4.838372157622035E-5
0.19                      4.824257309553383E-5
0.190833                  4.8101673500461983E-5
0.191667                  4.7960851471760004E-5
0.1925                    4.782044213763557E-5
0.193333                  4.768027397286751E-5
0.194167                  4.754017655603093E-5
0.195                     4.7400483311312934E-5
0.195833                  4.726102362011014E-5
0.196667                  4.712162793204625E-5
0.1975                    4.698262802255494E-5
0.198333                  4.684385415267097E-5
0.199167                  4.670513761628297E-5
0.2                       4.6566808594406175E-5
0.200833                  4.6428698200908496E-5
0.201667                  4.629063854769573E-5
0.2025                    4.615295827512968E-5
0.203333                  4.6015489323531644E-5
0.204167                  4.587806459693551E-5
0.205                     4.5741011247974755E-5
0.205833                  4.5604162017007055E-5
0.206667                  4.5467350574674485E-5
0.2075                    4.533090263829488E-5
0.208333                  4.5194651722746396E-5
0.209167                  4.5058432239904596E-5
0.21                      4.492256852291809E-5
0.210833                  4.478689483603731E-5
0.211667                  4.465124630742105E-5
0.2125                    4.451594593680404E-5
0.213333                  4.438082871260767E-5
0.214167                  4.4245730454909816E-5
0.215                     4.4110972879782766E-5
0.215833                  4.3976391675373376E-5
0.216667                  4.384182332937619E-5
0.2175                    4.370758832344415E-5
0.218333                  4.3573523020902796E-5
0.219167                  4.343946455365581E-5
0.22                      4.33057322168086E-5
0.220833                  4.317216302543336E-5
0.221667                  4.303859473181983E-5
0.2225                    4.290534549231202E-5
0.223333                  4.277225294986081E-5
0.224167                  4.263915545439201E-5
0.225                     4.250637007003915E-5
0.225833                  4.237373504455808E-5
0.226667                  4.224108930286298E-5
0.2275                    4.210874886266288E-5
0.228333                  4.197655255385896E-5
0.229167                  4.184433985414669E-5
0.23                      4.17124257796596E-5
0.230833                  4.15806497201735E-5
0.231667                  4.144885168414441E-5
0.2325                    4.131734573063914E-5
0.233333                  4.118597178696938E-5
0.234167                  4.1054570371052143E-5
0.235                     4.0923454628095106E-5
0.235833                  4.079246500177201E-5
0.236667                  4.0661442498110354E-5
0.2375                    4.053069939089807E-5
0.238333                  4.040007661888005E-5
0.239167                  4.026941565563746E-5
0.24                      4.013902794543925E-5
0.240833                  4.00087549009925E-5
0.241667                  3.987843844332516E-5
0.2425                    3.9748389227926724E-5
0.243333                  3.9618449121108324E-5
0.244167                  3.9488460471319724E-5
0.245                     3.93587331853742E-5
0.245833                  3.9229109563190545E-5
0.246667                  3.9099432361032874E-5
0.2475                    3.89700107764792E-5
0.248333                  3.884068752289679E-5
0.249167                  3.871130574566983E-5
0.25                      3.858217397143361E-5
0.250833                  3.845313530783297E-5
0.251667                  3.83240332706728E-5
0.2525                    3.819517575276858E-5
0.253333                  3.806640623765408E-5
0.254167                  3.793756859241958E-5
0.255                     3.7808970113743373E-5
0.255833                  3.768045464219791E-5
0.256667                  3.755186637842539E-5
0.2575                    3.742351205815421E-5
0.258333                  3.72952358614782E-5
0.259167                  3.716688230486676E-5
0.26                      3.703875759857513E-5
0.260833                  3.691070624344393E-5
0.261667                  3.678257305562394E-5
0.2625                    3.665466375374391E-5
0.263333                  3.6526823142758195E-5
0.264167                  3.639889632035842E-5
0.265                     3.627118854796059E-5
0.265833                  3.614354491739696E-5
0.266667                  3.601581079172431E-5
0.2675                    3.588829100718298E-5
0.268333                  3.576083092640182E-5
0.269167                  3.5633276161935024E-5
0.27                      3.5505931156658296E-5
0.270833                  3.5378641526955865E-5
0.271667                  3.525125312007224E-5
0.2725                    3.512407001638968E-5
0.273333                  3.499693807081005E-5
0.274167                  3.486970334869253E-5
0.275                     3.474266959900946E-5
0.275833                  3.461568289956733E-5
0.276667                  3.448858951935543E-5
0.2775                    3.436169290455751E-5
0.278333                  3.4234839341389656E-5
0.279167                  3.410787528791736E-5
0.28                      3.398110391614653E-5
0.280833                  3.385437170574413E-5
0.281667                  3.372752528991695E-5
0.2825                    3.3600867594905834E-5
0.283333                  3.347424527892228E-5
0.284167                  3.334750513675137E-5
0.285                     3.3220949875426366E-5
0.285833                  3.309442631859706E-5
0.286667                  3.2967781408591476E-5
0.2875                    3.28413176600574E-5
0.288333                  3.271488204778335E-5
0.289167                  3.258832164950963E-5
0.29                      3.2461938812281454E-5
0.290833                  3.2335580649672354E-5
0.291667                  3.220909436112243E-5
0.2925                    3.208278215167087E-5
0.293333                  3.195649126026267E-5
0.294167                  3.183006899658774E-5
0.295                     3.1703817446721036E-5
0.295833                  3.157758396314787E-5
0.296667                  3.145121595356632E-5
0.2975                    3.132501540852453E-5
0.298333                  3.1198829781722075E-5
0.299167                  3.10725065675113E-5
0.3                       3.094634768338324E-5
0.300833                  3.082020067269348E-5
0.301667                  3.069391310473384E-5
0.3025                    3.056778684592159E-5
0.303333                  3.044166951773444E-5
0.304167                  3.031540875432546E-5
0.305                     3.0189306391251283E-5
0.305833                  3.0063210117489458E-5
0.306667                  2.993696762101374E-5
0.3075                    2.9810880727384558E-5
0.308333                  2.968479718191564E-5
0.309167                  2.9558564716955765E-5
0.31                      2.943248516691811E-5
0.310833                  2.9306406323740693E-5
0.311667                  2.918017595360813E-5
0.3125                    2.9054095918955755E-5
0.313333                  2.8928014048514764E-5
0.314167                  2.880177813305822E-5
0.315                     2.8675690080894614E-5
0.315833                  2.8549597747465194E-5
0.316667                  2.8423348939630905E-5
0.3175                    2.8297245628739276E-5
0.318333                  2.8171135688105498E-5
0.319167                  2.804486693125108E-5
0.32                      2.7918741409439643E-5
0.320833                  2.7792607004920002E-5
0.321667                  2.766631152978759E-5
0.3225                    2.7540157130882257E-5
0.323333                  2.7413991690904213E-5
0.324167                  2.7287663012406897E-5
0.325                     2.716147335281841E-5
0.325833                  2.703527058738956E-5
0.326667                  2.6908902501166252E-5
0.3275                    2.6782671477368888E-5
0.328333                  2.6656425375010132E-5
0.329167                  2.6530011954943974E-5
0.33                      2.6403733739091693E-5
0.330833                  2.6277438563878362E-5
0.331667                  2.615097415798485E-5
0.3325                    2.6024643195912696E-5
0.333333                  2.5898293483454165E-5
0.334167                  2.577177271104477E-5
0.335                     2.5645383717899722E-5
0.335833                  2.5518974272782624E-5
0.336667                  2.5392392020846334E-5
0.3375                    2.5265939978304136E-5
0.338333                  2.5139465869985876E-5
0.339167                  2.5012817289929713E-5
0.34                      2.488629744234921E-5
0.340833                  2.475975400203981E-5
0.341667                  2.4633034506075412E-5
0.3425                    2.450644235727511E-5
0.343333                  2.4379825174452946E-5
0.344167                  2.4253030432076153E-5
0.345                     2.4126361741630407E-5
0.345833                  2.3999666660224375E-5
0.346667                  2.3872792594549323E-5
0.3475                    2.3746043374222893E-5
0.348333                  2.3619266489284285E-5
0.349167                  2.3492309273832806E-5
0.35                      2.33654757839963E-5
0.350833                  2.3238613437935272E-5
0.351667                  2.3111569492357104E-5
0.3525                    2.2984648238411905E-5
0.353333                  2.2857697017512425E-5
0.354167                  2.2730563004370234E-5
0.355                     2.260355073291607E-5
0.355833                  2.247650746301675E-5
0.356667                  2.2349280284021916E-5
0.3575                    2.222217397903932E-5
0.358333                  2.2095035722845117E-5
0.359167                  2.196771251479345E-5
0.36                      2.1840509394264167E-5
0.360833                  2.1713273446454604E-5
0.361667                  2.1585851577924887E-5
0.3625                    2.145854908965676E-5
0.363333                  2.1331212974036897E-5
0.364167                  2.120369004093286E-5
0.365                     2.107628585890802E-5
0.365833                  2.0948847323862302E-5
0.366667                  2.0821221146398194E-5
0.3675                    2.069371316686302E-5
0.368333                  2.0566170181980256E-5
0.369167                  2.043843880011942E-5
0.37                      2.0310825137900197E-5
0.370833                  2.0183175889791464E-5
0.371667                  2.005533755964293E-5
0.3725                    1.9927616544065507E-5
0.373333                  1.9799859432824516E-5
0.374167                  1.9671912622663992E-5
0.375                     1.954408279357792E-5
0.375833                  1.941621642849097E-5
0.376667                  1.928815981518582E-5
0.3775                    1.9160219919397576E-5
0.378333                  1.9032243114964978E-5
0.379167                  1.8904075579192157E-5
0.38                      1.8776024566411156E-5
0.380833                  1.864793633889754E-5
0.381667                  1.851965696221731E-5
0.3825                    1.83914939804304E-5
0.383333                  1.8263293543611972E-5
0.384167                  1.8134901603706844E-5
0.385                     1.800662599627158E-5
0.385833                  1.7878312757221042E-5
0.386667                  1.7749807724287167E-5
0.3875                    1.7621419025046038E-5
0.388333                  1.7492992580409003E-5
0.389167                  1.73643741129602E-5
0.39                      1.723587204279887E-5
0.390833                  1.710733217488627E-5
0.391667                  1.6978600115895687E-5
0.3925                    1.684998457838489E-5
0.393333                  1.6721331250776535E-5
0.394167                  1.6592485623554115E-5
0.395                     1.6463756701147747E-5
0.395833                  1.6334990054970583E-5
0.396667                  1.6206031059127943E-5
0.3975                    1.6077189008933774E-5
0.398333                  1.5948309358623666E-5
0.399167                  1.5819237365874036E-5
0.4                       1.569028261591842E-5
0.400833                  1.5561290445254194E-5
0.401667                  1.5432105995780116E-5
0.4025                    1.5303039140290715E-5
0.403333                  1.5173935098516569E-5
0.404167                  1.5044638896369353E-5
0.405                     1.4915460692586913E-5
0.405833                  1.4786245589862314E-5
0.406667                  1.4656838499255963E-5
0.4075                    1.4527549862657458E-5
0.408333                  1.4398224666529988E-5
0.409167                  1.4268707707640025E-5
0.41                      1.413930970816935E-5
0.410833                  1.4009875539164265E-5
0.411667                  1.3880249883942639E-5
0.4125                    1.3750743741955501E-5
0.413333                  1.362120186942506E-5
0.414167                  1.3491468837782552E-5
0.415                     1.3361855919767633E-5
0.415833                  1.3232207758204013E-5
0.416667                  1.3102368813542109E-5
0.4175                    1.2972650628169446E-5
0.418333                  1.2842897732614016E-5
0.419167                  1.2712954478037094E-5
0.42                      1.2583132672028546E-5
0.420833                  1.2453276734308689E-5
0.421667                  1.2323230908446246E-5
0.4225                    1.2193307262482635E-5
0.423333                  1.2063350106986306E-5
0.424167                  1.1933203579720971E-5
0.425                     1.1803180004338194E-5
0.425833                  1.1673123584031024E-5
0.426667                  1.1542878352544285E-5
0.4275                    1.1412756884021961E-5
0.428333                  1.1282603276005971E-5
0.429167                  1.115226146069817E-5
0.43                      1.1022044256905378E-5
0.430833                  1.0891795658850859E-5
0.431667                  1.0761359499066344E-5
0.4325                    1.0631048835510551E-5
0.433333                  1.0500707560977827E-5
0.434167                  1.0370179411096359E-5
0.435                     1.0239777676579712E-5
0.435833                  1.0109346151433635E-5
0.436667                  9.9787284765048E-6
0.4375                    9.848238169217974E-6
0.438333                  9.717718927094345E-6
0.439167                  9.587014299076549E-6
0.44                      9.456438022374601E-6
0.440833                  9.325833700768767E-6
0.441667                  9.195044794023922E-6
0.4425                    9.064385252432793E-6
0.443333                  8.933698588613778E-6
0.444167                  8.802828176069994E-6
0.445                     8.672088171012046E-6
0.445833                  8.541321997830287E-6
0.446667                  8.410372946772081E-6
0.4475                    8.279555372613305E-6
0.448333                  8.148712614486272E-6
0.449167                  8.017687882441427E-6
0.45                      7.886795722234035E-6
0.450833                  7.755879390902282E-6
0.451667                  7.624782021443672E-6
0.4525                    7.493818343092121E-6
0.453333                  7.362831533608481E-6
0.454167                  7.231664652496353E-6
0.455                     7.100632604203873E-6
0.455833                  6.969578490890748E-6
0.456667                  6.838345301695346E-6
0.4575                    6.7072481083192E-6
0.458333                  6.57612994047658E-6
0.459167                  6.444833720584639E-6
0.46                      6.313674679232405E-6
0.460833                  6.1824957771766105E-6
0.461667                  6.051139873668899E-6
0.4625                    5.919922349717999E-6
0.463333                  5.788686100698315E-6
0.464167                  5.657273926274127E-6
0.465                     5.526001349219456E-6
0.465833                  5.394711203181713E-6
0.466667                  5.263246231997777E-6
0.4675                    5.131922091424565E-6
0.468333                  5.000581557036377E-6
0.469167                  4.869067320629888E-6
0.47                      4.737695162031122E-6
0.470833                  4.606307802493549E-6
0.471667                  4.474747885668205E-6
0.4725                    4.343331306366033E-6
0.473333                  4.211900735403687E-6
0.474167                  4.080298772142383E-6
0.475                     3.94884141722649E-6
0.475833                  3.817371294902186E-6
0.476667                  3.685730964239772E-6
0.4775                    3.5542365224487148E-6
0.478333                  3.422730551151768E-6
0.479167                  3.2910555730985373E-6
0.48                      3.1595277726965333E-6
0.480833                  3.0279896929485134E-6
0.481667                  2.896283824399671E-6
0.4825                    2.7647264291353254E-6
0.483333                  2.633160015601309E-6
0.484167                  2.5014270461839967E-6
0.485                     2.3698438511746642E-6
0.485833                  2.2382529084875595E-6
0.486667                  2.106496656543781E-6
0.4875                    1.97489148416833E-6
0.488333                  1.8432798429179806E-6
0.489167                  1.711504151342601E-6
0.49                      1.5798808471843518E-6
0.490833                  1.4482523597732192E-6
0.491667                  1.3164610920091606E-6
0.4925                    1.1848235208220479E-6
0.493333                  1.0531820577138764E-6
0.494167                  9.213790952801868E-7
0.495                     7.897311517508434E-7
0.495833                  6.580807161323821E-7
0.496667                  5.262709622562662E-7
0.4975                    3.9462482864324377E-7
0.498333                  2.6303799877938466E-7
0.499167                  1.318016085891944E-7
0.5                       5.406164190545119E-9
