0.000000000000000000e+00 1.000000000000000078e-15
1.000000000000000000e+00 1.995262314968882968e-15
2.000000000000000000e+00 3.981071705534969484e-15
3.000000000000000000e+00 7.943282347242821819e-15
4.000000000000000000e+00 1.584893192461110952e-14
5.000000000000000000e+00 3.162277660168379569e-14
6.000000000000000000e+00 6.309573444801942924e-14
7.000000000000000000e+00 1.258925411794166284e-13
8.000000000000000000e+00 2.511886431509582012e-13
9.000000000000000000e+00 5.011872336272714655e-13
1.000000000000000000e+01 9.999999999999999799e-13
1.100000000000000000e+01 1.995262314968882747e-12
1.200000000000000000e+01 3.981071705534969503e-12
1.300000000000000000e+01 7.943282347242821427e-12
1.400000000000000000e+01 1.584893192461110748e-11
1.500000000000000000e+01 3.162277660168379393e-11
1.600000000000000000e+01 6.309573444801942460e-11
1.700000000000000000e+01 1.258925411794166163e-10
1.800000000000000000e+01 2.511886431509571652e-10
1.900000000000000000e+01 5.011872336272714300e-10
2.000000000000000000e+01 1.000000000000000062e-09
2.100000000000000000e+01 1.995262314968882776e-09
2.200000000000000000e+01 3.981071705534968960e-09
2.300000000000000000e+01 7.943282347242788870e-09
2.400000000000000000e+01 1.584893192461110970e-08
2.500000000000000000e+01 3.162277660168379191e-08
2.600000000000000000e+01 6.309573444801929638e-08
2.700000000000000000e+01 1.258925411794166167e-07
2.800000000000000000e+01 2.511886431509582273e-07
2.900000000000000000e+01 5.011872336272714383e-07
3.000000000000000000e+01 9.999999999999999547e-07
3.100000000000000000e+01 1.995262314968874895e-06
3.200000000000000000e+01 3.981071705534969119e-06
3.300000000000000000e+01 7.943282347242821745e-06
3.400000000000000000e+01 1.584893192461110734e-05
3.500000000000000000e+01 3.162277660168379530e-05
3.600000000000000000e+01 6.309573444801917102e-05
3.700000000000000000e+01 1.258925411794166080e-04
3.800000000000000000e+01 2.511886431509582256e-04
3.900000000000000000e+01 5.011872336272714433e-04
4.000000000000000000e+01 1.000000000000000021e-03
4.100000000000000000e+01 1.995262314968874583e-03
4.200000000000000000e+01 3.981071705534969078e-03
4.300000000000000000e+01 7.943282347242820729e-03
4.400000000000000000e+01 1.584893192461111003e-02
4.500000000000000000e+01 3.162277660168379134e-02
4.600000000000000000e+01 6.309573444801916398e-02
4.700000000000000000e+01 1.258925411794166171e-01
4.800000000000000000e+01 2.511886431509571804e-01
4.900000000000000000e+01 5.011872336272714668e-01
5.000000000000000000e+01 1.000000000000000000e+00
5.100000000000000000e+01 9.991228300988583833e-01
5.200000000000000000e+01 9.964928592495043702e-01
5.300000000000000000e+01 9.921147013144778759e-01
5.400000000000000000e+01 9.859960370705048716e-01
5.500000000000000000e+01 9.781476007338056888e-01
5.600000000000000000e+01 9.685831611286310761e-01
5.700000000000000000e+01 9.573194975320672429e-01
5.800000000000000000e+01 9.443763702374809998e-01
5.900000000000000000e+01 9.297764858882513472e-01
6.000000000000000000e+01 9.135454576426008666e-01
6.100000000000000000e+01 8.957117602394129019e-01
6.200000000000000000e+01 8.763066800438635839e-01
6.300000000000000000e+01 8.553642601605065954e-01
6.400000000000000000e+01 8.329212407100994309e-01
6.500000000000000000e+01 8.090169943749474513e-01
6.600000000000000000e+01 7.836934573258397263e-01
6.700000000000000000e+01 7.569950556517563989e-01
6.800000000000000000e+01 7.289686274214115524e-01
6.900000000000000000e+01 6.996633405133654282e-01
7.000000000000000000e+01 6.691306063588582376e-01
7.100000000000000000e+01 6.374239897486896345e-01
7.200000000000000000e+01 6.045991148623748312e-01
7.300000000000000000e+01 5.707135676844317107e-01
7.400000000000000000e+01 5.358267949789965456e-01
7.500000000000000000e+01 4.999999999999998890e-01
7.600000000000000000e+01 4.632960351198615601e-01
7.700000000000000000e+01 4.257792915650726595e-01
7.800000000000000000e+01 3.875155864521029336e-01
7.900000000000000000e+01 3.485720473218151261e-01
8.000000000000000000e+01 3.090169943749474513e-01
8.100000000000000000e+01 2.689198206152657034e-01
8.200000000000000000e+01 2.283508701106556904e-01
8.300000000000000000e+01 1.873813145857245177e-01
8.400000000000000000e+01 1.460830285624114266e-01
8.500000000000000000e+01 1.045284632676534570e-01
8.600000000000000000e+01 6.279051952931330449e-02
8.700000000000000000e+01 2.094241988335682897e-02
8.800000000000000000e+01 -2.094241988335692611e-02
8.900000000000000000e+01 -6.279051952931340164e-02
9.000000000000000000e+01 -1.045284632676535541e-01
9.100000000000000000e+01 -1.460830285624117597e-01
9.200000000000000000e+01 -1.873813145857248230e-01
9.300000000000000000e+01 -2.283508701106557737e-01
9.400000000000000000e+01 -2.689198206152658144e-01
9.500000000000000000e+01 -3.090169943749475623e-01
9.600000000000000000e+01 -3.485720473218151816e-01
9.700000000000000000e+01 -3.875155864521029891e-01
9.800000000000000000e+01 -4.257792915650727150e-01
9.900000000000000000e+01 -4.632960351198618931e-01
1.000000000000000000e+02 -5.000000000000000000e-01
1.010000000000000000e+02 -4.819999999999999840e-01
1.020000000000000000e+02 -4.639999999999999680e-01
1.030000000000000000e+02 -4.460000000000000075e-01
1.040000000000000000e+02 -4.279999999999999916e-01
1.050000000000000000e+02 -4.099999999999999756e-01
1.060000000000000000e+02 -3.920000000000000151e-01
1.070000000000000000e+02 -3.739999999999999991e-01
1.080000000000000000e+02 -3.559999999999999831e-01
1.090000000000000000e+02 -3.379999999999999671e-01
1.100000000000000000e+02 -3.199999999999999512e-01
1.110000000000000000e+02 -3.019999999999999907e-01
1.120000000000000000e+02 -2.839999999999999747e-01
1.130000000000000000e+02 -2.659999999999999587e-01
1.140000000000000000e+02 -2.479999999999999982e-01
1.150000000000000000e+02 -2.299999999999999822e-01
1.160000000000000000e+02 -2.119999999999999662e-01
1.170000000000000000e+02 -1.939999999999999503e-01
1.180000000000000000e+02 -1.759999999999999343e-01
1.190000000000000000e+02 -1.579999999999999738e-01
1.200000000000000000e+02 -1.399999999999999578e-01
1.210000000000000000e+02 -1.219999999999999418e-01
1.220000000000000000e+02 -1.039999999999999813e-01
1.230000000000000000e+02 -8.599999999999996536e-02
1.240000000000000000e+02 -6.799999999999994937e-02
1.250000000000000000e+02 -4.999999999999993339e-02
1.260000000000000000e+02 -3.199999999999991740e-02
1.270000000000000000e+02 -1.399999999999995692e-02
1.280000000000000000e+02 4.000000000000003553e-03
1.290000000000000000e+02 2.200000000000001954e-02
1.300000000000000000e+02 4.000000000000003553e-02
1.310000000000000000e+02 5.800000000000005151e-02
1.320000000000000000e+02 7.600000000000006750e-02
1.330000000000000000e+02 9.400000000000008349e-02
1.340000000000000000e+02 1.120000000000000995e-01
1.350000000000000000e+02 1.300000000000001155e-01
1.360000000000000000e+02 1.480000000000001315e-01
1.370000000000000000e+02 1.660000000000000364e-01
1.380000000000000000e+02 1.840000000000000524e-01
1.390000000000000000e+02 2.020000000000000684e-01
1.400000000000000000e+02 2.200000000000000844e-01
1.410000000000000000e+02 2.380000000000001004e-01
1.420000000000000000e+02 2.560000000000001164e-01
1.430000000000000000e+02 2.740000000000001323e-01
1.440000000000000000e+02 2.920000000000000373e-01
1.450000000000000000e+02 3.100000000000000533e-01
1.460000000000000000e+02 3.280000000000000693e-01
1.470000000000000000e+02 3.460000000000000853e-01
1.480000000000000000e+02 3.640000000000001013e-01
1.490000000000000000e+02 3.820000000000001172e-01
1.500000000000000000e+02 3.999999999999999667e-01
1.510000000000000000e+02 1.035294117647058698e-01
1.520000000000000000e+02 -2.000000000000001776e-02
1.530000000000000000e+02 -8.774193548387093644e-02
1.540000000000000000e+02 -1.305263157894736847e-01
1.550000000000000000e+02 -1.599999999999999756e-01
1.560000000000000000e+02 -1.815384615384615374e-01
1.570000000000000000e+02 -1.979661016949152419e-01
1.580000000000000000e+02 -2.109090909090909349e-01
1.590000000000000000e+02 -2.213698630136986256e-01
1.600000000000000000e+02 -2.300000000000000100e-01
1.610000000000000000e+02 -2.372413793103448354e-01
1.620000000000000000e+02 -2.434042553191489433e-01
1.630000000000000000e+02 -2.487128712871287117e-01
1.640000000000000000e+02 -2.533333333333333548e-01
1.650000000000000000e+02 -2.573913043478260887e-01
1.660000000000000000e+02 -2.609836065573770680e-01
1.670000000000000000e+02 -2.641860465116279144e-01
1.680000000000000000e+02 -2.670588235294117374e-01
1.690000000000000000e+02 -2.696503496503496744e-01
1.700000000000000000e+02 -2.720000000000000195e-01
1.710000000000000000e+02 -2.741401273885350487e-01
1.720000000000000000e+02 -2.760975609756097793e-01
1.730000000000000000e+02 -2.778947368421052500e-01
1.740000000000000000e+02 -2.795505617977527835e-01
1.750000000000000000e+02 -2.810810810810810967e-01
1.760000000000000000e+02 -2.824999999999999734e-01
1.770000000000000000e+02 -2.838190954773869290e-01
1.780000000000000000e+02 -2.850485436893203661e-01
1.790000000000000000e+02 -2.861971830985915455e-01
1.800000000000000000e+02 -2.872727272727272907e-01
1.810000000000000000e+02 -2.882819383259911938e-01
1.820000000000000000e+02 -2.892307692307692357e-01
1.830000000000000000e+02 -2.901244813278008317e-01
1.840000000000000000e+02 -2.909677419354838590e-01
1.850000000000000000e+02 -2.917647058823529260e-01
1.860000000000000000e+02 -2.925190839694656320e-01
1.870000000000000000e+02 -2.932342007434944331e-01
1.880000000000000000e+02 -2.939130434782608603e-01
1.890000000000000000e+02 -2.945583038869257764e-01
1.900000000000000000e+02 -2.951724137931034386e-01
1.910000000000000000e+02 -2.957575757575757747e-01
1.920000000000000000e+02 -2.963157894736841991e-01
1.930000000000000000e+02 -2.968488745980707444e-01
1.940000000000000000e+02 -2.973584905660377475e-01
1.950000000000000000e+02 -2.978461538461538161e-01
1.960000000000000000e+02 -2.983132530120481962e-01
1.970000000000000000e+02 -2.987610619469026618e-01
1.980000000000000000e+02 -2.991907514450866667e-01
1.990000000000000000e+02 -2.996033994334277306e-01
2.000000000000000000e+02 -3.000000000000000444e-01
2.010000000000000000e+02 -1.626724218530136434e-01
2.020000000000000000e+02 -1.068982140650254070e-01
2.030000000000000000e+02 -7.130576648611551549e-02
2.040000000000000000e+02 -4.510977320284675907e-02
2.050000000000000000e+02 -2.437111575664133861e-02
2.060000000000000000e+02 -7.203389926181683577e-03
2.070000000000000000e+02 7.444373894963463370e-03
2.080000000000000000e+02 2.021814645230346832e-02
2.090000000000000000e+02 3.154349930331411256e-02
2.100000000000000000e+02 4.171570729082918483e-02
2.110000000000000000e+02 5.094804725105703952e-02
2.120000000000000000e+02 5.939960333120387903e-02
2.130000000000000000e+02 6.719220202635357853e-02
2.140000000000000000e+02 7.442120874086333160e-02
2.150000000000000000e+02 8.116267635871853015e-02
2.160000000000000000e+02 8.747823177168168041e-02
2.170000000000000000e+02 9.341850841826920826e-02
2.180000000000000000e+02 9.902561496336557967e-02
2.190000000000000000e+02 1.043349477032067540e-01
2.200000000000000000e+02 1.093765455255869823e-01
2.210000000000000000e+02 1.141761193417044629e-01
2.220000000000000000e+02 1.187558455521083856e-01
2.230000000000000000e+02 1.231349856171294332e-01
2.240000000000000000e+02 1.273303755508146951e-01
2.250000000000000000e+02 1.313568167929173025e-01
2.260000000000000000e+02 1.352273913823089646e-01
2.270000000000000000e+02 1.389537183700545186e-01
2.280000000000000000e+02 1.425461641471392205e-01
2.290000000000000000e+02 1.460140162824687116e-01
2.300000000000000000e+02 1.493656282137939550e-01
2.310000000000000000e+02 1.526085404662212985e-01
2.320000000000000000e+02 1.557495828244385427e-01
2.330000000000000000e+02 1.587949609406575369e-01
2.340000000000000000e+02 1.617503301395136206e-01
2.350000000000000000e+02 1.646208586260247408e-01
2.360000000000000000e+02 1.674112818715745854e-01
2.370000000000000000e+02 1.701259496154300943e-01
2.380000000000000000e+02 1.727688666532373185e-01
2.390000000000000000e+02 1.753437283727056206e-01
2.400000000000000000e+02 1.778539518278987874e-01
2.410000000000000000e+02 1.803027030078380166e-01
2.420000000000000000e+02 1.826929208453735021e-01
2.430000000000000000e+02 1.850273384230340934e-01
2.440000000000000000e+02 1.873085017596130553e-01
2.450000000000000000e+02 1.895387865013164475e-01
2.460000000000000000e+02 1.917204127918321066e-01
2.470000000000000000e+02 1.938554585546622966e-01
2.480000000000000000e+02 1.959458713869086655e-01
2.490000000000000000e+02 1.979934792351398243e-01
2.500000000000000000e+02 2.000000000000000111e-01
2.510000000000000000e+02 2.000050999158513865e-01
2.520000000000000000e+02 2.000407993268111251e-01
2.530000000000000000e+02 2.001376977279875069e-01
2.540000000000000000e+02 2.003263946144888674e-01
2.550000000000000000e+02 2.006374894814235699e-01
2.560000000000000000e+02 2.011015818238999220e-01
2.570000000000000000e+02 2.017492711370262592e-01
2.580000000000000000e+02 2.026111569159108894e-01
2.590000000000000000e+02 2.037178386556622034e-01
2.600000000000000000e+02 2.050999158513884535e-01
2.610000000000000000e+02 2.067879879981980307e-01
2.620000000000000000e+02 2.088126545911992704e-01
2.630000000000000000e+02 2.112045151255004527e-01
2.640000000000000000e+02 2.139941690962099130e-01
2.650000000000000000e+02 2.172122159984360423e-01
2.660000000000000000e+02 2.208892553272871206e-01
2.670000000000000000e+02 2.250558865778714834e-01
2.680000000000000000e+02 2.297427092452974662e-01
2.690000000000000000e+02 2.349803228246734044e-01
2.700000000000000000e+02 2.407993268111076335e-01
2.710000000000000000e+02 2.472303206997084613e-01
2.720000000000000000e+02 2.543039039855842787e-01
2.730000000000000000e+02 2.620506761638433102e-01
2.740000000000000000e+02 2.705012367295940301e-01
2.750000000000000000e+02 2.796861851779445796e-01
2.760000000000000000e+02 2.896361210040034329e-01
2.770000000000000000e+02 3.003816437028788977e-01
2.780000000000000000e+02 3.119533527696793374e-01
2.790000000000000000e+02 3.243818476995129485e-01
2.800000000000000000e+02 3.376977279874882054e-01
2.810000000000000000e+02 3.519315931287134158e-01
2.820000000000000000e+02 3.671140426182968319e-01
2.830000000000000000e+02 3.832756759513468725e-01
2.840000000000000000e+02 4.004470926229717342e-01
2.850000000000000000e+02 4.186588921282798914e-01
2.860000000000000000e+02 4.379416739623797072e-01
2.870000000000000000e+02 4.583260376203792674e-01
2.880000000000000000e+02 4.798425825973872128e-01
2.890000000000000000e+02 5.025219083885117399e-01
2.900000000000000000e+02 5.263946144888609346e-01
2.910000000000000000e+02 5.514913003935435487e-01
2.920000000000000000e+02 5.778425655976677788e-01
2.930000000000000000e+02 6.054790095963415997e-01
2.940000000000000000e+02 6.344312318846739851e-01
2.950000000000000000e+02 6.647298319577727987e-01
2.960000000000000000e+02 6.964054093107463483e-01
2.970000000000000000e+02 7.294885634387033857e-01
2.980000000000000000e+02 7.640098938367518855e-01
2.990000000000000000e+02 8.000000000000000444e-01
