[Info]
Version 1
Dimension 2
NumNodes 961
Num3DElements 0
Num2DElements 900
Num1DElements 120
NumNodeBC 1
NumSaveNodes 0
NumSaveElements 0
NumElemType0 0
NumElemType1 0
NumElemType2 0
NumElemType3 0
NumElemType4 0
NumElemType5 0
NumElemType6 900
NumElemType7 0
NumElemType8 0
NumElemType9 0
NumElemType10 0
NumElemType11 0
NumBaseElemType0 0
NumBaseElemType1 0
NumBaseElemType2 0
NumBaseElemType3 0
NumBaseElemType4 0
NumBaseElemType5 0
NumBaseElemType6 900
NumBaseElemType7 0
NumBaseElemType8 0
NumBaseElemType9 0
NumBaseElemType10 0
NumBaseElemType11 0
NumBaseElemType12 0
NumBaseElemType13 0
NumBaseElemType14 0
NumBaseElemType15 0

[Nodes]
#NodeNr x-coord y-coord z-coord
       1 -1.5000000000000e-01 -1.5000000000000e-01  0.0000000000000e+00
       2  1.5000000000000e-01 -1.5000000000000e-01  0.0000000000000e+00
       3 -1.4000000000000e-01 -1.5000000000000e-01  0.0000000000000e+00
       4 -1.3000000000000e-01 -1.5000000000000e-01  0.0000000000000e+00
       5 -1.2000000000000e-01 -1.5000000000000e-01  0.0000000000000e+00
       6 -1.1000000000000e-01 -1.5000000000000e-01  0.0000000000000e+00
       7 -1.0000000000000e-01 -1.5000000000000e-01  0.0000000000000e+00
       8 -9.0000000000000e-02 -1.5000000000000e-01  0.0000000000000e+00
       9 -8.0000000000000e-02 -1.5000000000000e-01  0.0000000000000e+00
      10 -7.0000000000000e-02 -1.5000000000000e-01  0.0000000000000e+00
      11 -6.0000000000000e-02 -1.5000000000000e-01  0.0000000000000e+00
      12 -5.0000000000000e-02 -1.5000000000000e-01  0.0000000000000e+00
      13 -4.0000000000000e-02 -1.5000000000000e-01  0.0000000000000e+00
      14 -3.0000000000000e-02 -1.5000000000000e-01  0.0000000000000e+00
      15 -2.0000000000000e-02 -1.5000000000000e-01  0.0000000000000e+00
      16 -1.0000000000000e-02 -1.5000000000000e-01  0.0000000000000e+00
      17 -2.7755575615630e-17 -1.5000000000000e-01  0.0000000000000e+00
      18  1.0000000000000e-02 -1.5000000000000e-01  0.0000000000000e+00
      19  2.0000000000000e-02 -1.5000000000000e-01  0.0000000000000e+00
      20  3.0000000000000e-02 -1.5000000000000e-01  0.0000000000000e+00
      21  4.0000000000000e-02 -1.5000000000000e-01  0.0000000000000e+00
      22  5.0000000000000e-02 -1.5000000000000e-01  0.0000000000000e+00
      23  6.0000000000000e-02 -1.5000000000000e-01  0.0000000000000e+00
      24  7.0000000000000e-02 -1.5000000000000e-01  0.0000000000000e+00
      25  8.0000000000000e-02 -1.5000000000000e-01  0.0000000000000e+00
      26  9.0000000000000e-02 -1.5000000000000e-01  0.0000000000000e+00
      27  1.0000000000000e-01 -1.5000000000000e-01  0.0000000000000e+00
      28  1.1000000000000e-01 -1.5000000000000e-01  0.0000000000000e+00
      29  1.2000000000000e-01 -1.5000000000000e-01  0.0000000000000e+00
      30  1.3000000000000e-01 -1.5000000000000e-01  0.0000000000000e+00
      31  1.4000000000000e-01 -1.5000000000000e-01  0.0000000000000e+00
      32  1.5000000000000e-01  1.5000000000000e-01  0.0000000000000e+00
      33  1.5000000000000e-01 -1.4000000000000e-01  0.0000000000000e+00
      34  1.5000000000000e-01 -1.3000000000000e-01  0.0000000000000e+00
      35  1.5000000000000e-01 -1.2000000000000e-01  0.0000000000000e+00
      36  1.5000000000000e-01 -1.1000000000000e-01  0.0000000000000e+00
      37  1.5000000000000e-01 -1.0000000000000e-01  0.0000000000000e+00
      38  1.5000000000000e-01 -9.0000000000000e-02  0.0000000000000e+00
      39  1.5000000000000e-01 -8.0000000000000e-02  0.0000000000000e+00
      40  1.5000000000000e-01 -7.0000000000000e-02  0.0000000000000e+00
      41  1.5000000000000e-01 -6.0000000000000e-02  0.0000000000000e+00
      42  1.5000000000000e-01 -5.0000000000000e-02  0.0000000000000e+00
      43  1.5000000000000e-01 -4.0000000000000e-02  0.0000000000000e+00
      44  1.5000000000000e-01 -3.0000000000000e-02  0.0000000000000e+00
      45  1.5000000000000e-01 -2.0000000000000e-02  0.0000000000000e+00
      46  1.5000000000000e-01 -1.0000000000000e-02  0.0000000000000e+00
      47  1.5000000000000e-01 -2.7755575615630e-17  0.0000000000000e+00
      48  1.5000000000000e-01  1.0000000000000e-02  0.0000000000000e+00
      49  1.5000000000000e-01  2.0000000000000e-02  0.0000000000000e+00
      50  1.5000000000000e-01  3.0000000000000e-02  0.0000000000000e+00
      51  1.5000000000000e-01  4.0000000000000e-02  0.0000000000000e+00
      52  1.5000000000000e-01  5.0000000000000e-02  0.0000000000000e+00
      53  1.5000000000000e-01  6.0000000000000e-02  0.0000000000000e+00
      54  1.5000000000000e-01  7.0000000000000e-02  0.0000000000000e+00
      55  1.5000000000000e-01  8.0000000000000e-02  0.0000000000000e+00
      56  1.5000000000000e-01  9.0000000000000e-02  0.0000000000000e+00
      57  1.5000000000000e-01  1.0000000000000e-01  0.0000000000000e+00
      58  1.5000000000000e-01  1.1000000000000e-01  0.0000000000000e+00
      59  1.5000000000000e-01  1.2000000000000e-01  0.0000000000000e+00
      60  1.5000000000000e-01  1.3000000000000e-01  0.0000000000000e+00
      61  1.5000000000000e-01  1.4000000000000e-01  0.0000000000000e+00
      62 -1.5000000000000e-01  1.5000000000000e-01  0.0000000000000e+00
      63  1.4000000000000e-01  1.5000000000000e-01  0.0000000000000e+00
      64  1.3000000000000e-01  1.5000000000000e-01  0.0000000000000e+00
      65  1.2000000000000e-01  1.5000000000000e-01  0.0000000000000e+00
      66  1.1000000000000e-01  1.5000000000000e-01  0.0000000000000e+00
      67  1.0000000000000e-01  1.5000000000000e-01  0.0000000000000e+00
      68  9.0000000000000e-02  1.5000000000000e-01  0.0000000000000e+00
      69  8.0000000000000e-02  1.5000000000000e-01  0.0000000000000e+00
      70  7.0000000000000e-02  1.5000000000000e-01  0.0000000000000e+00
      71  6.0000000000000e-02  1.5000000000000e-01  0.0000000000000e+00
      72  5.0000000000000e-02  1.5000000000000e-01  0.0000000000000e+00
      73  4.0000000000000e-02  1.5000000000000e-01  0.0000000000000e+00
      74  3.0000000000000e-02  1.5000000000000e-01  0.0000000000000e+00
      75  2.0000000000000e-02  1.5000000000000e-01  0.0000000000000e+00
      76  1.0000000000000e-02  1.5000000000000e-01  0.0000000000000e+00
      77  2.7755575615630e-17  1.5000000000000e-01  0.0000000000000e+00
      78 -1.0000000000000e-02  1.5000000000000e-01  0.0000000000000e+00
      79 -2.0000000000000e-02  1.5000000000000e-01  0.0000000000000e+00
      80 -3.0000000000000e-02  1.5000000000000e-01  0.0000000000000e+00
      81 -4.0000000000000e-02  1.5000000000000e-01  0.0000000000000e+00
      82 -5.0000000000000e-02  1.5000000000000e-01  0.0000000000000e+00
      83 -6.0000000000000e-02  1.5000000000000e-01  0.0000000000000e+00
      84 -7.0000000000000e-02  1.5000000000000e-01  0.0000000000000e+00
      85 -8.0000000000000e-02  1.5000000000000e-01  0.0000000000000e+00
      86 -9.0000000000000e-02  1.5000000000000e-01  0.0000000000000e+00
      87 -1.0000000000000e-01  1.5000000000000e-01  0.0000000000000e+00
      88 -1.1000000000000e-01  1.5000000000000e-01  0.0000000000000e+00
      89 -1.2000000000000e-01  1.5000000000000e-01  0.0000000000000e+00
      90 -1.3000000000000e-01  1.5000000000000e-01  0.0000000000000e+00
      91 -1.4000000000000e-01  1.5000000000000e-01  0.0000000000000e+00
      92 -1.5000000000000e-01  1.4000000000000e-01  0.0000000000000e+00
      93 -1.5000000000000e-01  1.3000000000000e-01  0.0000000000000e+00
      94 -1.5000000000000e-01  1.2000000000000e-01  0.0000000000000e+00
      95 -1.5000000000000e-01  1.1000000000000e-01  0.0000000000000e+00
      96 -1.5000000000000e-01  1.0000000000000e-01  0.0000000000000e+00
      97 -1.5000000000000e-01  9.0000000000000e-02  0.0000000000000e+00
      98 -1.5000000000000e-01  8.0000000000000e-02  0.0000000000000e+00
      99 -1.5000000000000e-01  7.0000000000000e-02  0.0000000000000e+00
     100 -1.5000000000000e-01  6.0000000000000e-02  0.0000000000000e+00
     101 -1.5000000000000e-01  5.0000000000000e-02  0.0000000000000e+00
     102 -1.5000000000000e-01  4.0000000000000e-02  0.0000000000000e+00
     103 -1.5000000000000e-01  3.0000000000000e-02  0.0000000000000e+00
     104 -1.5000000000000e-01  2.0000000000000e-02  0.0000000000000e+00
     105 -1.5000000000000e-01  1.0000000000000e-02  0.0000000000000e+00
     106 -1.5000000000000e-01  2.7755575615630e-17  0.0000000000000e+00
     107 -1.5000000000000e-01 -1.0000000000000e-02  0.0000000000000e+00
     108 -1.5000000000000e-01 -2.0000000000000e-02  0.0000000000000e+00
     109 -1.5000000000000e-01 -3.0000000000000e-02  0.0000000000000e+00
     110 -1.5000000000000e-01 -4.0000000000000e-02  0.0000000000000e+00
     111 -1.5000000000000e-01 -5.0000000000000e-02  0.0000000000000e+00
     112 -1.5000000000000e-01 -6.0000000000000e-02  0.0000000000000e+00
     113 -1.5000000000000e-01 -7.0000000000000e-02  0.0000000000000e+00
     114 -1.5000000000000e-01 -8.0000000000000e-02  0.0000000000000e+00
     115 -1.5000000000000e-01 -9.0000000000000e-02  0.0000000000000e+00
     116 -1.5000000000000e-01 -1.0000000000000e-01  0.0000000000000e+00
     117 -1.5000000000000e-01 -1.1000000000000e-01  0.0000000000000e+00
     118 -1.5000000000000e-01 -1.2000000000000e-01  0.0000000000000e+00
     119 -1.5000000000000e-01 -1.3000000000000e-01  0.0000000000000e+00
     120 -1.5000000000000e-01 -1.4000000000000e-01  0.0000000000000e+00
     121 -1.4000000000000e-01 -1.4000000000000e-01  0.0000000000000e+00
     122 -1.4000000000000e-01 -1.3000000000000e-01  0.0000000000000e+00
     123 -1.4000000000000e-01 -1.2000000000000e-01  0.0000000000000e+00
     124 -1.4000000000000e-01 -1.1000000000000e-01  0.0000000000000e+00
     125 -1.4000000000000e-01 -1.0000000000000e-01  0.0000000000000e+00
     126 -1.4000000000000e-01 -9.0000000000000e-02  0.0000000000000e+00
     127 -1.4000000000000e-01 -8.0000000000000e-02  0.0000000000000e+00
     128 -1.4000000000000e-01 -7.0000000000000e-02  0.0000000000000e+00
     129 -1.4000000000000e-01 -6.0000000000000e-02  0.0000000000000e+00
     130 -1.4000000000000e-01 -5.0000000000000e-02  0.0000000000000e+00
     131 -1.4000000000000e-01 -4.0000000000000e-02  0.0000000000000e+00
     132 -1.4000000000000e-01 -3.0000000000000e-02  0.0000000000000e+00
     133 -1.4000000000000e-01 -2.0000000000000e-02  0.0000000000000e+00
     134 -1.4000000000000e-01 -1.0000000000000e-02  0.0000000000000e+00
     135 -1.4000000000000e-01  2.6888213877640e-17  0.0000000000000e+00
     136 -1.4000000000000e-01  1.0000000000000e-02  0.0000000000000e+00
     137 -1.4000000000000e-01  2.0000000000000e-02  0.0000000000000e+00
     138 -1.4000000000000e-01  3.0000000000000e-02  0.0000000000000e+00
     139 -1.4000000000000e-01  4.0000000000000e-02  0.0000000000000e+00
     140 -1.4000000000000e-01  5.0000000000000e-02  0.0000000000000e+00
     141 -1.4000000000000e-01  6.0000000000000e-02  0.0000000000000e+00
     142 -1.4000000000000e-01  7.0000000000000e-02  0.0000000000000e+00
     143 -1.4000000000000e-01  8.0000000000000e-02  0.0000000000000e+00
     144 -1.4000000000000e-01  9.0000000000000e-02  0.0000000000000e+00
     145 -1.4000000000000e-01  1.0000000000000e-01  0.0000000000000e+00
     146 -1.4000000000000e-01  1.1000000000000e-01  0.0000000000000e+00
     147 -1.4000000000000e-01  1.2000000000000e-01  0.0000000000000e+00
     148 -1.4000000000000e-01  1.3000000000000e-01  0.0000000000000e+00
     149 -1.4000000000000e-01  1.4000000000000e-01  0.0000000000000e+00
     150 -1.3000000000000e-01 -1.4000000000000e-01  0.0000000000000e+00
     151 -1.3000000000000e-01 -1.3000000000000e-01  0.0000000000000e+00
     152 -1.3000000000000e-01 -1.2000000000000e-01  0.0000000000000e+00
     153 -1.3000000000000e-01 -1.1000000000000e-01  0.0000000000000e+00
     154 -1.3000000000000e-01 -1.0000000000000e-01  0.0000000000000e+00
     155 -1.3000000000000e-01 -9.0000000000000e-02  0.0000000000000e+00
     156 -1.3000000000000e-01 -8.0000000000000e-02  0.0000000000000e+00
     157 -1.3000000000000e-01 -7.0000000000000e-02  0.0000000000000e+00
     158 -1.3000000000000e-01 -6.0000000000000e-02  0.0000000000000e+00
     159 -1.3000000000000e-01 -5.0000000000000e-02  0.0000000000000e+00
     160 -1.3000000000000e-01 -4.0000000000000e-02  0.0000000000000e+00
     161 -1.3000000000000e-01 -3.0000000000000e-02  0.0000000000000e+00
     162 -1.3000000000000e-01 -2.0000000000000e-02  0.0000000000000e+00
     163 -1.3000000000000e-01 -1.0000000000000e-02  0.0000000000000e+00
     164 -1.3000000000000e-01  2.6020852139650e-17  0.0000000000000e+00
     165 -1.3000000000000e-01  1.0000000000000e-02  0.0000000000000e+00
     166 -1.3000000000000e-01  2.0000000000000e-02  0.0000000000000e+00
     167 -1.3000000000000e-01  3.0000000000000e-02  0.0000000000000e+00
     168 -1.3000000000000e-01  4.0000000000000e-02  0.0000000000000e+00
     169 -1.3000000000000e-01  5.0000000000000e-02  0.0000000000000e+00
     170 -1.3000000000000e-01  6.0000000000000e-02  0.0000000000000e+00
     171 -1.3000000000000e-01  7.0000000000000e-02  0.0000000000000e+00
     172 -1.3000000000000e-01  8.0000000000000e-02  0.0000000000000e+00
     173 -1.3000000000000e-01  9.0000000000000e-02  0.0000000000000e+00
     174 -1.3000000000000e-01  1.0000000000000e-01  0.0000000000000e+00
     175 -1.3000000000000e-01  1.1000000000000e-01  0.0000000000000e+00
     176 -1.3000000000000e-01  1.2000000000000e-01  0.0000000000000e+00
     177 -1.3000000000000e-01  1.3000000000000e-01  0.0000000000000e+00
     178 -1.3000000000000e-01  1.4000000000000e-01  0.0000000000000e+00
     179 -1.2000000000000e-01 -1.4000000000000e-01  0.0000000000000e+00
     180 -1.2000000000000e-01 -1.3000000000000e-01  0.0000000000000e+00
     181 -1.2000000000000e-01 -1.2000000000000e-01  0.0000000000000e+00
     182 -1.2000000000000e-01 -1.1000000000000e-01  0.0000000000000e+00
     183 -1.2000000000000e-01 -1.0000000000000e-01  0.0000000000000e+00
     184 -1.2000000000000e-01 -9.0000000000000e-02  0.0000000000000e+00
     185 -1.2000000000000e-01 -8.0000000000000e-02  0.0000000000000e+00
     186 -1.2000000000000e-01 -7.0000000000000e-02  0.0000000000000e+00
     187 -1.2000000000000e-01 -6.0000000000000e-02  0.0000000000000e+00
     188 -1.2000000000000e-01 -5.0000000000000e-02  0.0000000000000e+00
     189 -1.2000000000000e-01 -4.0000000000000e-02  0.0000000000000e+00
     190 -1.2000000000000e-01 -3.0000000000000e-02  0.0000000000000e+00
     191 -1.2000000000000e-01 -2.0000000000000e-02  0.0000000000000e+00
     192 -1.2000000000000e-01 -1.0000000000000e-02  0.0000000000000e+00
     193 -1.2000000000000e-01  0.0000000000000e+00  0.0000000000000e+00
     194 -1.2000000000000e-01  1.0000000000000e-02  0.0000000000000e+00
     195 -1.2000000000000e-01  2.0000000000000e-02  0.0000000000000e+00
     196 -1.2000000000000e-01  3.0000000000000e-02  0.0000000000000e+00
     197 -1.2000000000000e-01  4.0000000000000e-02  0.0000000000000e+00
     198 -1.2000000000000e-01  5.0000000000000e-02  0.0000000000000e+00
     199 -1.2000000000000e-01  6.0000000000000e-02  0.0000000000000e+00
     200 -1.2000000000000e-01  7.0000000000000e-02  0.0000000000000e+00
     201 -1.2000000000000e-01  8.0000000000000e-02  0.0000000000000e+00
     202 -1.2000000000000e-01  9.0000000000000e-02  0.0000000000000e+00
     203 -1.2000000000000e-01  1.0000000000000e-01  0.0000000000000e+00
     204 -1.2000000000000e-01  1.1000000000000e-01  0.0000000000000e+00
     205 -1.2000000000000e-01  1.2000000000000e-01  0.0000000000000e+00
     206 -1.2000000000000e-01  1.3000000000000e-01  0.0000000000000e+00
     207 -1.2000000000000e-01  1.4000000000000e-01  0.0000000000000e+00
     208 -1.1000000000000e-01 -1.4000000000000e-01  0.0000000000000e+00
     209 -1.1000000000000e-01 -1.3000000000000e-01  0.0000000000000e+00
     210 -1.1000000000000e-01 -1.2000000000000e-01  0.0000000000000e+00
     211 -1.1000000000000e-01 -1.1000000000000e-01  0.0000000000000e+00
     212 -1.1000000000000e-01 -1.0000000000000e-01  0.0000000000000e+00
     213 -1.1000000000000e-01 -9.0000000000000e-02  0.0000000000000e+00
     214 -1.1000000000000e-01 -8.0000000000000e-02  0.0000000000000e+00
     215 -1.1000000000000e-01 -7.0000000000000e-02  0.0000000000000e+00
     216 -1.1000000000000e-01 -6.0000000000000e-02  0.0000000000000e+00
     217 -1.1000000000000e-01 -5.0000000000000e-02  0.0000000000000e+00
     218 -1.1000000000000e-01 -4.0000000000000e-02  0.0000000000000e+00
     219 -1.1000000000000e-01 -3.0000000000000e-02  0.0000000000000e+00
     220 -1.1000000000000e-01 -2.0000000000000e-02  0.0000000000000e+00
     221 -1.1000000000000e-01 -1.0000000000000e-02  0.0000000000000e+00
     222 -1.1000000000000e-01  2.9490299091610e-17  0.0000000000000e+00
     223 -1.1000000000000e-01  1.0000000000000e-02  0.0000000000000e+00
     224 -1.1000000000000e-01  2.0000000000000e-02  0.0000000000000e+00
     225 -1.1000000000000e-01  3.0000000000000e-02  0.0000000000000e+00
     226 -1.1000000000000e-01  4.0000000000000e-02  0.0000000000000e+00
     227 -1.1000000000000e-01  5.0000000000000e-02  0.0000000000000e+00
     228 -1.1000000000000e-01  6.0000000000000e-02  0.0000000000000e+00
     229 -1.1000000000000e-01  7.0000000000000e-02  0.0000000000000e+00
     230 -1.1000000000000e-01  8.0000000000000e-02  0.0000000000000e+00
     231 -1.1000000000000e-01  9.0000000000000e-02  0.0000000000000e+00
     232 -1.1000000000000e-01  1.0000000000000e-01  0.0000000000000e+00
     233 -1.1000000000000e-01  1.1000000000000e-01  0.0000000000000e+00
     234 -1.1000000000000e-01  1.2000000000000e-01  0.0000000000000e+00
     235 -1.1000000000000e-01  1.3000000000000e-01  0.0000000000000e+00
     236 -1.1000000000000e-01  1.4000000000000e-01  0.0000000000000e+00
     237 -1.0000000000000e-01 -1.4000000000000e-01  0.0000000000000e+00
     238 -1.0000000000000e-01 -1.3000000000000e-01  0.0000000000000e+00
     239 -1.0000000000000e-01 -1.2000000000000e-01  0.0000000000000e+00
     240 -1.0000000000000e-01 -1.1000000000000e-01  0.0000000000000e+00
     241 -1.0000000000000e-01 -1.0000000000000e-01  0.0000000000000e+00
     242 -1.0000000000000e-01 -9.0000000000000e-02  0.0000000000000e+00
     243 -1.0000000000000e-01 -8.0000000000000e-02  0.0000000000000e+00
     244 -1.0000000000000e-01 -7.0000000000000e-02  0.0000000000000e+00
     245 -1.0000000000000e-01 -6.0000000000000e-02  0.0000000000000e+00
     246 -1.0000000000000e-01 -5.0000000000000e-02  0.0000000000000e+00
     247 -1.0000000000000e-01 -4.0000000000000e-02  0.0000000000000e+00
     248 -1.0000000000000e-01 -3.0000000000000e-02  0.0000000000000e+00
     249 -1.0000000000000e-01 -2.0000000000000e-02  0.0000000000000e+00
     250 -1.0000000000000e-01 -1.0000000000000e-02  0.0000000000000e+00
     251 -1.0000000000000e-01  0.0000000000000e+00  0.0000000000000e+00
     252 -1.0000000000000e-01  1.0000000000000e-02  0.0000000000000e+00
     253 -1.0000000000000e-01  2.0000000000000e-02  0.0000000000000e+00
     254 -1.0000000000000e-01  3.0000000000000e-02  0.0000000000000e+00
     255 -1.0000000000000e-01  4.0000000000000e-02  0.0000000000000e+00
     256 -1.0000000000000e-01  5.0000000000000e-02  0.0000000000000e+00
     257 -1.0000000000000e-01  6.0000000000000e-02  0.0000000000000e+00
     258 -1.0000000000000e-01  7.0000000000000e-02  0.0000000000000e+00
     259 -1.0000000000000e-01  8.0000000000000e-02  0.0000000000000e+00
     260 -1.0000000000000e-01  9.0000000000000e-02  0.0000000000000e+00
     261 -1.0000000000000e-01  1.0000000000000e-01  0.0000000000000e+00
     262 -1.0000000000000e-01  1.1000000000000e-01  0.0000000000000e+00
     263 -1.0000000000000e-01  1.2000000000000e-01  0.0000000000000e+00
     264 -1.0000000000000e-01  1.3000000000000e-01  0.0000000000000e+00
     265 -1.0000000000000e-01  1.4000000000000e-01  0.0000000000000e+00
     266 -9.0000000000000e-02 -1.4000000000000e-01  0.0000000000000e+00
     267 -9.0000000000000e-02 -1.3000000000000e-01  0.0000000000000e+00
     268 -9.0000000000000e-02 -1.2000000000000e-01  0.0000000000000e+00
     269 -9.0000000000000e-02 -1.1000000000000e-01  0.0000000000000e+00
     270 -9.0000000000000e-02 -1.0000000000000e-01  0.0000000000000e+00
     271 -9.0000000000000e-02 -9.0000000000000e-02  0.0000000000000e+00
     272 -9.0000000000000e-02 -8.0000000000000e-02  0.0000000000000e+00
     273 -9.0000000000000e-02 -7.0000000000000e-02  0.0000000000000e+00
     274 -9.0000000000000e-02 -6.0000000000000e-02  0.0000000000000e+00
     275 -9.0000000000000e-02 -5.0000000000000e-02  0.0000000000000e+00
     276 -9.0000000000000e-02 -4.0000000000000e-02  0.0000000000000e+00
     277 -9.0000000000000e-02 -3.0000000000000e-02  0.0000000000000e+00
     278 -9.0000000000000e-02 -2.0000000000000e-02  0.0000000000000e+00
     279 -9.0000000000000e-02 -1.0000000000000e-02  0.0000000000000e+00
     280 -9.0000000000000e-02  1.9081958235740e-17  0.0000000000000e+00
     281 -9.0000000000000e-02  1.0000000000000e-02  0.0000000000000e+00
     282 -9.0000000000000e-02  2.0000000000000e-02  0.0000000000000e+00
     283 -9.0000000000000e-02  3.0000000000000e-02  0.0000000000000e+00
     284 -9.0000000000000e-02  4.0000000000000e-02  0.0000000000000e+00
     285 -9.0000000000000e-02  5.0000000000000e-02  0.0000000000000e+00
     286 -9.0000000000000e-02  6.0000000000000e-02  0.0000000000000e+00
     287 -9.0000000000000e-02  7.0000000000000e-02  0.0000000000000e+00
     288 -9.0000000000000e-02  8.0000000000000e-02  0.0000000000000e+00
     289 -9.0000000000000e-02  9.0000000000000e-02  0.0000000000000e+00
     290 -9.0000000000000e-02  1.0000000000000e-01  0.0000000000000e+00
     291 -9.0000000000000e-02  1.1000000000000e-01  0.0000000000000e+00
     292 -9.0000000000000e-02  1.2000000000000e-01  0.0000000000000e+00
     293 -9.0000000000000e-02  1.3000000000000e-01  0.0000000000000e+00
     294 -9.0000000000000e-02  1.4000000000000e-01  0.0000000000000e+00
     295 -8.0000000000000e-02 -1.4000000000000e-01  0.0000000000000e+00
     296 -8.0000000000000e-02 -1.3000000000000e-01  0.0000000000000e+00
     297 -8.0000000000000e-02 -1.2000000000000e-01  0.0000000000000e+00
     298 -8.0000000000000e-02 -1.1000000000000e-01  0.0000000000000e+00
     299 -8.0000000000000e-02 -1.0000000000000e-01  0.0000000000000e+00
     300 -8.0000000000000e-02 -9.0000000000000e-02  0.0000000000000e+00
     301 -8.0000000000000e-02 -8.0000000000000e-02  0.0000000000000e+00
     302 -8.0000000000000e-02 -7.0000000000000e-02  0.0000000000000e+00
     303 -8.0000000000000e-02 -6.0000000000000e-02  0.0000000000000e+00
     304 -8.0000000000000e-02 -5.0000000000000e-02  0.0000000000000e+00
     305 -8.0000000000000e-02 -4.0000000000000e-02  0.0000000000000e+00
     306 -8.0000000000000e-02 -3.0000000000000e-02  0.0000000000000e+00
     307 -8.0000000000000e-02 -2.0000000000000e-02  0.0000000000000e+00
     308 -8.0000000000000e-02 -1.0000000000000e-02  0.0000000000000e+00
     309 -8.0000000000000e-02  0.0000000000000e+00  0.0000000000000e+00
     310 -8.0000000000000e-02  1.0000000000000e-02  0.0000000000000e+00
     311 -8.0000000000000e-02  2.0000000000000e-02  0.0000000000000e+00
     312 -8.0000000000000e-02  3.0000000000000e-02  0.0000000000000e+00
     313 -8.0000000000000e-02  4.0000000000000e-02  0.0000000000000e+00
     314 -8.0000000000000e-02  5.0000000000000e-02  0.0000000000000e+00
     315 -8.0000000000000e-02  6.0000000000000e-02  0.0000000000000e+00
     316 -8.0000000000000e-02  7.0000000000000e-02  0.0000000000000e+00
     317 -8.0000000000000e-02  8.0000000000000e-02  0.0000000000000e+00
     318 -8.0000000000000e-02  9.0000000000000e-02  0.0000000000000e+00
     319 -8.0000000000000e-02  1.0000000000000e-01  0.0000000000000e+00
     320 -8.0000000000000e-02  1.1000000000000e-01  0.0000000000000e+00
     321 -8.0000000000000e-02  1.2000000000000e-01  0.0000000000000e+00
     322 -8.0000000000000e-02  1.3000000000000e-01  0.0000000000000e+00
     323 -8.0000000000000e-02  1.4000000000000e-01  0.0000000000000e+00
     324 -7.0000000000000e-02 -1.4000000000000e-01  0.0000000000000e+00
     325 -7.0000000000000e-02 -1.3000000000000e-01  0.0000000000000e+00
     326 -7.0000000000000e-02 -1.2000000000000e-01  0.0000000000000e+00
     327 -7.0000000000000e-02 -1.1000000000000e-01  0.0000000000000e+00
     328 -7.0000000000000e-02 -1.0000000000000e-01  0.0000000000000e+00
     329 -7.0000000000000e-02 -9.0000000000000e-02  0.0000000000000e+00
     330 -7.0000000000000e-02 -8.0000000000000e-02  0.0000000000000e+00
     331 -7.0000000000000e-02 -7.0000000000000e-02  0.0000000000000e+00
     332 -7.0000000000000e-02 -6.0000000000000e-02  0.0000000000000e+00
     333 -7.0000000000000e-02 -5.0000000000000e-02  0.0000000000000e+00
     334 -7.0000000000000e-02 -4.0000000000000e-02  0.0000000000000e+00
     335 -7.0000000000000e-02 -3.0000000000000e-02  0.0000000000000e+00
     336 -7.0000000000000e-02 -2.0000000000000e-02  0.0000000000000e+00
     337 -7.0000000000000e-02 -1.0000000000000e-02  0.0000000000000e+00
     338 -7.0000000000000e-02  0.0000000000000e+00  0.0000000000000e+00
     339 -7.0000000000000e-02  1.0000000000000e-02  0.0000000000000e+00
     340 -7.0000000000000e-02  2.0000000000000e-02  0.0000000000000e+00
     341 -7.0000000000000e-02  3.0000000000000e-02  0.0000000000000e+00
     342 -7.0000000000000e-02  4.0000000000000e-02  0.0000000000000e+00
     343 -7.0000000000000e-02  5.0000000000000e-02  0.0000000000000e+00
     344 -7.0000000000000e-02  6.0000000000000e-02  0.0000000000000e+00
     345 -7.0000000000000e-02  7.0000000000000e-02  0.0000000000000e+00
     346 -7.0000000000000e-02  8.0000000000000e-02  0.0000000000000e+00
     347 -7.0000000000000e-02  9.0000000000000e-02  0.0000000000000e+00
     348 -7.0000000000000e-02  1.0000000000000e-01  0.0000000000000e+00
     349 -7.0000000000000e-02  1.1000000000000e-01  0.0000000000000e+00
     350 -7.0000000000000e-02  1.2000000000000e-01  0.0000000000000e+00
     351 -7.0000000000000e-02  1.3000000000000e-01  0.0000000000000e+00
     352 -7.0000000000000e-02  1.4000000000000e-01  0.0000000000000e+00
     353 -6.0000000000000e-02 -1.4000000000000e-01  0.0000000000000e+00
     354 -6.0000000000000e-02 -1.3000000000000e-01  0.0000000000000e+00
     355 -6.0000000000000e-02 -1.2000000000000e-01  0.0000000000000e+00
     356 -6.0000000000000e-02 -1.1000000000000e-01  0.0000000000000e+00
     357 -6.0000000000000e-02 -1.0000000000000e-01  0.0000000000000e+00
     358 -6.0000000000000e-02 -9.0000000000000e-02  0.0000000000000e+00
     359 -6.0000000000000e-02 -8.0000000000000e-02  0.0000000000000e+00
     360 -6.0000000000000e-02 -7.0000000000000e-02  0.0000000000000e+00
     361 -6.0000000000000e-02 -6.0000000000000e-02  0.0000000000000e+00
     362 -6.0000000000000e-02 -5.0000000000000e-02  0.0000000000000e+00
     363 -6.0000000000000e-02 -4.0000000000000e-02  0.0000000000000e+00
     364 -6.0000000000000e-02 -3.0000000000000e-02  0.0000000000000e+00
     365 -6.0000000000000e-02 -2.0000000000000e-02  0.0000000000000e+00
     366 -6.0000000000000e-02 -1.0000000000000e-02  0.0000000000000e+00
     367 -6.0000000000000e-02  0.0000000000000e+00  0.0000000000000e+00
     368 -6.0000000000000e-02  1.0000000000000e-02  0.0000000000000e+00
     369 -6.0000000000000e-02  2.0000000000000e-02  0.0000000000000e+00
     370 -6.0000000000000e-02  3.0000000000000e-02  0.0000000000000e+00
     371 -6.0000000000000e-02  4.0000000000000e-02  0.0000000000000e+00
     372 -6.0000000000000e-02  5.0000000000000e-02  0.0000000000000e+00
     373 -6.0000000000000e-02  6.0000000000000e-02  0.0000000000000e+00
     374 -6.0000000000000e-02  7.0000000000000e-02  0.0000000000000e+00
     375 -6.0000000000000e-02  8.0000000000000e-02  0.0000000000000e+00
     376 -6.0000000000000e-02  9.0000000000000e-02  0.0000000000000e+00
     377 -6.0000000000000e-02  1.0000000000000e-01  0.0000000000000e+00
     378 -6.0000000000000e-02  1.1000000000000e-01  0.0000000000000e+00
     379 -6.0000000000000e-02  1.2000000000000e-01  0.0000000000000e+00
     380 -6.0000000000000e-02  1.3000000000000e-01  0.0000000000000e+00
     381 -6.0000000000000e-02  1.4000000000000e-01  0.0000000000000e+00
     382 -5.0000000000000e-02 -1.4000000000000e-01  0.0000000000000e+00
     383 -5.0000000000000e-02 -1.3000000000000e-01  0.0000000000000e+00
     384 -5.0000000000000e-02 -1.2000000000000e-01  0.0000000000000e+00
     385 -5.0000000000000e-02 -1.1000000000000e-01  0.0000000000000e+00
     386 -5.0000000000000e-02 -1.0000000000000e-01  0.0000000000000e+00
     387 -5.0000000000000e-02 -9.0000000000000e-02  0.0000000000000e+00
     388 -5.0000000000000e-02 -8.0000000000000e-02  0.0000000000000e+00
     389 -5.0000000000000e-02 -7.0000000000000e-02  0.0000000000000e+00
     390 -5.0000000000000e-02 -6.0000000000000e-02  0.0000000000000e+00
     391 -5.0000000000000e-02 -5.0000000000000e-02  0.0000000000000e+00
     392 -5.0000000000000e-02 -4.0000000000000e-02  0.0000000000000e+00
     393 -5.0000000000000e-02 -3.0000000000000e-02  0.0000000000000e+00
     394 -5.0000000000000e-02 -2.0000000000000e-02  0.0000000000000e+00
     395 -5.0000000000000e-02 -1.0000000000000e-02  0.0000000000000e+00
     396 -5.0000000000000e-02  0.0000000000000e+00  0.0000000000000e+00
     397 -5.0000000000000e-02  1.0000000000000e-02  0.0000000000000e+00
     398 -5.0000000000000e-02  2.0000000000000e-02  0.0000000000000e+00
     399 -5.0000000000000e-02  3.0000000000000e-02  0.0000000000000e+00
     400 -5.0000000000000e-02  4.0000000000000e-02  0.0000000000000e+00
     401 -5.0000000000000e-02  5.0000000000000e-02  0.0000000000000e+00
     402 -5.0000000000000e-02  6.0000000000000e-02  0.0000000000000e+00
     403 -5.0000000000000e-02  7.0000000000000e-02  0.0000000000000e+00
     404 -5.0000000000000e-02  8.0000000000000e-02  0.0000000000000e+00
     405 -5.0000000000000e-02  9.0000000000000e-02  0.0000000000000e+00
     406 -5.0000000000000e-02  1.0000000000000e-01  0.0000000000000e+00
     407 -5.0000000000000e-02  1.1000000000000e-01  0.0000000000000e+00
     408 -5.0000000000000e-02  1.2000000000000e-01  0.0000000000000e+00
     409 -5.0000000000000e-02  1.3000000000000e-01  0.0000000000000e+00
     410 -5.0000000000000e-02  1.4000000000000e-01  0.0000000000000e+00
     411 -4.0000000000000e-02 -1.4000000000000e-01  0.0000000000000e+00
     412 -4.0000000000000e-02 -1.3000000000000e-01  0.0000000000000e+00
     413 -4.0000000000000e-02 -1.2000000000000e-01  0.0000000000000e+00
     414 -4.0000000000000e-02 -1.1000000000000e-01  0.0000000000000e+00
     415 -4.0000000000000e-02 -1.0000000000000e-01  0.0000000000000e+00
     416 -4.0000000000000e-02 -9.0000000000000e-02  0.0000000000000e+00
     417 -4.0000000000000e-02 -8.0000000000000e-02  0.0000000000000e+00
     418 -4.0000000000000e-02 -7.0000000000000e-02  0.0000000000000e+00
     419 -4.0000000000000e-02 -6.0000000000000e-02  0.0000000000000e+00
     420 -4.0000000000000e-02 -5.0000000000000e-02  0.0000000000000e+00
     421 -4.0000000000000e-02 -4.0000000000000e-02  0.0000000000000e+00
     422 -4.0000000000000e-02 -3.0000000000000e-02  0.0000000000000e+00
     423 -4.0000000000000e-02 -2.0000000000000e-02  0.0000000000000e+00
     424 -4.0000000000000e-02 -1.0000000000000e-02  0.0000000000000e+00
     425 -4.0000000000000e-02  1.0408340855860e-17  0.0000000000000e+00
     426 -4.0000000000000e-02  1.0000000000000e-02  0.0000000000000e+00
     427 -4.0000000000000e-02  2.0000000000000e-02  0.0000000000000e+00
     428 -4.0000000000000e-02  3.0000000000000e-02  0.0000000000000e+00
     429 -4.0000000000000e-02  4.0000000000000e-02  0.0000000000000e+00
     430 -4.0000000000000e-02  5.0000000000000e-02  0.0000000000000e+00
     431 -4.0000000000000e-02  6.0000000000000e-02  0.0000000000000e+00
     432 -4.0000000000000e-02  7.0000000000000e-02  0.0000000000000e+00
     433 -4.0000000000000e-02  8.0000000000000e-02  0.0000000000000e+00
     434 -4.0000000000000e-02  9.0000000000000e-02  0.0000000000000e+00
     435 -4.0000000000000e-02  1.0000000000000e-01  0.0000000000000e+00
     436 -4.0000000000000e-02  1.1000000000000e-01  0.0000000000000e+00
     437 -4.0000000000000e-02  1.2000000000000e-01  0.0000000000000e+00
     438 -4.0000000000000e-02  1.3000000000000e-01  0.0000000000000e+00
     439 -4.0000000000000e-02  1.4000000000000e-01  0.0000000000000e+00
     440 -3.0000000000000e-02 -1.4000000000000e-01  0.0000000000000e+00
     441 -3.0000000000000e-02 -1.3000000000000e-01  0.0000000000000e+00
     442 -3.0000000000000e-02 -1.2000000000000e-01  0.0000000000000e+00
     443 -3.0000000000000e-02 -1.1000000000000e-01  0.0000000000000e+00
     444 -3.0000000000000e-02 -1.0000000000000e-01  0.0000000000000e+00
     445 -3.0000000000000e-02 -9.0000000000000e-02  0.0000000000000e+00
     446 -3.0000000000000e-02 -8.0000000000000e-02  0.0000000000000e+00
     447 -3.0000000000000e-02 -7.0000000000000e-02  0.0000000000000e+00
     448 -3.0000000000000e-02 -6.0000000000000e-02  0.0000000000000e+00
     449 -3.0000000000000e-02 -5.0000000000000e-02  0.0000000000000e+00
     450 -3.0000000000000e-02 -4.0000000000000e-02  0.0000000000000e+00
     451 -3.0000000000000e-02 -3.0000000000000e-02  0.0000000000000e+00
     452 -3.0000000000000e-02 -2.0000000000000e-02  0.0000000000000e+00
     453 -3.0000000000000e-02 -1.0000000000000e-02  0.0000000000000e+00
     454 -3.0000000000000e-02  0.0000000000000e+00  0.0000000000000e+00
     455 -3.0000000000000e-02  1.0000000000000e-02  0.0000000000000e+00
     456 -3.0000000000000e-02  2.0000000000000e-02  0.0000000000000e+00
     457 -3.0000000000000e-02  3.0000000000000e-02  0.0000000000000e+00
     458 -3.0000000000000e-02  4.0000000000000e-02  0.0000000000000e+00
     459 -3.0000000000000e-02  5.0000000000000e-02  0.0000000000000e+00
     460 -3.0000000000000e-02  6.0000000000000e-02  0.0000000000000e+00
     461 -3.0000000000000e-02  7.0000000000000e-02  0.0000000000000e+00
     462 -3.0000000000000e-02  8.0000000000000e-02  0.0000000000000e+00
     463 -3.0000000000000e-02  9.0000000000000e-02  0.0000000000000e+00
     464 -3.0000000000000e-02  1.0000000000000e-01  0.0000000000000e+00
     465 -3.0000000000000e-02  1.1000000000000e-01  0.0000000000000e+00
     466 -3.0000000000000e-02  1.2000000000000e-01  0.0000000000000e+00
     467 -3.0000000000000e-02  1.3000000000000e-01  0.0000000000000e+00
     468 -3.0000000000000e-02  1.4000000000000e-01  0.0000000000000e+00
     469 -2.0000000000000e-02 -1.4000000000000e-01  0.0000000000000e+00
     470 -2.0000000000000e-02 -1.3000000000000e-01  0.0000000000000e+00
     471 -2.0000000000000e-02 -1.2000000000000e-01  0.0000000000000e+00
     472 -2.0000000000000e-02 -1.1000000000000e-01  0.0000000000000e+00
     473 -2.0000000000000e-02 -1.0000000000000e-01  0.0000000000000e+00
     474 -2.0000000000000e-02 -9.0000000000000e-02  0.0000000000000e+00
     475 -2.0000000000000e-02 -8.0000000000000e-02  0.0000000000000e+00
     476 -2.0000000000000e-02 -7.0000000000000e-02  0.0000000000000e+00
     477 -2.0000000000000e-02 -6.0000000000000e-02  0.0000000000000e+00
     478 -2.0000000000000e-02 -5.0000000000000e-02  0.0000000000000e+00
     479 -2.0000000000000e-02 -4.0000000000000e-02  0.0000000000000e+00
     480 -2.0000000000000e-02 -3.0000000000000e-02  0.0000000000000e+00
     481 -2.0000000000000e-02 -2.0000000000000e-02  0.0000000000000e+00
     482 -2.0000000000000e-02 -1.0000000000000e-02  0.0000000000000e+00
     483 -2.0000000000000e-02  1.3877787807810e-17  0.0000000000000e+00
     484 -2.0000000000000e-02  1.0000000000000e-02  0.0000000000000e+00
     485 -2.0000000000000e-02  2.0000000000000e-02  0.0000000000000e+00
     486 -2.0000000000000e-02  3.0000000000000e-02  0.0000000000000e+00
     487 -2.0000000000000e-02  4.0000000000000e-02  0.0000000000000e+00
     488 -2.0000000000000e-02  5.0000000000000e-02  0.0000000000000e+00
     489 -2.0000000000000e-02  6.0000000000000e-02  0.0000000000000e+00
     490 -2.0000000000000e-02  7.0000000000000e-02  0.0000000000000e+00
     491 -2.0000000000000e-02  8.0000000000000e-02  0.0000000000000e+00
     492 -2.0000000000000e-02  9.0000000000000e-02  0.0000000000000e+00
     493 -2.0000000000000e-02  1.0000000000000e-01  0.0000000000000e+00
     494 -2.0000000000000e-02  1.1000000000000e-01  0.0000000000000e+00
     495 -2.0000000000000e-02  1.2000000000000e-01  0.0000000000000e+00
     496 -2.0000000000000e-02  1.3000000000000e-01  0.0000000000000e+00
     497 -2.0000000000000e-02  1.4000000000000e-01  0.0000000000000e+00
     498 -1.0000000000000e-02 -1.4000000000000e-01  0.0000000000000e+00
     499 -1.0000000000000e-02 -1.3000000000000e-01  0.0000000000000e+00
     500 -1.0000000000000e-02 -1.2000000000000e-01  0.0000000000000e+00
     501 -1.0000000000000e-02 -1.1000000000000e-01  0.0000000000000e+00
     502 -1.0000000000000e-02 -1.0000000000000e-01  0.0000000000000e+00
     503 -1.0000000000000e-02 -9.0000000000000e-02  0.0000000000000e+00
     504 -1.0000000000000e-02 -8.0000000000000e-02  0.0000000000000e+00
     505 -1.0000000000000e-02 -7.0000000000000e-02  0.0000000000000e+00
     506 -1.0000000000000e-02 -6.0000000000000e-02  0.0000000000000e+00
     507 -1.0000000000000e-02 -5.0000000000000e-02  0.0000000000000e+00
     508 -1.0000000000000e-02 -4.0000000000000e-02  0.0000000000000e+00
     509 -1.0000000000000e-02 -3.0000000000000e-02  0.0000000000000e+00
     510 -1.0000000000000e-02 -2.0000000000000e-02  0.0000000000000e+00
     511 -1.0000000000000e-02 -1.0000000000000e-02  0.0000000000000e+00
     512 -1.0000000000000e-02  0.0000000000000e+00  0.0000000000000e+00
     513 -1.0000000000000e-02  1.0000000000000e-02  0.0000000000000e+00
     514 -1.0000000000000e-02  2.0000000000000e-02  0.0000000000000e+00
     515 -1.0000000000000e-02  3.0000000000000e-02  0.0000000000000e+00
     516 -1.0000000000000e-02  4.0000000000000e-02  0.0000000000000e+00
     517 -1.0000000000000e-02  5.0000000000000e-02  0.0000000000000e+00
     518 -1.0000000000000e-02  6.0000000000000e-02  0.0000000000000e+00
     519 -1.0000000000000e-02  7.0000000000000e-02  0.0000000000000e+00
     520 -1.0000000000000e-02  8.0000000000000e-02  0.0000000000000e+00
     521 -1.0000000000000e-02  9.0000000000000e-02  0.0000000000000e+00
     522 -1.0000000000000e-02  1.0000000000000e-01  0.0000000000000e+00
     523 -1.0000000000000e-02  1.1000000000000e-01  0.0000000000000e+00
     524 -1.0000000000000e-02  1.2000000000000e-01  0.0000000000000e+00
     525 -1.0000000000000e-02  1.3000000000000e-01  0.0000000000000e+00
     526 -1.0000000000000e-02  1.4000000000000e-01  0.0000000000000e+00
     527 -2.6454533008650e-17 -1.4000000000000e-01  0.0000000000000e+00
     528 -2.5153490401660e-17 -1.3000000000000e-01  0.0000000000000e+00
     529  0.0000000000000e+00 -1.2000000000000e-01  0.0000000000000e+00
     530 -2.4286128663680e-17 -1.1000000000000e-01  0.0000000000000e+00
     531 -1.0408340855860e-17 -1.0000000000000e-01  0.0000000000000e+00
     532 -1.2143064331840e-17 -9.0000000000000e-02  0.0000000000000e+00
     533 -1.0408340855860e-17 -8.0000000000000e-02  0.0000000000000e+00
     534  0.0000000000000e+00 -7.0000000000000e-02  0.0000000000000e+00
     535  0.0000000000000e+00 -6.0000000000000e-02  0.0000000000000e+00
     536  0.0000000000000e+00 -5.0000000000000e-02  0.0000000000000e+00
     537 -1.3877787807810e-17 -4.0000000000000e-02  0.0000000000000e+00
     538  0.0000000000000e+00 -3.0000000000000e-02  0.0000000000000e+00
     539 -1.3877787807810e-17 -2.0000000000000e-02  0.0000000000000e+00
     540  0.0000000000000e+00 -1.0000000000000e-02  0.0000000000000e+00
     541  0.0000000000000e+00  0.0000000000000e+00  0.0000000000000e+00
     542  0.0000000000000e+00  1.0000000000000e-02  0.0000000000000e+00
     543  1.3877787807810e-17  2.0000000000000e-02  0.0000000000000e+00
     544  0.0000000000000e+00  3.0000000000000e-02  0.0000000000000e+00
     545  1.3877787807810e-17  4.0000000000000e-02  0.0000000000000e+00
     546  0.0000000000000e+00  5.0000000000000e-02  0.0000000000000e+00
     547  0.0000000000000e+00  6.0000000000000e-02  0.0000000000000e+00
     548  0.0000000000000e+00  7.0000000000000e-02  0.0000000000000e+00
     549  1.3877787807810e-17  8.0000000000000e-02  0.0000000000000e+00
     550  1.3877787807810e-17  9.0000000000000e-02  0.0000000000000e+00
     551  1.3877787807810e-17  1.0000000000000e-01  0.0000000000000e+00
     552  2.7755575615630e-17  1.1000000000000e-01  0.0000000000000e+00
     553  1.3877787807810e-17  1.2000000000000e-01  0.0000000000000e+00
     554  2.7755575615630e-17  1.3000000000000e-01  0.0000000000000e+00
     555  1.3877787807810e-17  1.4000000000000e-01  0.0000000000000e+00
     556  1.0000000000000e-02 -1.4000000000000e-01  0.0000000000000e+00
     557  1.0000000000000e-02 -1.3000000000000e-01  0.0000000000000e+00
     558  1.0000000000000e-02 -1.2000000000000e-01  0.0000000000000e+00
     559  1.0000000000000e-02 -1.1000000000000e-01  0.0000000000000e+00
     560  1.0000000000000e-02 -1.0000000000000e-01  0.0000000000000e+00
     561  1.0000000000000e-02 -9.0000000000000e-02  0.0000000000000e+00
     562  1.0000000000000e-02 -8.0000000000000e-02  0.0000000000000e+00
     563  1.0000000000000e-02 -7.0000000000000e-02  0.0000000000000e+00
     564  1.0000000000000e-02 -6.0000000000000e-02  0.0000000000000e+00
     565  1.0000000000000e-02 -5.0000000000000e-02  0.0000000000000e+00
     566  1.0000000000000e-02 -4.0000000000000e-02  0.0000000000000e+00
     567  1.0000000000000e-02 -3.0000000000000e-02  0.0000000000000e+00
     568  1.0000000000000e-02 -2.0000000000000e-02  0.0000000000000e+00
     569  1.0000000000000e-02 -1.0000000000000e-02  0.0000000000000e+00
     570  1.0000000000000e-02  0.0000000000000e+00  0.0000000000000e+00
     571  1.0000000000000e-02  1.0000000000000e-02  0.0000000000000e+00
     572  1.0000000000000e-02  2.0000000000000e-02  0.0000000000000e+00
     573  1.0000000000000e-02  3.0000000000000e-02  0.0000000000000e+00
     574  1.0000000000000e-02  4.0000000000000e-02  0.0000000000000e+00
     575  1.0000000000000e-02  5.0000000000000e-02  0.0000000000000e+00
     576  1.0000000000000e-02  6.0000000000000e-02  0.0000000000000e+00
     577  1.0000000000000e-02  7.0000000000000e-02  0.0000000000000e+00
     578  1.0000000000000e-02  8.0000000000000e-02  0.0000000000000e+00
     579  1.0000000000000e-02  9.0000000000000e-02  0.0000000000000e+00
     580  1.0000000000000e-02  1.0000000000000e-01  0.0000000000000e+00
     581  1.0000000000000e-02  1.1000000000000e-01  0.0000000000000e+00
     582  1.0000000000000e-02  1.2000000000000e-01  0.0000000000000e+00
     583  1.0000000000000e-02  1.3000000000000e-01  0.0000000000000e+00
     584  1.0000000000000e-02  1.4000000000000e-01  0.0000000000000e+00
     585  2.0000000000000e-02 -1.4000000000000e-01  0.0000000000000e+00
     586  2.0000000000000e-02 -1.3000000000000e-01  0.0000000000000e+00
     587  2.0000000000000e-02 -1.2000000000000e-01  0.0000000000000e+00
     588  2.0000000000000e-02 -1.1000000000000e-01  0.0000000000000e+00
     589  2.0000000000000e-02 -1.0000000000000e-01  0.0000000000000e+00
     590  2.0000000000000e-02 -9.0000000000000e-02  0.0000000000000e+00
     591  2.0000000000000e-02 -8.0000000000000e-02  0.0000000000000e+00
     592  2.0000000000000e-02 -7.0000000000000e-02  0.0000000000000e+00
     593  2.0000000000000e-02 -6.0000000000000e-02  0.0000000000000e+00
     594  2.0000000000000e-02 -5.0000000000000e-02  0.0000000000000e+00
     595  2.0000000000000e-02 -4.0000000000000e-02  0.0000000000000e+00
     596  2.0000000000000e-02 -3.0000000000000e-02  0.0000000000000e+00
     597  2.0000000000000e-02 -2.0000000000000e-02  0.0000000000000e+00
     598  2.0000000000000e-02 -1.0000000000000e-02  0.0000000000000e+00
     599  2.0000000000000e-02 -1.3877787807810e-17  0.0000000000000e+00
     600  2.0000000000000e-02  1.0000000000000e-02  0.0000000000000e+00
     601  2.0000000000000e-02  2.0000000000000e-02  0.0000000000000e+00
     602  2.0000000000000e-02  3.0000000000000e-02  0.0000000000000e+00
     603  2.0000000000000e-02  4.0000000000000e-02  0.0000000000000e+00
     604  2.0000000000000e-02  5.0000000000000e-02  0.0000000000000e+00
     605  2.0000000000000e-02  6.0000000000000e-02  0.0000000000000e+00
     606  2.0000000000000e-02  7.0000000000000e-02  0.0000000000000e+00
     607  2.0000000000000e-02  8.0000000000000e-02  0.0000000000000e+00
     608  2.0000000000000e-02  9.0000000000000e-02  0.0000000000000e+00
     609  2.0000000000000e-02  1.0000000000000e-01  0.0000000000000e+00
     610  2.0000000000000e-02  1.1000000000000e-01  0.0000000000000e+00
     611  2.0000000000000e-02  1.2000000000000e-01  0.0000000000000e+00
     612  2.0000000000000e-02  1.3000000000000e-01  0.0000000000000e+00
     613  2.0000000000000e-02  1.4000000000000e-01  0.0000000000000e+00
     614  3.0000000000000e-02 -1.4000000000000e-01  0.0000000000000e+00
     615  3.0000000000000e-02 -1.3000000000000e-01  0.0000000000000e+00
     616  3.0000000000000e-02 -1.2000000000000e-01  0.0000000000000e+00
     617  3.0000000000000e-02 -1.1000000000000e-01  0.0000000000000e+00
     618  3.0000000000000e-02 -1.0000000000000e-01  0.0000000000000e+00
     619  3.0000000000000e-02 -9.0000000000000e-02  0.0000000000000e+00
     620  3.0000000000000e-02 -8.0000000000000e-02  0.0000000000000e+00
     621  3.0000000000000e-02 -7.0000000000000e-02  0.0000000000000e+00
     622  3.0000000000000e-02 -6.0000000000000e-02  0.0000000000000e+00
     623  3.0000000000000e-02 -5.0000000000000e-02  0.0000000000000e+00
     624  3.0000000000000e-02 -4.0000000000000e-02  0.0000000000000e+00
     625  3.0000000000000e-02 -3.0000000000000e-02  0.0000000000000e+00
     626  3.0000000000000e-02 -2.0000000000000e-02  0.0000000000000e+00
     627  3.0000000000000e-02 -1.0000000000000e-02  0.0000000000000e+00
     628  3.0000000000000e-02  0.0000000000000e+00  0.0000000000000e+00
     629  3.0000000000000e-02  1.0000000000000e-02  0.0000000000000e+00
     630  3.0000000000000e-02  2.0000000000000e-02  0.0000000000000e+00
     631  3.0000000000000e-02  3.0000000000000e-02  0.0000000000000e+00
     632  3.0000000000000e-02  4.0000000000000e-02  0.0000000000000e+00
     633  3.0000000000000e-02  5.0000000000000e-02  0.0000000000000e+00
     634  3.0000000000000e-02  6.0000000000000e-02  0.0000000000000e+00
     635  3.0000000000000e-02  7.0000000000000e-02  0.0000000000000e+00
     636  3.0000000000000e-02  8.0000000000000e-02  0.0000000000000e+00
     637  3.0000000000000e-02  9.0000000000000e-02  0.0000000000000e+00
     638  3.0000000000000e-02  1.0000000000000e-01  0.0000000000000e+00
     639  3.0000000000000e-02  1.1000000000000e-01  0.0000000000000e+00
     640  3.0000000000000e-02  1.2000000000000e-01  0.0000000000000e+00
     641  3.0000000000000e-02  1.3000000000000e-01  0.0000000000000e+00
     642  3.0000000000000e-02  1.4000000000000e-01  0.0000000000000e+00
     643  4.0000000000000e-02 -1.4000000000000e-01  0.0000000000000e+00
     644  4.0000000000000e-02 -1.3000000000000e-01  0.0000000000000e+00
     645  4.0000000000000e-02 -1.2000000000000e-01  0.0000000000000e+00
     646  4.0000000000000e-02 -1.1000000000000e-01  0.0000000000000e+00
     647  4.0000000000000e-02 -1.0000000000000e-01  0.0000000000000e+00
     648  4.0000000000000e-02 -9.0000000000000e-02  0.0000000000000e+00
     649  4.0000000000000e-02 -8.0000000000000e-02  0.0000000000000e+00
     650  4.0000000000000e-02 -7.0000000000000e-02  0.0000000000000e+00
     651  4.0000000000000e-02 -6.0000000000000e-02  0.0000000000000e+00
     652  4.0000000000000e-02 -5.0000000000000e-02  0.0000000000000e+00
     653  4.0000000000000e-02 -4.0000000000000e-02  0.0000000000000e+00
     654  4.0000000000000e-02 -3.0000000000000e-02  0.0000000000000e+00
     655  4.0000000000000e-02 -2.0000000000000e-02  0.0000000000000e+00
     656  4.0000000000000e-02 -1.0000000000000e-02  0.0000000000000e+00
     657  4.0000000000000e-02  0.0000000000000e+00  0.0000000000000e+00
     658  4.0000000000000e-02  1.0000000000000e-02  0.0000000000000e+00
     659  4.0000000000000e-02  2.0000000000000e-02  0.0000000000000e+00
     660  4.0000000000000e-02  3.0000000000000e-02  0.0000000000000e+00
     661  4.0000000000000e-02  4.0000000000000e-02  0.0000000000000e+00
     662  4.0000000000000e-02  5.0000000000000e-02  0.0000000000000e+00
     663  4.0000000000000e-02  6.0000000000000e-02  0.0000000000000e+00
     664  4.0000000000000e-02  7.0000000000000e-02  0.0000000000000e+00
     665  4.0000000000000e-02  8.0000000000000e-02  0.0000000000000e+00
     666  4.0000000000000e-02  9.0000000000000e-02  0.0000000000000e+00
     667  4.0000000000000e-02  1.0000000000000e-01  0.0000000000000e+00
     668  4.0000000000000e-02  1.1000000000000e-01  0.0000000000000e+00
     669  4.0000000000000e-02  1.2000000000000e-01  0.0000000000000e+00
     670  4.0000000000000e-02  1.3000000000000e-01  0.0000000000000e+00
     671  4.0000000000000e-02  1.4000000000000e-01  0.0000000000000e+00
     672  5.0000000000000e-02 -1.4000000000000e-01  0.0000000000000e+00
     673  5.0000000000000e-02 -1.3000000000000e-01  0.0000000000000e+00
     674  5.0000000000000e-02 -1.2000000000000e-01  0.0000000000000e+00
     675  5.0000000000000e-02 -1.1000000000000e-01  0.0000000000000e+00
     676  5.0000000000000e-02 -1.0000000000000e-01  0.0000000000000e+00
     677  5.0000000000000e-02 -9.0000000000000e-02  0.0000000000000e+00
     678  5.0000000000000e-02 -8.0000000000000e-02  0.0000000000000e+00
     679  5.0000000000000e-02 -7.0000000000000e-02  0.0000000000000e+00
     680  5.0000000000000e-02 -6.0000000000000e-02  0.0000000000000e+00
     681  5.0000000000000e-02 -5.0000000000000e-02  0.0000000000000e+00
     682  5.0000000000000e-02 -4.0000000000000e-02  0.0000000000000e+00
     683  5.0000000000000e-02 -3.0000000000000e-02  0.0000000000000e+00
     684  5.0000000000000e-02 -2.0000000000000e-02  0.0000000000000e+00
     685  5.0000000000000e-02 -1.0000000000000e-02  0.0000000000000e+00
     686  5.0000000000000e-02  0.0000000000000e+00  0.0000000000000e+00
     687  5.0000000000000e-02  1.0000000000000e-02  0.0000000000000e+00
     688  5.0000000000000e-02  2.0000000000000e-02  0.0000000000000e+00
     689  5.0000000000000e-02  3.0000000000000e-02  0.0000000000000e+00
     690  5.0000000000000e-02  4.0000000000000e-02  0.0000000000000e+00
     691  5.0000000000000e-02  5.0000000000000e-02  0.0000000000000e+00
     692  5.0000000000000e-02  6.0000000000000e-02  0.0000000000000e+00
     693  5.0000000000000e-02  7.0000000000000e-02  0.0000000000000e+00
     694  5.0000000000000e-02  8.0000000000000e-02  0.0000000000000e+00
     695  5.0000000000000e-02  9.0000000000000e-02  0.0000000000000e+00
     696  5.0000000000000e-02  1.0000000000000e-01  0.0000000000000e+00
     697  5.0000000000000e-02  1.1000000000000e-01  0.0000000000000e+00
     698  5.0000000000000e-02  1.2000000000000e-01  0.0000000000000e+00
     699  5.0000000000000e-02  1.3000000000000e-01  0.0000000000000e+00
     700  5.0000000000000e-02  1.4000000000000e-01  0.0000000000000e+00
     701  6.0000000000000e-02 -1.4000000000000e-01  0.0000000000000e+00
     702  6.0000000000000e-02 -1.3000000000000e-01  0.0000000000000e+00
     703  6.0000000000000e-02 -1.2000000000000e-01  0.0000000000000e+00
     704  6.0000000000000e-02 -1.1000000000000e-01  0.0000000000000e+00
     705  6.0000000000000e-02 -1.0000000000000e-01  0.0000000000000e+00
     706  6.0000000000000e-02 -9.0000000000000e-02  0.0000000000000e+00
     707  6.0000000000000e-02 -8.0000000000000e-02  0.0000000000000e+00
     708  6.0000000000000e-02 -7.0000000000000e-02  0.0000000000000e+00
     709  6.0000000000000e-02 -6.0000000000000e-02  0.0000000000000e+00
     710  6.0000000000000e-02 -5.0000000000000e-02  0.0000000000000e+00
     711  6.0000000000000e-02 -4.0000000000000e-02  0.0000000000000e+00
     712  6.0000000000000e-02 -3.0000000000000e-02  0.0000000000000e+00
     713  6.0000000000000e-02 -2.0000000000000e-02  0.0000000000000e+00
     714  6.0000000000000e-02 -1.0000000000000e-02  0.0000000000000e+00
     715  6.0000000000000e-02  0.0000000000000e+00  0.0000000000000e+00
     716  6.0000000000000e-02  1.0000000000000e-02  0.0000000000000e+00
     717  6.0000000000000e-02  2.0000000000000e-02  0.0000000000000e+00
     718  6.0000000000000e-02  3.0000000000000e-02  0.0000000000000e+00
     719  6.0000000000000e-02  4.0000000000000e-02  0.0000000000000e+00
     720  6.0000000000000e-02  5.0000000000000e-02  0.0000000000000e+00
     721  6.0000000000000e-02  6.0000000000000e-02  0.0000000000000e+00
     722  6.0000000000000e-02  7.0000000000000e-02  0.0000000000000e+00
     723  6.0000000000000e-02  8.0000000000000e-02  0.0000000000000e+00
     724  6.0000000000000e-02  9.0000000000000e-02  0.0000000000000e+00
     725  6.0000000000000e-02  1.0000000000000e-01  0.0000000000000e+00
     726  6.0000000000000e-02  1.1000000000000e-01  0.0000000000000e+00
     727  6.0000000000000e-02  1.2000000000000e-01  0.0000000000000e+00
     728  6.0000000000000e-02  1.3000000000000e-01  0.0000000000000e+00
     729  6.0000000000000e-02  1.4000000000000e-01  0.0000000000000e+00
     730  7.0000000000000e-02 -1.4000000000000e-01  0.0000000000000e+00
     731  7.0000000000000e-02 -1.3000000000000e-01  0.0000000000000e+00
     732  7.0000000000000e-02 -1.2000000000000e-01  0.0000000000000e+00
     733  7.0000000000000e-02 -1.1000000000000e-01  0.0000000000000e+00
     734  7.0000000000000e-02 -1.0000000000000e-01  0.0000000000000e+00
     735  7.0000000000000e-02 -9.0000000000000e-02  0.0000000000000e+00
     736  7.0000000000000e-02 -8.0000000000000e-02  0.0000000000000e+00
     737  7.0000000000000e-02 -7.0000000000000e-02  0.0000000000000e+00
     738  7.0000000000000e-02 -6.0000000000000e-02  0.0000000000000e+00
     739  7.0000000000000e-02 -5.0000000000000e-02  0.0000000000000e+00
     740  7.0000000000000e-02 -4.0000000000000e-02  0.0000000000000e+00
     741  7.0000000000000e-02 -3.0000000000000e-02  0.0000000000000e+00
     742  7.0000000000000e-02 -2.0000000000000e-02  0.0000000000000e+00
     743  7.0000000000000e-02 -1.0000000000000e-02  0.0000000000000e+00
     744  7.0000000000000e-02  0.0000000000000e+00  0.0000000000000e+00
     745  7.0000000000000e-02  1.0000000000000e-02  0.0000000000000e+00
     746  7.0000000000000e-02  2.0000000000000e-02  0.0000000000000e+00
     747  7.0000000000000e-02  3.0000000000000e-02  0.0000000000000e+00
     748  7.0000000000000e-02  4.0000000000000e-02  0.0000000000000e+00
     749  7.0000000000000e-02  5.0000000000000e-02  0.0000000000000e+00
     750  7.0000000000000e-02  6.0000000000000e-02  0.0000000000000e+00
     751  7.0000000000000e-02  7.0000000000000e-02  0.0000000000000e+00
     752  7.0000000000000e-02  8.0000000000000e-02  0.0000000000000e+00
     753  7.0000000000000e-02  9.0000000000000e-02  0.0000000000000e+00
     754  7.0000000000000e-02  1.0000000000000e-01  0.0000000000000e+00
     755  7.0000000000000e-02  1.1000000000000e-01  0.0000000000000e+00
     756  7.0000000000000e-02  1.2000000000000e-01  0.0000000000000e+00
     757  7.0000000000000e-02  1.3000000000000e-01  0.0000000000000e+00
     758  7.0000000000000e-02  1.4000000000000e-01  0.0000000000000e+00
     759  8.0000000000000e-02 -1.4000000000000e-01  0.0000000000000e+00
     760  8.0000000000000e-02 -1.3000000000000e-01  0.0000000000000e+00
     761  8.0000000000000e-02 -1.2000000000000e-01  0.0000000000000e+00
     762  8.0000000000000e-02 -1.1000000000000e-01  0.0000000000000e+00
     763  8.0000000000000e-02 -1.0000000000000e-01  0.0000000000000e+00
     764  8.0000000000000e-02 -9.0000000000000e-02  0.0000000000000e+00
     765  8.0000000000000e-02 -8.0000000000000e-02  0.0000000000000e+00
     766  8.0000000000000e-02 -7.0000000000000e-02  0.0000000000000e+00
     767  8.0000000000000e-02 -6.0000000000000e-02  0.0000000000000e+00
     768  8.0000000000000e-02 -5.0000000000000e-02  0.0000000000000e+00
     769  8.0000000000000e-02 -4.0000000000000e-02  0.0000000000000e+00
     770  8.0000000000000e-02 -3.0000000000000e-02  0.0000000000000e+00
     771  8.0000000000000e-02 -2.0000000000000e-02  0.0000000000000e+00
     772  8.0000000000000e-02 -1.0000000000000e-02  0.0000000000000e+00
     773  8.0000000000000e-02 -2.0816681711720e-17  0.0000000000000e+00
     774  8.0000000000000e-02  1.0000000000000e-02  0.0000000000000e+00
     775  8.0000000000000e-02  2.0000000000000e-02  0.0000000000000e+00
     776  8.0000000000000e-02  3.0000000000000e-02  0.0000000000000e+00
     777  8.0000000000000e-02  4.0000000000000e-02  0.0000000000000e+00
     778  8.0000000000000e-02  5.0000000000000e-02  0.0000000000000e+00
     779  8.0000000000000e-02  6.0000000000000e-02  0.0000000000000e+00
     780  8.0000000000000e-02  7.0000000000000e-02  0.0000000000000e+00
     781  8.0000000000000e-02  8.0000000000000e-02  0.0000000000000e+00
     782  8.0000000000000e-02  9.0000000000000e-02  0.0000000000000e+00
     783  8.0000000000000e-02  1.0000000000000e-01  0.0000000000000e+00
     784  8.0000000000000e-02  1.1000000000000e-01  0.0000000000000e+00
     785  8.0000000000000e-02  1.2000000000000e-01  0.0000000000000e+00
     786  8.0000000000000e-02  1.3000000000000e-01  0.0000000000000e+00
     787  8.0000000000000e-02  1.4000000000000e-01  0.0000000000000e+00
     788  9.0000000000000e-02 -1.4000000000000e-01  0.0000000000000e+00
     789  9.0000000000000e-02 -1.3000000000000e-01  0.0000000000000e+00
     790  9.0000000000000e-02 -1.2000000000000e-01  0.0000000000000e+00
     791  9.0000000000000e-02 -1.1000000000000e-01  0.0000000000000e+00
     792  9.0000000000000e-02 -1.0000000000000e-01  0.0000000000000e+00
     793  9.0000000000000e-02 -9.0000000000000e-02  0.0000000000000e+00
     794  9.0000000000000e-02 -8.0000000000000e-02  0.0000000000000e+00
     795  9.0000000000000e-02 -7.0000000000000e-02  0.0000000000000e+00
     796  9.0000000000000e-02 -6.0000000000000e-02  0.0000000000000e+00
     797  9.0000000000000e-02 -5.0000000000000e-02  0.0000000000000e+00
     798  9.0000000000000e-02 -4.0000000000000e-02  0.0000000000000e+00
     799  9.0000000000000e-02 -3.0000000000000e-02  0.0000000000000e+00
     800  9.0000000000000e-02 -2.0000000000000e-02  0.0000000000000e+00
     801  9.0000000000000e-02 -1.0000000000000e-02  0.0000000000000e+00
     802  9.0000000000000e-02 -2.0816681711720e-17  0.0000000000000e+00
     803  9.0000000000000e-02  1.0000000000000e-02  0.0000000000000e+00
     804  9.0000000000000e-02  2.0000000000000e-02  0.0000000000000e+00
     805  9.0000000000000e-02  3.0000000000000e-02  0.0000000000000e+00
     806  9.0000000000000e-02  4.0000000000000e-02  0.0000000000000e+00
     807  9.0000000000000e-02  5.0000000000000e-02  0.0000000000000e+00
     808  9.0000000000000e-02  6.0000000000000e-02  0.0000000000000e+00
     809  9.0000000000000e-02  7.0000000000000e-02  0.0000000000000e+00
     810  9.0000000000000e-02  8.0000000000000e-02  0.0000000000000e+00
     811  9.0000000000000e-02  9.0000000000000e-02  0.0000000000000e+00
     812  9.0000000000000e-02  1.0000000000000e-01  0.0000000000000e+00
     813  9.0000000000000e-02  1.1000000000000e-01  0.0000000000000e+00
     814  9.0000000000000e-02  1.2000000000000e-01  0.0000000000000e+00
     815  9.0000000000000e-02  1.3000000000000e-01  0.0000000000000e+00
     816  9.0000000000000e-02  1.4000000000000e-01  0.0000000000000e+00
     817  1.0000000000000e-01 -1.4000000000000e-01  0.0000000000000e+00
     818  1.0000000000000e-01 -1.3000000000000e-01  0.0000000000000e+00
     819  1.0000000000000e-01 -1.2000000000000e-01  0.0000000000000e+00
     820  1.0000000000000e-01 -1.1000000000000e-01  0.0000000000000e+00
     821  1.0000000000000e-01 -1.0000000000000e-01  0.0000000000000e+00
     822  1.0000000000000e-01 -9.0000000000000e-02  0.0000000000000e+00
     823  1.0000000000000e-01 -8.0000000000000e-02  0.0000000000000e+00
     824  1.0000000000000e-01 -7.0000000000000e-02  0.0000000000000e+00
     825  1.0000000000000e-01 -6.0000000000000e-02  0.0000000000000e+00
     826  1.0000000000000e-01 -5.0000000000000e-02  0.0000000000000e+00
     827  1.0000000000000e-01 -4.0000000000000e-02  0.0000000000000e+00
     828  1.0000000000000e-01 -3.0000000000000e-02  0.0000000000000e+00
     829  1.0000000000000e-01 -2.0000000000000e-02  0.0000000000000e+00
     830  1.0000000000000e-01 -1.0000000000000e-02  0.0000000000000e+00
     831  1.0000000000000e-01  0.0000000000000e+00  0.0000000000000e+00
     832  1.0000000000000e-01  1.0000000000000e-02  0.0000000000000e+00
     833  1.0000000000000e-01  2.0000000000000e-02  0.0000000000000e+00
     834  1.0000000000000e-01  3.0000000000000e-02  0.0000000000000e+00
     835  1.0000000000000e-01  4.0000000000000e-02  0.0000000000000e+00
     836  1.0000000000000e-01  5.0000000000000e-02  0.0000000000000e+00
     837  1.0000000000000e-01  6.0000000000000e-02  0.0000000000000e+00
     838  1.0000000000000e-01  7.0000000000000e-02  0.0000000000000e+00
     839  1.0000000000000e-01  8.0000000000000e-02  0.0000000000000e+00
     840  1.0000000000000e-01  9.0000000000000e-02  0.0000000000000e+00
     841  1.0000000000000e-01  1.0000000000000e-01  0.0000000000000e+00
     842  1.0000000000000e-01  1.1000000000000e-01  0.0000000000000e+00
     843  1.0000000000000e-01  1.2000000000000e-01  0.0000000000000e+00
     844  1.0000000000000e-01  1.3000000000000e-01  0.0000000000000e+00
     845  1.0000000000000e-01  1.4000000000000e-01  0.0000000000000e+00
     846  1.1000000000000e-01 -1.4000000000000e-01  0.0000000000000e+00
     847  1.1000000000000e-01 -1.3000000000000e-01  0.0000000000000e+00
     848  1.1000000000000e-01 -1.2000000000000e-01  0.0000000000000e+00
     849  1.1000000000000e-01 -1.1000000000000e-01  0.0000000000000e+00
     850  1.1000000000000e-01 -1.0000000000000e-01  0.0000000000000e+00
     851  1.1000000000000e-01 -9.0000000000000e-02  0.0000000000000e+00
     852  1.1000000000000e-01 -8.0000000000000e-02  0.0000000000000e+00
     853  1.1000000000000e-01 -7.0000000000000e-02  0.0000000000000e+00
     854  1.1000000000000e-01 -6.0000000000000e-02  0.0000000000000e+00
     855  1.1000000000000e-01 -5.0000000000000e-02  0.0000000000000e+00
     856  1.1000000000000e-01 -4.0000000000000e-02  0.0000000000000e+00
     857  1.1000000000000e-01 -3.0000000000000e-02  0.0000000000000e+00
     858  1.1000000000000e-01 -2.0000000000000e-02  0.0000000000000e+00
     859  1.1000000000000e-01 -1.0000000000000e-02  0.0000000000000e+00
     860  1.1000000000000e-01 -2.7755575615630e-17  0.0000000000000e+00
     861  1.1000000000000e-01  1.0000000000000e-02  0.0000000000000e+00
     862  1.1000000000000e-01  2.0000000000000e-02  0.0000000000000e+00
     863  1.1000000000000e-01  3.0000000000000e-02  0.0000000000000e+00
     864  1.1000000000000e-01  4.0000000000000e-02  0.0000000000000e+00
     865  1.1000000000000e-01  5.0000000000000e-02  0.0000000000000e+00
     866  1.1000000000000e-01  6.0000000000000e-02  0.0000000000000e+00
     867  1.1000000000000e-01  7.0000000000000e-02  0.0000000000000e+00
     868  1.1000000000000e-01  8.0000000000000e-02  0.0000000000000e+00
     869  1.1000000000000e-01  9.0000000000000e-02  0.0000000000000e+00
     870  1.1000000000000e-01  1.0000000000000e-01  0.0000000000000e+00
     871  1.1000000000000e-01  1.1000000000000e-01  0.0000000000000e+00
     872  1.1000000000000e-01  1.2000000000000e-01  0.0000000000000e+00
     873  1.1000000000000e-01  1.3000000000000e-01  0.0000000000000e+00
     874  1.1000000000000e-01  1.4000000000000e-01  0.0000000000000e+00
     875  1.2000000000000e-01 -1.4000000000000e-01  0.0000000000000e+00
     876  1.2000000000000e-01 -1.3000000000000e-01  0.0000000000000e+00
     877  1.2000000000000e-01 -1.2000000000000e-01  0.0000000000000e+00
     878  1.2000000000000e-01 -1.1000000000000e-01  0.0000000000000e+00
     879  1.2000000000000e-01 -1.0000000000000e-01  0.0000000000000e+00
     880  1.2000000000000e-01 -9.0000000000000e-02  0.0000000000000e+00
     881  1.2000000000000e-01 -8.0000000000000e-02  0.0000000000000e+00
     882  1.2000000000000e-01 -7.0000000000000e-02  0.0000000000000e+00
     883  1.2000000000000e-01 -6.0000000000000e-02  0.0000000000000e+00
     884  1.2000000000000e-01 -5.0000000000000e-02  0.0000000000000e+00
     885  1.2000000000000e-01 -4.0000000000000e-02  0.0000000000000e+00
     886  1.2000000000000e-01 -3.0000000000000e-02  0.0000000000000e+00
     887  1.2000000000000e-01 -2.0000000000000e-02  0.0000000000000e+00
     888  1.2000000000000e-01 -1.0000000000000e-02  0.0000000000000e+00
     889  1.2000000000000e-01 -1.3877787807810e-17  0.0000000000000e+00
     890  1.2000000000000e-01  1.0000000000000e-02  0.0000000000000e+00
     891  1.2000000000000e-01  2.0000000000000e-02  0.0000000000000e+00
     892  1.2000000000000e-01  3.0000000000000e-02  0.0000000000000e+00
     893  1.2000000000000e-01  4.0000000000000e-02  0.0000000000000e+00
     894  1.2000000000000e-01  5.0000000000000e-02  0.0000000000000e+00
     895  1.2000000000000e-01  6.0000000000000e-02  0.0000000000000e+00
     896  1.2000000000000e-01  7.0000000000000e-02  0.0000000000000e+00
     897  1.2000000000000e-01  8.0000000000000e-02  0.0000000000000e+00
     898  1.2000000000000e-01  9.0000000000000e-02  0.0000000000000e+00
     899  1.2000000000000e-01  1.0000000000000e-01  0.0000000000000e+00
     900  1.2000000000000e-01  1.1000000000000e-01  0.0000000000000e+00
     901  1.2000000000000e-01  1.2000000000000e-01  0.0000000000000e+00
     902  1.2000000000000e-01  1.3000000000000e-01  0.0000000000000e+00
     903  1.2000000000000e-01  1.4000000000000e-01  0.0000000000000e+00
     904  1.3000000000000e-01 -1.4000000000000e-01  0.0000000000000e+00
     905  1.3000000000000e-01 -1.3000000000000e-01  0.0000000000000e+00
     906  1.3000000000000e-01 -1.2000000000000e-01  0.0000000000000e+00
     907  1.3000000000000e-01 -1.1000000000000e-01  0.0000000000000e+00
     908  1.3000000000000e-01 -1.0000000000000e-01  0.0000000000000e+00
     909  1.3000000000000e-01 -9.0000000000000e-02  0.0000000000000e+00
     910  1.3000000000000e-01 -8.0000000000000e-02  0.0000000000000e+00
     911  1.3000000000000e-01 -7.0000000000000e-02  0.0000000000000e+00
     912  1.3000000000000e-01 -6.0000000000000e-02  0.0000000000000e+00
     913  1.3000000000000e-01 -5.0000000000000e-02  0.0000000000000e+00
     914  1.3000000000000e-01 -4.0000000000000e-02  0.0000000000000e+00
     915  1.3000000000000e-01 -3.0000000000000e-02  0.0000000000000e+00
     916  1.3000000000000e-01 -2.0000000000000e-02  0.0000000000000e+00
     917  1.3000000000000e-01 -1.0000000000000e-02  0.0000000000000e+00
     918  1.3000000000000e-01 -2.7755575615630e-17  0.0000000000000e+00
     919  1.3000000000000e-01  1.0000000000000e-02  0.0000000000000e+00
     920  1.3000000000000e-01  2.0000000000000e-02  0.0000000000000e+00
     921  1.3000000000000e-01  3.0000000000000e-02  0.0000000000000e+00
     922  1.3000000000000e-01  4.0000000000000e-02  0.0000000000000e+00
     923  1.3000000000000e-01  5.0000000000000e-02  0.0000000000000e+00
     924  1.3000000000000e-01  6.0000000000000e-02  0.0000000000000e+00
     925  1.3000000000000e-01  7.0000000000000e-02  0.0000000000000e+00
     926  1.3000000000000e-01  8.0000000000000e-02  0.0000000000000e+00
     927  1.3000000000000e-01  9.0000000000000e-02  0.0000000000000e+00
     928  1.3000000000000e-01  1.0000000000000e-01  0.0000000000000e+00
     929  1.3000000000000e-01  1.1000000000000e-01  0.0000000000000e+00
     930  1.3000000000000e-01  1.2000000000000e-01  0.0000000000000e+00
     931  1.3000000000000e-01  1.3000000000000e-01  0.0000000000000e+00
     932  1.3000000000000e-01  1.4000000000000e-01  0.0000000000000e+00
     933  1.4000000000000e-01 -1.4000000000000e-01  0.0000000000000e+00
     934  1.4000000000000e-01 -1.3000000000000e-01  0.0000000000000e+00
     935  1.4000000000000e-01 -1.2000000000000e-01  0.0000000000000e+00
     936  1.4000000000000e-01 -1.1000000000000e-01  0.0000000000000e+00
     937  1.4000000000000e-01 -1.0000000000000e-01  0.0000000000000e+00
     938  1.4000000000000e-01 -9.0000000000000e-02  0.0000000000000e+00
     939  1.4000000000000e-01 -8.0000000000000e-02  0.0000000000000e+00
     940  1.4000000000000e-01 -7.0000000000000e-02  0.0000000000000e+00
     941  1.4000000000000e-01 -6.0000000000000e-02  0.0000000000000e+00
     942  1.4000000000000e-01 -5.0000000000000e-02  0.0000000000000e+00
     943  1.4000000000000e-01 -4.0000000000000e-02  0.0000000000000e+00
     944  1.4000000000000e-01 -3.0000000000000e-02  0.0000000000000e+00
     945  1.4000000000000e-01 -2.0000000000000e-02  0.0000000000000e+00
     946  1.4000000000000e-01 -1.0000000000000e-02  0.0000000000000e+00
     947  1.4000000000000e-01 -1.3877787807810e-17  0.0000000000000e+00
     948  1.4000000000000e-01  1.0000000000000e-02  0.0000000000000e+00
     949  1.4000000000000e-01  2.0000000000000e-02  0.0000000000000e+00
     950  1.4000000000000e-01  3.0000000000000e-02  0.0000000000000e+00
     951  1.4000000000000e-01  4.0000000000000e-02  0.0000000000000e+00
     952  1.4000000000000e-01  5.0000000000000e-02  0.0000000000000e+00
     953  1.4000000000000e-01  6.0000000000000e-02  0.0000000000000e+00
     954  1.4000000000000e-01  7.0000000000000e-02  0.0000000000000e+00
     955  1.4000000000000e-01  8.0000000000000e-02  0.0000000000000e+00
     956  1.4000000000000e-01  9.0000000000000e-02  0.0000000000000e+00
     957  1.4000000000000e-01  1.0000000000000e-01  0.0000000000000e+00
     958  1.4000000000000e-01  1.1000000000000e-01  0.0000000000000e+00
     959  1.4000000000000e-01  1.2000000000000e-01  0.0000000000000e+00
     960  1.4000000000000e-01  1.3000000000000e-01  0.0000000000000e+00
     961  1.4000000000000e-01  1.4000000000000e-01  0.0000000000000e+00

[1D Elements]
#ElemNr  ElemType  NrOfNodes  Level
#Node1 Node2 ... NodeNrOfNodes
901 100 2 dombnd
1 3
902 100 2 dombnd
3 4
903 100 2 dombnd
4 5
904 100 2 dombnd
5 6
905 100 2 dombnd
6 7
906 100 2 dombnd
7 8
907 100 2 dombnd
8 9
908 100 2 dombnd
9 10
909 100 2 dombnd
10 11
910 100 2 dombnd
11 12
911 100 2 dombnd
12 13
912 100 2 dombnd
13 14
913 100 2 dombnd
14 15
914 100 2 dombnd
15 16
915 100 2 dombnd
16 17
916 100 2 dombnd
17 18
917 100 2 dombnd
18 19
918 100 2 dombnd
19 20
919 100 2 dombnd
20 21
920 100 2 dombnd
21 22
921 100 2 dombnd
22 23
922 100 2 dombnd
23 24
923 100 2 dombnd
24 25
924 100 2 dombnd
25 26
925 100 2 dombnd
26 27
926 100 2 dombnd
27 28
927 100 2 dombnd
28 29
928 100 2 dombnd
29 30
929 100 2 dombnd
30 31
930 100 2 dombnd
31 2
931 100 2 dombnd
2 33
932 100 2 dombnd
33 34
933 100 2 dombnd
34 35
934 100 2 dombnd
35 36
935 100 2 dombnd
36 37
936 100 2 dombnd
37 38
937 100 2 dombnd
38 39
938 100 2 dombnd
39 40
939 100 2 dombnd
40 41
940 100 2 dombnd
41 42
941 100 2 dombnd
42 43
942 100 2 dombnd
43 44
943 100 2 dombnd
44 45
944 100 2 dombnd
45 46
945 100 2 dombnd
46 47
946 100 2 dombnd
47 48
947 100 2 dombnd
48 49
948 100 2 dombnd
49 50
949 100 2 dombnd
50 51
950 100 2 dombnd
51 52
951 100 2 dombnd
52 53
952 100 2 dombnd
53 54
953 100 2 dombnd
54 55
954 100 2 dombnd
55 56
955 100 2 dombnd
56 57
956 100 2 dombnd
57 58
957 100 2 dombnd
58 59
958 100 2 dombnd
59 60
959 100 2 dombnd
60 61
960 100 2 dombnd
61 32
961 100 2 dombnd
32 63
962 100 2 dombnd
63 64
963 100 2 dombnd
64 65
964 100 2 dombnd
65 66
965 100 2 dombnd
66 67
966 100 2 dombnd
67 68
967 100 2 dombnd
68 69
968 100 2 dombnd
69 70
969 100 2 dombnd
70 71
970 100 2 dombnd
71 72
971 100 2 dombnd
72 73
972 100 2 dombnd
73 74
973 100 2 dombnd
74 75
974 100 2 dombnd
75 76
975 100 2 dombnd
76 77
976 100 2 dombnd
77 78
977 100 2 dombnd
78 79
978 100 2 dombnd
79 80
979 100 2 dombnd
80 81
980 100 2 dombnd
81 82
981 100 2 dombnd
82 83
982 100 2 dombnd
83 84
983 100 2 dombnd
84 85
984 100 2 dombnd
85 86
985 100 2 dombnd
86 87
986 100 2 dombnd
87 88
987 100 2 dombnd
88 89
988 100 2 dombnd
89 90
989 100 2 dombnd
90 91
990 100 2 dombnd
91 62
991 100 2 dombnd
62 92
992 100 2 dombnd
92 93
993 100 2 dombnd
93 94
994 100 2 dombnd
94 95
995 100 2 dombnd
95 96
996 100 2 dombnd
96 97
997 100 2 dombnd
97 98
998 100 2 dombnd
98 99
999 100 2 dombnd
99 100
1000 100 2 dombnd
100 101
1001 100 2 dombnd
101 102
1002 100 2 dombnd
102 103
1003 100 2 dombnd
103 104
1004 100 2 dombnd
104 105
1005 100 2 dombnd
105 106
1006 100 2 dombnd
106 107
1007 100 2 dombnd
107 108
1008 100 2 dombnd
108 109
1009 100 2 dombnd
109 110
1010 100 2 dombnd
110 111
1011 100 2 dombnd
111 112
1012 100 2 dombnd
112 113
1013 100 2 dombnd
113 114
1014 100 2 dombnd
114 115
1015 100 2 dombnd
115 116
1016 100 2 dombnd
116 117
1017 100 2 dombnd
117 118
1018 100 2 dombnd
118 119
1019 100 2 dombnd
119 120
1020 100 2 dombnd
120 1

[2D Elements]
#ElemNr  ElemType  NrOfNodes  Level
#Node1 Node2 ... NodeNrOfNodes
1 6 4 fluid
1 3 121 120
2 6 4 fluid
3 4 150 121
3 6 4 fluid
4 5 179 150
4 6 4 fluid
5 6 208 179
5 6 4 fluid
6 7 237 208
6 6 4 fluid
7 8 266 237
7 6 4 fluid
8 9 295 266
8 6 4 fluid
9 10 324 295
9 6 4 fluid
10 11 353 324
10 6 4 fluid
11 12 382 353
11 6 4 fluid
12 13 411 382
12 6 4 fluid
13 14 440 411
13 6 4 fluid
14 15 469 440
14 6 4 fluid
15 16 498 469
15 6 4 fluid
16 17 527 498
16 6 4 fluid
17 18 556 527
17 6 4 fluid
18 19 585 556
18 6 4 fluid
19 20 614 585
19 6 4 fluid
20 21 643 614
20 6 4 fluid
21 22 672 643
21 6 4 fluid
22 23 701 672
22 6 4 fluid
23 24 730 701
23 6 4 fluid
24 25 759 730
24 6 4 fluid
25 26 788 759
25 6 4 fluid
26 27 817 788
26 6 4 fluid
27 28 846 817
27 6 4 fluid
28 29 875 846
28 6 4 fluid
29 30 904 875
29 6 4 fluid
30 31 933 904
30 6 4 fluid
31 2 33 933
31 6 4 fluid
120 121 122 119
32 6 4 fluid
121 150 151 122
33 6 4 fluid
150 179 180 151
34 6 4 fluid
179 208 209 180
35 6 4 fluid
208 237 238 209
36 6 4 fluid
237 266 267 238
37 6 4 fluid
266 295 296 267
38 6 4 fluid
295 324 325 296
39 6 4 fluid
324 353 354 325
40 6 4 fluid
353 382 383 354
41 6 4 fluid
382 411 412 383
42 6 4 fluid
411 440 441 412
43 6 4 fluid
440 469 470 441
44 6 4 fluid
469 498 499 470
45 6 4 fluid
498 527 528 499
46 6 4 fluid
527 556 557 528
47 6 4 fluid
556 585 586 557
48 6 4 fluid
585 614 615 586
49 6 4 fluid
614 643 644 615
50 6 4 fluid
643 672 673 644
51 6 4 fluid
672 701 702 673
52 6 4 fluid
701 730 731 702
53 6 4 fluid
730 759 760 731
54 6 4 fluid
759 788 789 760
55 6 4 fluid
788 817 818 789
56 6 4 fluid
817 846 847 818
57 6 4 fluid
846 875 876 847
58 6 4 fluid
875 904 905 876
59 6 4 fluid
904 933 934 905
60 6 4 fluid
933 33 34 934
61 6 4 fluid
119 122 123 118
62 6 4 fluid
122 151 152 123
63 6 4 fluid
151 180 181 152
64 6 4 fluid
180 209 210 181
65 6 4 fluid
209 238 239 210
66 6 4 fluid
238 267 268 239
67 6 4 fluid
267 296 297 268
68 6 4 fluid
296 325 326 297
69 6 4 fluid
325 354 355 326
70 6 4 fluid
354 383 384 355
71 6 4 fluid
383 412 413 384
72 6 4 fluid
412 441 442 413
73 6 4 fluid
441 470 471 442
74 6 4 fluid
470 499 500 471
75 6 4 fluid
499 528 529 500
76 6 4 fluid
528 557 558 529
77 6 4 fluid
557 586 587 558
78 6 4 fluid
586 615 616 587
79 6 4 fluid
615 644 645 616
80 6 4 fluid
644 673 674 645
81 6 4 fluid
673 702 703 674
82 6 4 fluid
702 731 732 703
83 6 4 fluid
731 760 761 732
84 6 4 fluid
760 789 790 761
85 6 4 fluid
789 818 819 790
86 6 4 fluid
818 847 848 819
87 6 4 fluid
847 876 877 848
88 6 4 fluid
876 905 906 877
89 6 4 fluid
905 934 935 906
90 6 4 fluid
934 34 35 935
91 6 4 fluid
118 123 124 117
92 6 4 fluid
123 152 153 124
93 6 4 fluid
152 181 182 153
94 6 4 fluid
181 210 211 182
95 6 4 fluid
210 239 240 211
96 6 4 fluid
239 268 269 240
97 6 4 fluid
268 297 298 269
98 6 4 fluid
297 326 327 298
99 6 4 fluid
326 355 356 327
100 6 4 fluid
355 384 385 356
101 6 4 fluid
384 413 414 385
102 6 4 fluid
413 442 443 414
103 6 4 fluid
442 471 472 443
104 6 4 fluid
471 500 501 472
105 6 4 fluid
500 529 530 501
106 6 4 fluid
529 558 559 530
107 6 4 fluid
558 587 588 559
108 6 4 fluid
587 616 617 588
109 6 4 fluid
616 645 646 617
110 6 4 fluid
645 674 675 646
111 6 4 fluid
674 703 704 675
112 6 4 fluid
703 732 733 704
113 6 4 fluid
732 761 762 733
114 6 4 fluid
761 790 791 762
115 6 4 fluid
790 819 820 791
116 6 4 fluid
819 848 849 820
117 6 4 fluid
848 877 878 849
118 6 4 fluid
877 906 907 878
119 6 4 fluid
906 935 936 907
120 6 4 fluid
935 35 36 936
121 6 4 fluid
117 124 125 116
122 6 4 fluid
124 153 154 125
123 6 4 fluid
153 182 183 154
124 6 4 fluid
182 211 212 183
125 6 4 fluid
211 240 241 212
126 6 4 fluid
240 269 270 241
127 6 4 fluid
269 298 299 270
128 6 4 fluid
298 327 328 299
129 6 4 fluid
327 356 357 328
130 6 4 fluid
356 385 386 357
131 6 4 fluid
385 414 415 386
132 6 4 fluid
414 443 444 415
133 6 4 fluid
443 472 473 444
134 6 4 fluid
472 501 502 473
135 6 4 fluid
501 530 531 502
136 6 4 fluid
530 559 560 531
137 6 4 fluid
559 588 589 560
138 6 4 fluid
588 617 618 589
139 6 4 fluid
617 646 647 618
140 6 4 fluid
646 675 676 647
141 6 4 fluid
675 704 705 676
142 6 4 fluid
704 733 734 705
143 6 4 fluid
733 762 763 734
144 6 4 fluid
762 791 792 763
145 6 4 fluid
791 820 821 792
146 6 4 fluid
820 849 850 821
147 6 4 fluid
849 878 879 850
148 6 4 fluid
878 907 908 879
149 6 4 fluid
907 936 937 908
150 6 4 fluid
936 36 37 937
151 6 4 fluid
116 125 126 115
152 6 4 fluid
125 154 155 126
153 6 4 fluid
154 183 184 155
154 6 4 fluid
183 212 213 184
155 6 4 fluid
212 241 242 213
156 6 4 fluid
241 270 271 242
157 6 4 fluid
270 299 300 271
158 6 4 fluid
299 328 329 300
159 6 4 fluid
328 357 358 329
160 6 4 fluid
357 386 387 358
161 6 4 fluid
386 415 416 387
162 6 4 fluid
415 444 445 416
163 6 4 fluid
444 473 474 445
164 6 4 fluid
473 502 503 474
165 6 4 fluid
502 531 532 503
166 6 4 fluid
531 560 561 532
167 6 4 fluid
560 589 590 561
168 6 4 fluid
589 618 619 590
169 6 4 fluid
618 647 648 619
170 6 4 fluid
647 676 677 648
171 6 4 fluid
676 705 706 677
172 6 4 fluid
705 734 735 706
173 6 4 fluid
734 763 764 735
174 6 4 fluid
763 792 793 764
175 6 4 fluid
792 821 822 793
176 6 4 fluid
821 850 851 822
177 6 4 fluid
850 879 880 851
178 6 4 fluid
879 908 909 880
179 6 4 fluid
908 937 938 909
180 6 4 fluid
937 37 38 938
181 6 4 fluid
115 126 127 114
182 6 4 fluid
126 155 156 127
183 6 4 fluid
155 184 185 156
184 6 4 fluid
184 213 214 185
185 6 4 fluid
213 242 243 214
186 6 4 fluid
242 271 272 243
187 6 4 fluid
271 300 301 272
188 6 4 fluid
300 329 330 301
189 6 4 fluid
329 358 359 330
190 6 4 fluid
358 387 388 359
191 6 4 fluid
387 416 417 388
192 6 4 fluid
416 445 446 417
193 6 4 fluid
445 474 475 446
194 6 4 fluid
474 503 504 475
195 6 4 fluid
503 532 533 504
196 6 4 fluid
532 561 562 533
197 6 4 fluid
561 590 591 562
198 6 4 fluid
590 619 620 591
199 6 4 fluid
619 648 649 620
200 6 4 fluid
648 677 678 649
201 6 4 fluid
677 706 707 678
202 6 4 fluid
706 735 736 707
203 6 4 fluid
735 764 765 736
204 6 4 fluid
764 793 794 765
205 6 4 fluid
793 822 823 794
206 6 4 fluid
822 851 852 823
207 6 4 fluid
851 880 881 852
208 6 4 fluid
880 909 910 881
209 6 4 fluid
909 938 939 910
210 6 4 fluid
938 38 39 939
211 6 4 fluid
114 127 128 113
212 6 4 fluid
127 156 157 128
213 6 4 fluid
156 185 186 157
214 6 4 fluid
185 214 215 186
215 6 4 fluid
214 243 244 215
216 6 4 fluid
243 272 273 244
217 6 4 fluid
272 301 302 273
218 6 4 fluid
301 330 331 302
219 6 4 fluid
330 359 360 331
220 6 4 fluid
359 388 389 360
221 6 4 fluid
388 417 418 389
222 6 4 fluid
417 446 447 418
223 6 4 fluid
446 475 476 447
224 6 4 fluid
475 504 505 476
225 6 4 fluid
504 533 534 505
226 6 4 fluid
533 562 563 534
227 6 4 fluid
562 591 592 563
228 6 4 fluid
591 620 621 592
229 6 4 fluid
620 649 650 621
230 6 4 fluid
649 678 679 650
231 6 4 fluid
678 707 708 679
232 6 4 fluid
707 736 737 708
233 6 4 fluid
736 765 766 737
234 6 4 fluid
765 794 795 766
235 6 4 fluid
794 823 824 795
236 6 4 fluid
823 852 853 824
237 6 4 fluid
852 881 882 853
238 6 4 fluid
881 910 911 882
239 6 4 fluid
910 939 940 911
240 6 4 fluid
939 39 40 940
241 6 4 fluid
113 128 129 112
242 6 4 fluid
128 157 158 129
243 6 4 fluid
157 186 187 158
244 6 4 fluid
186 215 216 187
245 6 4 fluid
215 244 245 216
246 6 4 fluid
244 273 274 245
247 6 4 fluid
273 302 303 274
248 6 4 fluid
302 331 332 303
249 6 4 fluid
331 360 361 332
250 6 4 fluid
360 389 390 361
251 6 4 fluid
389 418 419 390
252 6 4 fluid
418 447 448 419
253 6 4 fluid
447 476 477 448
254 6 4 fluid
476 505 506 477
255 6 4 fluid
505 534 535 506
256 6 4 fluid
534 563 564 535
257 6 4 fluid
563 592 593 564
258 6 4 fluid
592 621 622 593
259 6 4 fluid
621 650 651 622
260 6 4 fluid
650 679 680 651
261 6 4 fluid
679 708 709 680
262 6 4 fluid
708 737 738 709
263 6 4 fluid
737 766 767 738
264 6 4 fluid
766 795 796 767
265 6 4 fluid
795 824 825 796
266 6 4 fluid
824 853 854 825
267 6 4 fluid
853 882 883 854
268 6 4 fluid
882 911 912 883
269 6 4 fluid
911 940 941 912
270 6 4 fluid
940 40 41 941
271 6 4 fluid
112 129 130 111
272 6 4 fluid
129 158 159 130
273 6 4 fluid
158 187 188 159
274 6 4 fluid
187 216 217 188
275 6 4 fluid
216 245 246 217
276 6 4 fluid
245 274 275 246
277 6 4 fluid
274 303 304 275
278 6 4 fluid
303 332 333 304
279 6 4 fluid
332 361 362 333
280 6 4 fluid
361 390 391 362
281 6 4 fluid
390 419 420 391
282 6 4 fluid
419 448 449 420
283 6 4 fluid
448 477 478 449
284 6 4 fluid
477 506 507 478
285 6 4 fluid
506 535 536 507
286 6 4 fluid
535 564 565 536
287 6 4 fluid
564 593 594 565
288 6 4 fluid
593 622 623 594
289 6 4 fluid
622 651 652 623
290 6 4 fluid
651 680 681 652
291 6 4 fluid
680 709 710 681
292 6 4 fluid
709 738 739 710
293 6 4 fluid
738 767 768 739
294 6 4 fluid
767 796 797 768
295 6 4 fluid
796 825 826 797
296 6 4 fluid
825 854 855 826
297 6 4 fluid
854 883 884 855
298 6 4 fluid
883 912 913 884
299 6 4 fluid
912 941 942 913
300 6 4 fluid
941 41 42 942
301 6 4 fluid
111 130 131 110
302 6 4 fluid
130 159 160 131
303 6 4 fluid
159 188 189 160
304 6 4 fluid
188 217 218 189
305 6 4 fluid
217 246 247 218
306 6 4 fluid
246 275 276 247
307 6 4 fluid
275 304 305 276
308 6 4 fluid
304 333 334 305
309 6 4 fluid
333 362 363 334
310 6 4 fluid
362 391 392 363
311 6 4 fluid
391 420 421 392
312 6 4 fluid
420 449 450 421
313 6 4 fluid
449 478 479 450
314 6 4 fluid
478 507 508 479
315 6 4 fluid
507 536 537 508
316 6 4 fluid
536 565 566 537
317 6 4 fluid
565 594 595 566
318 6 4 fluid
594 623 624 595
319 6 4 fluid
623 652 653 624
320 6 4 fluid
652 681 682 653
321 6 4 fluid
681 710 711 682
322 6 4 fluid
710 739 740 711
323 6 4 fluid
739 768 769 740
324 6 4 fluid
768 797 798 769
325 6 4 fluid
797 826 827 798
326 6 4 fluid
826 855 856 827
327 6 4 fluid
855 884 885 856
328 6 4 fluid
884 913 914 885
329 6 4 fluid
913 942 943 914
330 6 4 fluid
942 42 43 943
331 6 4 fluid
110 131 132 109
332 6 4 fluid
131 160 161 132
333 6 4 fluid
160 189 190 161
334 6 4 fluid
189 218 219 190
335 6 4 fluid
218 247 248 219
336 6 4 fluid
247 276 277 248
337 6 4 fluid
276 305 306 277
338 6 4 fluid
305 334 335 306
339 6 4 fluid
334 363 364 335
340 6 4 fluid
363 392 393 364
341 6 4 fluid
392 421 422 393
342 6 4 fluid
421 450 451 422
343 6 4 fluid
450 479 480 451
344 6 4 fluid
479 508 509 480
345 6 4 fluid
508 537 538 509
346 6 4 fluid
537 566 567 538
347 6 4 fluid
566 595 596 567
348 6 4 fluid
595 624 625 596
349 6 4 fluid
624 653 654 625
350 6 4 fluid
653 682 683 654
351 6 4 fluid
682 711 712 683
352 6 4 fluid
711 740 741 712
353 6 4 fluid
740 769 770 741
354 6 4 fluid
769 798 799 770
355 6 4 fluid
798 827 828 799
356 6 4 fluid
827 856 857 828
357 6 4 fluid
856 885 886 857
358 6 4 fluid
885 914 915 886
359 6 4 fluid
914 943 944 915
360 6 4 fluid
943 43 44 944
361 6 4 fluid
109 132 133 108
362 6 4 fluid
132 161 162 133
363 6 4 fluid
161 190 191 162
364 6 4 fluid
190 219 220 191
365 6 4 fluid
219 248 249 220
366 6 4 fluid
248 277 278 249
367 6 4 fluid
277 306 307 278
368 6 4 fluid
306 335 336 307
369 6 4 fluid
335 364 365 336
370 6 4 fluid
364 393 394 365
371 6 4 fluid
393 422 423 394
372 6 4 fluid
422 451 452 423
373 6 4 fluid
451 480 481 452
374 6 4 fluid
480 509 510 481
375 6 4 fluid
509 538 539 510
376 6 4 fluid
538 567 568 539
377 6 4 fluid
567 596 597 568
378 6 4 fluid
596 625 626 597
379 6 4 fluid
625 654 655 626
380 6 4 fluid
654 683 684 655
381 6 4 fluid
683 712 713 684
382 6 4 fluid
712 741 742 713
383 6 4 fluid
741 770 771 742
384 6 4 fluid
770 799 800 771
385 6 4 fluid
799 828 829 800
386 6 4 fluid
828 857 858 829
387 6 4 fluid
857 886 887 858
388 6 4 fluid
886 915 916 887
389 6 4 fluid
915 944 945 916
390 6 4 fluid
944 44 45 945
391 6 4 fluid
108 133 134 107
392 6 4 fluid
133 162 163 134
393 6 4 fluid
162 191 192 163
394 6 4 fluid
191 220 221 192
395 6 4 fluid
220 249 250 221
396 6 4 fluid
249 278 279 250
397 6 4 fluid
278 307 308 279
398 6 4 fluid
307 336 337 308
399 6 4 fluid
336 365 366 337
400 6 4 fluid
365 394 395 366
401 6 4 fluid
394 423 424 395
402 6 4 fluid
423 452 453 424
403 6 4 fluid
452 481 482 453
404 6 4 fluid
481 510 511 482
405 6 4 fluid
510 539 540 511
406 6 4 fluid
539 568 569 540
407 6 4 fluid
568 597 598 569
408 6 4 fluid
597 626 627 598
409 6 4 fluid
626 655 656 627
410 6 4 fluid
655 684 685 656
411 6 4 fluid
684 713 714 685
412 6 4 fluid
713 742 743 714
413 6 4 fluid
742 771 772 743
414 6 4 fluid
771 800 801 772
415 6 4 fluid
800 829 830 801
416 6 4 fluid
829 858 859 830
417 6 4 fluid
858 887 888 859
418 6 4 fluid
887 916 917 888
419 6 4 fluid
916 945 946 917
420 6 4 fluid
945 45 46 946
421 6 4 fluid
107 134 135 106
422 6 4 fluid
134 163 164 135
423 6 4 fluid
163 192 193 164
424 6 4 fluid
192 221 222 193
425 6 4 fluid
221 250 251 222
426 6 4 fluid
250 279 280 251
427 6 4 fluid
279 308 309 280
428 6 4 fluid
308 337 338 309
429 6 4 fluid
337 366 367 338
430 6 4 fluid
366 395 396 367
431 6 4 fluid
395 424 425 396
432 6 4 fluid
424 453 454 425
433 6 4 fluid
453 482 483 454
434 6 4 fluid
482 511 512 483
435 6 4 fluid
511 540 541 512
436 6 4 fluid
540 569 570 541
437 6 4 fluid
569 598 599 570
438 6 4 fluid
598 627 628 599
439 6 4 fluid
627 656 657 628
440 6 4 fluid
656 685 686 657
441 6 4 fluid
685 714 715 686
442 6 4 fluid
714 743 744 715
443 6 4 fluid
743 772 773 744
444 6 4 fluid
772 801 802 773
445 6 4 fluid
801 830 831 802
446 6 4 fluid
830 859 860 831
447 6 4 fluid
859 888 889 860
448 6 4 fluid
888 917 918 889
449 6 4 fluid
917 946 947 918
450 6 4 fluid
946 46 47 947
451 6 4 fluid
106 135 136 105
452 6 4 fluid
135 164 165 136
453 6 4 fluid
164 193 194 165
454 6 4 fluid
193 222 223 194
455 6 4 fluid
222 251 252 223
456 6 4 fluid
251 280 281 252
457 6 4 fluid
280 309 310 281
458 6 4 fluid
309 338 339 310
459 6 4 fluid
338 367 368 339
460 6 4 fluid
367 396 397 368
461 6 4 fluid
396 425 426 397
462 6 4 fluid
425 454 455 426
463 6 4 fluid
454 483 484 455
464 6 4 fluid
483 512 513 484
465 6 4 fluid
512 541 542 513
466 6 4 fluid
541 570 571 542
467 6 4 fluid
570 599 600 571
468 6 4 fluid
599 628 629 600
469 6 4 fluid
628 657 658 629
470 6 4 fluid
657 686 687 658
471 6 4 fluid
686 715 716 687
472 6 4 fluid
715 744 745 716
473 6 4 fluid
744 773 774 745
474 6 4 fluid
773 802 803 774
475 6 4 fluid
802 831 832 803
476 6 4 fluid
831 860 861 832
477 6 4 fluid
860 889 890 861
478 6 4 fluid
889 918 919 890
479 6 4 fluid
918 947 948 919
480 6 4 fluid
947 47 48 948
481 6 4 fluid
105 136 137 104
482 6 4 fluid
136 165 166 137
483 6 4 fluid
165 194 195 166
484 6 4 fluid
194 223 224 195
485 6 4 fluid
223 252 253 224
486 6 4 fluid
252 281 282 253
487 6 4 fluid
281 310 311 282
488 6 4 fluid
310 339 340 311
489 6 4 fluid
339 368 369 340
490 6 4 fluid
368 397 398 369
491 6 4 fluid
397 426 427 398
492 6 4 fluid
426 455 456 427
493 6 4 fluid
455 484 485 456
494 6 4 fluid
484 513 514 485
495 6 4 fluid
513 542 543 514
496 6 4 fluid
542 571 572 543
497 6 4 fluid
571 600 601 572
498 6 4 fluid
600 629 630 601
499 6 4 fluid
629 658 659 630
500 6 4 fluid
658 687 688 659
501 6 4 fluid
687 716 717 688
502 6 4 fluid
716 745 746 717
503 6 4 fluid
745 774 775 746
504 6 4 fluid
774 803 804 775
505 6 4 fluid
803 832 833 804
506 6 4 fluid
832 861 862 833
507 6 4 fluid
861 890 891 862
508 6 4 fluid
890 919 920 891
509 6 4 fluid
919 948 949 920
510 6 4 fluid
948 48 49 949
511 6 4 fluid
104 137 138 103
512 6 4 fluid
137 166 167 138
513 6 4 fluid
166 195 196 167
514 6 4 fluid
195 224 225 196
515 6 4 fluid
224 253 254 225
516 6 4 fluid
253 282 283 254
517 6 4 fluid
282 311 312 283
518 6 4 fluid
311 340 341 312
519 6 4 fluid
340 369 370 341
520 6 4 fluid
369 398 399 370
521 6 4 fluid
398 427 428 399
522 6 4 fluid
427 456 457 428
523 6 4 fluid
456 485 486 457
524 6 4 fluid
485 514 515 486
525 6 4 fluid
514 543 544 515
526 6 4 fluid
543 572 573 544
527 6 4 fluid
572 601 602 573
528 6 4 fluid
601 630 631 602
529 6 4 fluid
630 659 660 631
530 6 4 fluid
659 688 689 660
531 6 4 fluid
688 717 718 689
532 6 4 fluid
717 746 747 718
533 6 4 fluid
746 775 776 747
534 6 4 fluid
775 804 805 776
535 6 4 fluid
804 833 834 805
536 6 4 fluid
833 862 863 834
537 6 4 fluid
862 891 892 863
538 6 4 fluid
891 920 921 892
539 6 4 fluid
920 949 950 921
540 6 4 fluid
949 49 50 950
541 6 4 fluid
103 138 139 102
542 6 4 fluid
138 167 168 139
543 6 4 fluid
167 196 197 168
544 6 4 fluid
196 225 226 197
545 6 4 fluid
225 254 255 226
546 6 4 fluid
254 283 284 255
547 6 4 fluid
283 312 313 284
548 6 4 fluid
312 341 342 313
549 6 4 fluid
341 370 371 342
550 6 4 fluid
370 399 400 371
551 6 4 fluid
399 428 429 400
552 6 4 fluid
428 457 458 429
553 6 4 fluid
457 486 487 458
554 6 4 fluid
486 515 516 487
555 6 4 fluid
515 544 545 516
556 6 4 fluid
544 573 574 545
557 6 4 fluid
573 602 603 574
558 6 4 fluid
602 631 632 603
559 6 4 fluid
631 660 661 632
560 6 4 fluid
660 689 690 661
561 6 4 fluid
689 718 719 690
562 6 4 fluid
718 747 748 719
563 6 4 fluid
747 776 777 748
564 6 4 fluid
776 805 806 777
565 6 4 fluid
805 834 835 806
566 6 4 fluid
834 863 864 835
567 6 4 fluid
863 892 893 864
568 6 4 fluid
892 921 922 893
569 6 4 fluid
921 950 951 922
570 6 4 fluid
950 50 51 951
571 6 4 fluid
102 139 140 101
572 6 4 fluid
139 168 169 140
573 6 4 fluid
168 197 198 169
574 6 4 fluid
197 226 227 198
575 6 4 fluid
226 255 256 227
576 6 4 fluid
255 284 285 256
577 6 4 fluid
284 313 314 285
578 6 4 fluid
313 342 343 314
579 6 4 fluid
342 371 372 343
580 6 4 fluid
371 400 401 372
581 6 4 fluid
400 429 430 401
582 6 4 fluid
429 458 459 430
583 6 4 fluid
458 487 488 459
584 6 4 fluid
487 516 517 488
585 6 4 fluid
516 545 546 517
586 6 4 fluid
545 574 575 546
587 6 4 fluid
574 603 604 575
588 6 4 fluid
603 632 633 604
589 6 4 fluid
632 661 662 633
590 6 4 fluid
661 690 691 662
591 6 4 fluid
690 719 720 691
592 6 4 fluid
719 748 749 720
593 6 4 fluid
748 777 778 749
594 6 4 fluid
777 806 807 778
595 6 4 fluid
806 835 836 807
596 6 4 fluid
835 864 865 836
597 6 4 fluid
864 893 894 865
598 6 4 fluid
893 922 923 894
599 6 4 fluid
922 951 952 923
600 6 4 fluid
951 51 52 952
601 6 4 fluid
101 140 141 100
602 6 4 fluid
140 169 170 141
603 6 4 fluid
169 198 199 170
604 6 4 fluid
198 227 228 199
605 6 4 fluid
227 256 257 228
606 6 4 fluid
256 285 286 257
607 6 4 fluid
285 314 315 286
608 6 4 fluid
314 343 344 315
609 6 4 fluid
343 372 373 344
610 6 4 fluid
372 401 402 373
611 6 4 fluid
401 430 431 402
612 6 4 fluid
430 459 460 431
613 6 4 fluid
459 488 489 460
614 6 4 fluid
488 517 518 489
615 6 4 fluid
517 546 547 518
616 6 4 fluid
546 575 576 547
617 6 4 fluid
575 604 605 576
618 6 4 fluid
604 633 634 605
619 6 4 fluid
633 662 663 634
620 6 4 fluid
662 691 692 663
621 6 4 fluid
691 720 721 692
622 6 4 fluid
720 749 750 721
623 6 4 fluid
749 778 779 750
624 6 4 fluid
778 807 808 779
625 6 4 fluid
807 836 837 808
626 6 4 fluid
836 865 866 837
627 6 4 fluid
865 894 895 866
628 6 4 fluid
894 923 924 895
629 6 4 fluid
923 952 953 924
630 6 4 fluid
952 52 53 953
631 6 4 fluid
100 141 142 99
632 6 4 fluid
141 170 171 142
633 6 4 fluid
170 199 200 171
634 6 4 fluid
199 228 229 200
635 6 4 fluid
228 257 258 229
636 6 4 fluid
257 286 287 258
637 6 4 fluid
286 315 316 287
638 6 4 fluid
315 344 345 316
639 6 4 fluid
344 373 374 345
640 6 4 fluid
373 402 403 374
641 6 4 fluid
402 431 432 403
642 6 4 fluid
431 460 461 432
643 6 4 fluid
460 489 490 461
644 6 4 fluid
489 518 519 490
645 6 4 fluid
518 547 548 519
646 6 4 fluid
547 576 577 548
647 6 4 fluid
576 605 606 577
648 6 4 fluid
605 634 635 606
649 6 4 fluid
634 663 664 635
650 6 4 fluid
663 692 693 664
651 6 4 fluid
692 721 722 693
652 6 4 fluid
721 750 751 722
653 6 4 fluid
750 779 780 751
654 6 4 fluid
779 808 809 780
655 6 4 fluid
808 837 838 809
656 6 4 fluid
837 866 867 838
657 6 4 fluid
866 895 896 867
658 6 4 fluid
895 924 925 896
659 6 4 fluid
924 953 954 925
660 6 4 fluid
953 53 54 954
661 6 4 fluid
99 142 143 98
662 6 4 fluid
142 171 172 143
663 6 4 fluid
171 200 201 172
664 6 4 fluid
200 229 230 201
665 6 4 fluid
229 258 259 230
666 6 4 fluid
258 287 288 259
667 6 4 fluid
287 316 317 288
668 6 4 fluid
316 345 346 317
669 6 4 fluid
345 374 375 346
670 6 4 fluid
374 403 404 375
671 6 4 fluid
403 432 433 404
672 6 4 fluid
432 461 462 433
673 6 4 fluid
461 490 491 462
674 6 4 fluid
490 519 520 491
675 6 4 fluid
519 548 549 520
676 6 4 fluid
548 577 578 549
677 6 4 fluid
577 606 607 578
678 6 4 fluid
606 635 636 607
679 6 4 fluid
635 664 665 636
680 6 4 fluid
664 693 694 665
681 6 4 fluid
693 722 723 694
682 6 4 fluid
722 751 752 723
683 6 4 fluid
751 780 781 752
684 6 4 fluid
780 809 810 781
685 6 4 fluid
809 838 839 810
686 6 4 fluid
838 867 868 839
687 6 4 fluid
867 896 897 868
688 6 4 fluid
896 925 926 897
689 6 4 fluid
925 954 955 926
690 6 4 fluid
954 54 55 955
691 6 4 fluid
98 143 144 97
692 6 4 fluid
143 172 173 144
693 6 4 fluid
172 201 202 173
694 6 4 fluid
201 230 231 202
695 6 4 fluid
230 259 260 231
696 6 4 fluid
259 288 289 260
697 6 4 fluid
288 317 318 289
698 6 4 fluid
317 346 347 318
699 6 4 fluid
346 375 376 347
700 6 4 fluid
375 404 405 376
701 6 4 fluid
404 433 434 405
702 6 4 fluid
433 462 463 434
703 6 4 fluid
462 491 492 463
704 6 4 fluid
491 520 521 492
705 6 4 fluid
520 549 550 521
706 6 4 fluid
549 578 579 550
707 6 4 fluid
578 607 608 579
708 6 4 fluid
607 636 637 608
709 6 4 fluid
636 665 666 637
710 6 4 fluid
665 694 695 666
711 6 4 fluid
694 723 724 695
712 6 4 fluid
723 752 753 724
713 6 4 fluid
752 781 782 753
714 6 4 fluid
781 810 811 782
715 6 4 fluid
810 839 840 811
716 6 4 fluid
839 868 869 840
717 6 4 fluid
868 897 898 869
718 6 4 fluid
897 926 927 898
719 6 4 fluid
926 955 956 927
720 6 4 fluid
955 55 56 956
721 6 4 fluid
97 144 145 96
722 6 4 fluid
144 173 174 145
723 6 4 fluid
173 202 203 174
724 6 4 fluid
202 231 232 203
725 6 4 fluid
231 260 261 232
726 6 4 fluid
260 289 290 261
727 6 4 fluid
289 318 319 290
728 6 4 fluid
318 347 348 319
729 6 4 fluid
347 376 377 348
730 6 4 fluid
376 405 406 377
731 6 4 fluid
405 434 435 406
732 6 4 fluid
434 463 464 435
733 6 4 fluid
463 492 493 464
734 6 4 fluid
492 521 522 493
735 6 4 fluid
521 550 551 522
736 6 4 fluid
550 579 580 551
737 6 4 fluid
579 608 609 580
738 6 4 fluid
608 637 638 609
739 6 4 fluid
637 666 667 638
740 6 4 fluid
666 695 696 667
741 6 4 fluid
695 724 725 696
742 6 4 fluid
724 753 754 725
743 6 4 fluid
753 782 783 754
744 6 4 fluid
782 811 812 783
745 6 4 fluid
811 840 841 812
746 6 4 fluid
840 869 870 841
747 6 4 fluid
869 898 899 870
748 6 4 fluid
898 927 928 899
749 6 4 fluid
927 956 957 928
750 6 4 fluid
956 56 57 957
751 6 4 fluid
96 145 146 95
752 6 4 fluid
145 174 175 146
753 6 4 fluid
174 203 204 175
754 6 4 fluid
203 232 233 204
755 6 4 fluid
232 261 262 233
756 6 4 fluid
261 290 291 262
757 6 4 fluid
290 319 320 291
758 6 4 fluid
319 348 349 320
759 6 4 fluid
348 377 378 349
760 6 4 fluid
377 406 407 378
761 6 4 fluid
406 435 436 407
762 6 4 fluid
435 464 465 436
763 6 4 fluid
464 493 494 465
764 6 4 fluid
493 522 523 494
765 6 4 fluid
522 551 552 523
766 6 4 fluid
551 580 581 552
767 6 4 fluid
580 609 610 581
768 6 4 fluid
609 638 639 610
769 6 4 fluid
638 667 668 639
770 6 4 fluid
667 696 697 668
771 6 4 fluid
696 725 726 697
772 6 4 fluid
725 754 755 726
773 6 4 fluid
754 783 784 755
774 6 4 fluid
783 812 813 784
775 6 4 fluid
812 841 842 813
776 6 4 fluid
841 870 871 842
777 6 4 fluid
870 899 900 871
778 6 4 fluid
899 928 929 900
779 6 4 fluid
928 957 958 929
780 6 4 fluid
957 57 58 958
781 6 4 fluid
95 146 147 94
782 6 4 fluid
146 175 176 147
783 6 4 fluid
175 204 205 176
784 6 4 fluid
204 233 234 205
785 6 4 fluid
233 262 263 234
786 6 4 fluid
262 291 292 263
787 6 4 fluid
291 320 321 292
788 6 4 fluid
320 349 350 321
789 6 4 fluid
349 378 379 350
790 6 4 fluid
378 407 408 379
791 6 4 fluid
407 436 437 408
792 6 4 fluid
436 465 466 437
793 6 4 fluid
465 494 495 466
794 6 4 fluid
494 523 524 495
795 6 4 fluid
523 552 553 524
796 6 4 fluid
552 581 582 553
797 6 4 fluid
581 610 611 582
798 6 4 fluid
610 639 640 611
799 6 4 fluid
639 668 669 640
800 6 4 fluid
668 697 698 669
801 6 4 fluid
697 726 727 698
802 6 4 fluid
726 755 756 727
803 6 4 fluid
755 784 785 756
804 6 4 fluid
784 813 814 785
805 6 4 fluid
813 842 843 814
806 6 4 fluid
842 871 872 843
807 6 4 fluid
871 900 901 872
808 6 4 fluid
900 929 930 901
809 6 4 fluid
929 958 959 930
810 6 4 fluid
958 58 59 959
811 6 4 fluid
94 147 148 93
812 6 4 fluid
147 176 177 148
813 6 4 fluid
176 205 206 177
814 6 4 fluid
205 234 235 206
815 6 4 fluid
234 263 264 235
816 6 4 fluid
263 292 293 264
817 6 4 fluid
292 321 322 293
818 6 4 fluid
321 350 351 322
819 6 4 fluid
350 379 380 351
820 6 4 fluid
379 408 409 380
821 6 4 fluid
408 437 438 409
822 6 4 fluid
437 466 467 438
823 6 4 fluid
466 495 496 467
824 6 4 fluid
495 524 525 496
825 6 4 fluid
524 553 554 525
826 6 4 fluid
553 582 583 554
827 6 4 fluid
582 611 612 583
828 6 4 fluid
611 640 641 612
829 6 4 fluid
640 669 670 641
830 6 4 fluid
669 698 699 670
831 6 4 fluid
698 727 728 699
832 6 4 fluid
727 756 757 728
833 6 4 fluid
756 785 786 757
834 6 4 fluid
785 814 815 786
835 6 4 fluid
814 843 844 815
836 6 4 fluid
843 872 873 844
837 6 4 fluid
872 901 902 873
838 6 4 fluid
901 930 931 902
839 6 4 fluid
930 959 960 931
840 6 4 fluid
959 59 60 960
841 6 4 fluid
93 148 149 92
842 6 4 fluid
148 177 178 149
843 6 4 fluid
177 206 207 178
844 6 4 fluid
206 235 236 207
845 6 4 fluid
235 264 265 236
846 6 4 fluid
264 293 294 265
847 6 4 fluid
293 322 323 294
848 6 4 fluid
322 351 352 323
849 6 4 fluid
351 380 381 352
850 6 4 fluid
380 409 410 381
851 6 4 fluid
409 438 439 410
852 6 4 fluid
438 467 468 439
853 6 4 fluid
467 496 497 468
854 6 4 fluid
496 525 526 497
855 6 4 fluid
525 554 555 526
856 6 4 fluid
554 583 584 555
857 6 4 fluid
583 612 613 584
858 6 4 fluid
612 641 642 613
859 6 4 fluid
641 670 671 642
860 6 4 fluid
670 699 700 671
861 6 4 fluid
699 728 729 700
862 6 4 fluid
728 757 758 729
863 6 4 fluid
757 786 787 758
864 6 4 fluid
786 815 816 787
865 6 4 fluid
815 844 845 816
866 6 4 fluid
844 873 874 845
867 6 4 fluid
873 902 903 874
868 6 4 fluid
902 931 932 903
869 6 4 fluid
931 960 961 932
870 6 4 fluid
960 60 61 961
871 6 4 fluid
92 149 91 62
872 6 4 fluid
149 178 90 91
873 6 4 fluid
178 207 89 90
874 6 4 fluid
207 236 88 89
875 6 4 fluid
236 265 87 88
876 6 4 fluid
265 294 86 87
877 6 4 fluid
294 323 85 86
878 6 4 fluid
323 352 84 85
879 6 4 fluid
352 381 83 84
880 6 4 fluid
381 410 82 83
881 6 4 fluid
410 439 81 82
882 6 4 fluid
439 468 80 81
883 6 4 fluid
468 497 79 80
884 6 4 fluid
497 526 78 79
885 6 4 fluid
526 555 77 78
886 6 4 fluid
555 584 76 77
887 6 4 fluid
584 613 75 76
888 6 4 fluid
613 642 74 75
889 6 4 fluid
642 671 73 74
890 6 4 fluid
671 700 72 73
891 6 4 fluid
700 729 71 72
892 6 4 fluid
729 758 70 71
893 6 4 fluid
758 787 69 70
894 6 4 fluid
787 816 68 69
895 6 4 fluid
816 845 67 68
896 6 4 fluid
845 874 66 67
897 6 4 fluid
874 903 65 66
898 6 4 fluid
903 932 64 65
899 6 4 fluid
932 961 63 64
900 6 4 fluid
961 61 32 63

[3D Elements]
#ElemNr  ElemType  NrOfNodes  Level
#Node1 Node2 ... NodeNrOfNodes

[Node BC]
#NodeNr Level
     541 vp-restr

[Save Nodes]
#NodeNr Level

[Save Elements]
#ElemNr Level

