[Info]
Version 1
Dimension 3
NumNodes 162
Num3DElements 64
Num2DElements 64
Num1DElements 0
NumNodeBC 33
NumSaveNodes 0
NumSaveElements 0
Num 2d-line      : 0
Num 2d-line,quad : 0
Num 3d-line      : 0
Num 3d-line,quad : 0
Num triangle     : 0
Num triangle,quad: 0
Num quadr        : 64
Num quadr,quad   : 0
Num tetra        : 0
Num tetra,quad   : 0
Num brick        : 64
Num brick,quad   : 0
Num pyramid      : 0
Num pyramid,quad : 0
Num wedge        : 0
Num wedge,quad   : 0

[Nodes]
#NodeNr x-coord y-coord z-coord
       1  0.0000000000000e+00  0.0000000000000e+00  0.0000000000000e+00 
       2  0.0000000000000e+00  0.0000000000000e+00  1.0000000000000e+00 
       3  1.0825000000000e+01  6.2500000000000e+00  0.0000000000000e+00 
       4  1.2500000000000e+01  0.0000000000000e+00  0.0000000000000e+00 
       5  1.0825000000000e+01  6.2500000000000e+00  1.0000000000000e+00 
       6  1.2500000000000e+01  0.0000000000000e+00  1.0000000000000e+00 
       7  2.3325000000000e+01  6.2500000000000e+00  0.0000000000000e+00 
       8  2.3325000000000e+01  6.2500000000000e+00  1.0000000000000e+00 
       9  2.1650000000000e+01  1.2500000000000e+01  0.0000000000000e+00 
      10  2.5000000000000e+01  0.0000000000000e+00  0.0000000000000e+00 
      11  2.1650000000000e+01  1.2500000000000e+01  1.0000000000000e+00 
      12  2.5000000000000e+01  0.0000000000000e+00  1.0000000000000e+00 
      13  3.4150000000000e+01  1.2500000000000e+01  0.0000000000000e+00 
      14  3.5825000000000e+01  6.2500000000000e+00  0.0000000000000e+00 
      15  3.4150000000000e+01  1.2500000000000e+01  1.0000000000000e+00 
      16  3.5825000000000e+01  6.2500000000000e+00  1.0000000000000e+00 
      17  3.2475000000000e+01  1.8750000000000e+01  0.0000000000000e+00 
      18  3.7500000000000e+01  0.0000000000000e+00  0.0000000000000e+00 
      19  3.2475000000000e+01  1.8750000000000e+01  1.0000000000000e+00 
      20  3.7500000000000e+01  0.0000000000000e+00  1.0000000000000e+00 
      21  4.6650000000000e+01  1.2500000000000e+01  0.0000000000000e+00 
      22  4.6650000000000e+01  1.2500000000000e+01  1.0000000000000e+00 
      23  4.4975000000000e+01  1.8750000000000e+01  0.0000000000000e+00 
      24  4.8325000000000e+01  6.2500000000000e+00  0.0000000000000e+00 
      25  4.4975000000000e+01  1.8750000000000e+01  1.0000000000000e+00 
      26  4.8325000000000e+01  6.2500000000000e+00  1.0000000000000e+00 
      27  4.3300000000000e+01  2.5000000000000e+01  0.0000000000000e+00 
      28  5.0000000000000e+01  0.0000000000000e+00  0.0000000000000e+00 
      29  4.3300000000000e+01  2.5000000000000e+01  1.0000000000000e+00 
      30  5.0000000000000e+01  0.0000000000000e+00  1.0000000000000e+00 
      31  5.7475000000000e+01  1.8750000000000e+01  0.0000000000000e+00 
      32  5.9150000000000e+01  1.2500000000000e+01  0.0000000000000e+00 
      33  5.7475000000000e+01  1.8750000000000e+01  1.0000000000000e+00 
      34  5.9150000000000e+01  1.2500000000000e+01  1.0000000000000e+00 
      35  5.5800000000000e+01  2.5000000000000e+01  0.0000000000000e+00 
      36  6.0825000000000e+01  6.2500000000000e+00  0.0000000000000e+00 
      37  5.5800000000000e+01  2.5000000000000e+01  1.0000000000000e+00 
      38  6.0825000000000e+01  6.2500000000000e+00  1.0000000000000e+00 
      39  5.4125000000000e+01  3.1250000000000e+01  0.0000000000000e+00 
      40  6.2500000000000e+01  0.0000000000000e+00  0.0000000000000e+00 
      41  5.4125000000000e+01  3.1250000000000e+01  1.0000000000000e+00 
      42  6.2500000000000e+01  0.0000000000000e+00  1.0000000000000e+00 
      43  6.9975000000000e+01  1.8750000000000e+01  0.0000000000000e+00 
      44  6.9975000000000e+01  1.8750000000000e+01  1.0000000000000e+00 
      45  6.8300000000000e+01  2.5000000000000e+01  0.0000000000000e+00 
      46  7.1650000000000e+01  1.2500000000000e+01  0.0000000000000e+00 
      47  6.8300000000000e+01  2.5000000000000e+01  1.0000000000000e+00 
      48  7.1650000000000e+01  1.2500000000000e+01  1.0000000000000e+00 
      49  6.6625000000000e+01  3.1250000000000e+01  0.0000000000000e+00 
      50  7.3325000000000e+01  6.2500000000000e+00  0.0000000000000e+00 
      51  6.6625000000000e+01  3.1250000000000e+01  1.0000000000000e+00 
      52  7.3325000000000e+01  6.2500000000000e+00  1.0000000000000e+00 
      53  6.4950000000000e+01  3.7500000000000e+01  0.0000000000000e+00 
      54  7.5000000000000e+01  0.0000000000000e+00  0.0000000000000e+00 
      55  6.4950000000000e+01  3.7500000000000e+01  1.0000000000000e+00 
      56  7.5000000000000e+01  0.0000000000000e+00  1.0000000000000e+00 
      57  8.0800000000000e+01  2.5000000000000e+01  0.0000000000000e+00 
      58  8.2475000000000e+01  1.8750000000000e+01  0.0000000000000e+00 
      59  8.0800000000000e+01  2.5000000000000e+01  1.0000000000000e+00 
      60  8.2475000000000e+01  1.8750000000000e+01  1.0000000000000e+00 
      61  7.9125000000000e+01  3.1250000000000e+01  0.0000000000000e+00 
      62  8.4150000000000e+01  1.2500000000000e+01  0.0000000000000e+00 
      63  7.9125000000000e+01  3.1250000000000e+01  1.0000000000000e+00 
      64  8.4150000000000e+01  1.2500000000000e+01  1.0000000000000e+00 
      65  7.7450000000000e+01  3.7500000000000e+01  0.0000000000000e+00 
      66  8.5825000000000e+01  6.2500000000000e+00  0.0000000000000e+00 
      67  7.7450000000000e+01  3.7500000000000e+01  1.0000000000000e+00 
      68  8.5825000000000e+01  6.2500000000000e+00  1.0000000000000e+00 
      69  7.5775000000000e+01  4.3750000000000e+01  0.0000000000000e+00 
      70  8.7500000000000e+01  0.0000000000000e+00  0.0000000000000e+00 
      71  7.5775000000000e+01  4.3750000000000e+01  1.0000000000000e+00 
      72  8.7500000000000e+01  0.0000000000000e+00  1.0000000000000e+00 
      73  9.3300000000000e+01  2.5000000000000e+01  0.0000000000000e+00 
      74  9.3300000000000e+01  2.5000000000000e+01  1.0000000000000e+00 
      75  9.1625000000000e+01  3.1250000000000e+01  0.0000000000000e+00 
      76  9.4975000000000e+01  1.8750000000000e+01  0.0000000000000e+00 
      77  9.1625000000000e+01  3.1250000000000e+01  1.0000000000000e+00 
      78  9.4975000000000e+01  1.8750000000000e+01  1.0000000000000e+00 
      79  8.9950000000000e+01  3.7500000000000e+01  0.0000000000000e+00 
      80  9.6650000000000e+01  1.2500000000000e+01  0.0000000000000e+00 
      81  8.9950000000000e+01  3.7500000000000e+01  1.0000000000000e+00 
      82  9.6650000000000e+01  1.2500000000000e+01  1.0000000000000e+00 
      83  8.8275000000000e+01  4.3750000000000e+01  0.0000000000000e+00 
      84  9.8325000000000e+01  6.2500000000000e+00  0.0000000000000e+00 
      85  8.8275000000000e+01  4.3750000000000e+01  1.0000000000000e+00 
      86  9.8325000000000e+01  6.2500000000000e+00  1.0000000000000e+00 
      87  8.6600000000000e+01  5.0000000000000e+01  0.0000000000000e+00 
      88  1.0000000000000e+02  0.0000000000000e+00  0.0000000000000e+00 
      89  8.6600000000000e+01  5.0000000000000e+01  1.0000000000000e+00 
      90  1.0000000000000e+02  0.0000000000000e+00  1.0000000000000e+00 
      91  1.0412500000000e+02  3.1250000000000e+01  0.0000000000000e+00 
      92  1.0580000000000e+02  2.5000000000000e+01  0.0000000000000e+00 
      93  1.0412500000000e+02  3.1250000000000e+01  1.0000000000000e+00 
      94  1.0580000000000e+02  2.5000000000000e+01  1.0000000000000e+00 
      95  1.0245000000000e+02  3.7500000000000e+01  0.0000000000000e+00 
      96  1.0747500000000e+02  1.8750000000000e+01  0.0000000000000e+00 
      97  1.0245000000000e+02  3.7500000000000e+01  1.0000000000000e+00 
      98  1.0747500000000e+02  1.8750000000000e+01  1.0000000000000e+00 
      99  1.0077500000000e+02  4.3750000000000e+01  0.0000000000000e+00 
     100  1.0915000000000e+02  1.2500000000000e+01  0.0000000000000e+00 
     101  1.0077500000000e+02  4.3750000000000e+01  1.0000000000000e+00 
     102  1.0915000000000e+02  1.2500000000000e+01  1.0000000000000e+00 
     103  9.9100000000000e+01  5.0000000000000e+01  0.0000000000000e+00 
     104  1.1082500000000e+02  6.2500000000000e+00  0.0000000000000e+00 
     105  9.9100000000000e+01  5.0000000000000e+01  1.0000000000000e+00 
     106  1.1082500000000e+02  6.2500000000000e+00  1.0000000000000e+00 
     107  1.1662500000000e+02  3.1250000000000e+01  0.0000000000000e+00 
     108  1.1662500000000e+02  3.1250000000000e+01  1.0000000000000e+00 
     109  1.1495000000000e+02  3.7500000000000e+01  0.0000000000000e+00 
     110  1.1830000000000e+02  2.5000000000000e+01  0.0000000000000e+00 
     111  1.1495000000000e+02  3.7500000000000e+01  1.0000000000000e+00 
     112  1.1830000000000e+02  2.5000000000000e+01  1.0000000000000e+00 
     113  1.1327500000000e+02  4.3750000000000e+01  0.0000000000000e+00 
     114  1.1997500000000e+02  1.8750000000000e+01  0.0000000000000e+00 
     115  1.1327500000000e+02  4.3750000000000e+01  1.0000000000000e+00 
     116  1.1997500000000e+02  1.8750000000000e+01  1.0000000000000e+00 
     117  1.1160000000000e+02  5.0000000000000e+01  0.0000000000000e+00 
     118  1.2165000000000e+02  1.2500000000000e+01  0.0000000000000e+00 
     119  1.1160000000000e+02  5.0000000000000e+01  1.0000000000000e+00 
     120  1.2165000000000e+02  1.2500000000000e+01  1.0000000000000e+00 
     121  1.2745000000000e+02  3.7500000000000e+01  0.0000000000000e+00 
     122  1.2912500000000e+02  3.1250000000000e+01  0.0000000000000e+00 
     123  1.2745000000000e+02  3.7500000000000e+01  1.0000000000000e+00 
     124  1.2912500000000e+02  3.1250000000000e+01  1.0000000000000e+00 
     125  1.2577500000000e+02  4.3750000000000e+01  0.0000000000000e+00 
     126  1.3080000000000e+02  2.5000000000000e+01  0.0000000000000e+00 
     127  1.2577500000000e+02  4.3750000000000e+01  1.0000000000000e+00 
     128  1.3080000000000e+02  2.5000000000000e+01  1.0000000000000e+00 
     129  1.2410000000000e+02  5.0000000000000e+01  0.0000000000000e+00 
     130  1.3247500000000e+02  1.8750000000000e+01  0.0000000000000e+00 
     131  1.2410000000000e+02  5.0000000000000e+01  1.0000000000000e+00 
     132  1.3247500000000e+02  1.8750000000000e+01  1.0000000000000e+00 
     133  1.3995000000000e+02  3.7500000000000e+01  0.0000000000000e+00 
     134  1.3995000000000e+02  3.7500000000000e+01  1.0000000000000e+00 
     135  1.3827500000000e+02  4.3750000000000e+01  0.0000000000000e+00 
     136  1.4162500000000e+02  3.1250000000000e+01  0.0000000000000e+00 
     137  1.3827500000000e+02  4.3750000000000e+01  1.0000000000000e+00 
     138  1.4162500000000e+02  3.1250000000000e+01  1.0000000000000e+00 
     139  1.3660000000000e+02  5.0000000000000e+01  0.0000000000000e+00 
     140  1.4330000000000e+02  2.5000000000000e+01  0.0000000000000e+00 
     141  1.3660000000000e+02  5.0000000000000e+01  1.0000000000000e+00 
     142  1.4330000000000e+02  2.5000000000000e+01  1.0000000000000e+00 
     143  1.5077500000000e+02  4.3750000000000e+01  0.0000000000000e+00 
     144  1.5245000000000e+02  3.7500000000000e+01  0.0000000000000e+00 
     145  1.5077500000000e+02  4.3750000000000e+01  1.0000000000000e+00 
     146  1.5245000000000e+02  3.7500000000000e+01  1.0000000000000e+00 
     147  1.4910000000000e+02  5.0000000000000e+01  0.0000000000000e+00 
     148  1.5412500000000e+02  3.1250000000000e+01  0.0000000000000e+00 
     149  1.4910000000000e+02  5.0000000000000e+01  1.0000000000000e+00 
     150  1.5412500000000e+02  3.1250000000000e+01  1.0000000000000e+00 
     151  1.6327500000000e+02  4.3750000000000e+01  0.0000000000000e+00 
     152  1.6327500000000e+02  4.3750000000000e+01  1.0000000000000e+00 
     153  1.6160000000000e+02  5.0000000000000e+01  0.0000000000000e+00 
     154  1.6495000000000e+02  3.7500000000000e+01  0.0000000000000e+00 
     155  1.6160000000000e+02  5.0000000000000e+01  1.0000000000000e+00 
     156  1.6495000000000e+02  3.7500000000000e+01  1.0000000000000e+00 
     157  1.7410000000000e+02  5.0000000000000e+01  0.0000000000000e+00 
     158  1.7577500000000e+02  4.3750000000000e+01  0.0000000000000e+00 
     159  1.7410000000000e+02  5.0000000000000e+01  1.0000000000000e+00 
     160  1.7577500000000e+02  4.3750000000000e+01  1.0000000000000e+00 
     161  1.8660000000000e+02  5.0000000000000e+01  0.0000000000000e+00 
     162  1.8660000000000e+02  5.0000000000000e+01  1.0000000000000e+00 


[1D Elements]
#ElemNr  ElemType  NrOfNodes  Level
#Node1 Node2 ... NodeNrOfNodes

[2D Elements]
#ElemNr  ElemType  NrOfNodes  Level
#Node1 Node2 ... NodeNrOfNodes
65 6 4 pload
20 26 38 30
66 6 4 pload
12 16 26 20
67 6 4 pload
6 8 16 12
68 6 4 pload
2 5 8 6
69 6 4 pload
26 34 48 38
70 6 4 pload
16 22 34 26
71 6 4 pload
8 15 22 16
72 6 4 pload
5 11 15 8
73 6 4 pload
34 44 60 48
74 6 4 pload
22 33 44 34
75 6 4 pload
15 25 33 22
76 6 4 pload
11 19 25 15
77 6 4 pload
44 59 74 60
78 6 4 pload
33 47 59 44
79 6 4 pload
25 37 47 33
80 6 4 pload
19 29 37 25
81 6 4 pload
94 78 60 74
82 6 4 pload
112 98 78 94
83 6 4 pload
128 116 98 112
84 6 4 pload
142 132 116 128
85 6 4 pload
78 64 48 60
86 6 4 pload
98 82 64 78
87 6 4 pload
116 102 82 98
88 6 4 pload
132 120 102 116
89 6 4 pload
64 52 38 48
90 6 4 pload
82 68 52 64
91 6 4 pload
102 86 68 82
92 6 4 pload
120 106 86 102
93 6 4 pload
52 42 30 38
94 6 4 pload
68 56 42 52
95 6 4 pload
86 72 56 68
96 6 4 pload
106 90 72 86
97 6 4 pload
59 77 93 74
98 6 4 pload
47 63 77 59
99 6 4 pload
37 51 63 47
100 6 4 pload
29 41 51 37
101 6 4 pload
77 97 111 93
102 6 4 pload
63 81 97 77
103 6 4 pload
51 67 81 63
104 6 4 pload
41 55 67 51
105 6 4 pload
97 115 127 111
106 6 4 pload
81 101 115 97
107 6 4 pload
67 85 101 81
108 6 4 pload
55 71 85 67
109 6 4 pload
115 131 141 127
110 6 4 pload
101 119 131 115
111 6 4 pload
85 105 119 101
112 6 4 pload
71 89 105 85
113 6 4 pload
128 138 150 142
114 6 4 pload
112 124 138 128
115 6 4 pload
94 108 124 112
116 6 4 pload
74 93 108 94
117 6 4 pload
138 146 156 150
118 6 4 pload
124 134 146 138
119 6 4 pload
108 123 134 124
120 6 4 pload
93 111 123 108
121 6 4 pload
146 152 160 156
122 6 4 pload
134 145 152 146
123 6 4 pload
123 137 145 134
124 6 4 pload
111 127 137 123
125 6 4 pload
152 159 162 160
126 6 4 pload
145 155 159 152
127 6 4 pload
137 149 155 145
128 6 4 pload
127 141 149 137


[3D Elements]
#ElemNr  ElemType  NrOfNodes  Level
#Node1 Node2 ... NodeNrOfNodes
1 10 8 plate1
8 5 3 7 6 2 1 4
2 10 8 plate1
16 8 7 14 12 6 4 10
3 10 8 plate1
26 16 14 24 20 12 10 18
4 10 8 plate1
38 26 24 36 30 20 18 28
5 10 8 plate1
15 11 9 13 8 5 3 7
6 10 8 plate1
22 15 13 21 16 8 7 14
7 10 8 plate1
34 22 21 32 26 16 14 24
8 10 8 plate1
48 34 32 46 38 26 24 36
9 10 8 plate1
25 19 17 23 15 11 9 13
10 10 8 plate1
33 25 23 31 22 15 13 21
11 10 8 plate1
44 33 31 43 34 22 21 32
12 10 8 plate1
60 44 43 58 48 34 32 46
13 10 8 plate1
37 29 27 35 25 19 17 23
14 10 8 plate1
47 37 35 45 33 25 23 31
15 10 8 plate1
59 47 45 57 44 33 31 43
16 10 8 plate1
74 59 57 73 60 44 43 58
17 10 8 plate1
116 132 130 114 128 142 140 126
18 10 8 plate1
98 116 114 96 112 128 126 110
19 10 8 plate1
78 98 96 76 94 112 110 92
20 10 8 plate1
60 78 76 58 74 94 92 73
21 10 8 plate1
102 120 118 100 116 132 130 114
22 10 8 plate1
82 102 100 80 98 116 114 96
23 10 8 plate1
64 82 80 62 78 98 96 76
24 10 8 plate1
48 64 62 46 60 78 76 58
25 10 8 plate1
86 106 104 84 102 120 118 100
26 10 8 plate1
68 86 84 66 82 102 100 80
27 10 8 plate1
52 68 66 50 64 82 80 62
28 10 8 plate1
38 52 50 36 48 64 62 46
29 10 8 plate1
72 90 88 70 86 106 104 84
30 10 8 plate1
56 72 70 54 68 86 84 66
31 10 8 plate1
42 56 54 40 52 68 66 50
32 10 8 plate1
30 42 40 28 38 52 50 36
33 10 8 plate1
51 41 39 49 37 29 27 35
34 10 8 plate1
63 51 49 61 47 37 35 45
35 10 8 plate1
77 63 61 75 59 47 45 57
36 10 8 plate1
93 77 75 91 74 59 57 73
37 10 8 plate1
67 55 53 65 51 41 39 49
38 10 8 plate1
81 67 65 79 63 51 49 61
39 10 8 plate1
97 81 79 95 77 63 61 75
40 10 8 plate1
111 97 95 109 93 77 75 91
41 10 8 plate1
85 71 69 83 67 55 53 65
42 10 8 plate1
101 85 83 99 81 67 65 79
43 10 8 plate1
115 101 99 113 97 81 79 95
44 10 8 plate1
127 115 113 125 111 97 95 109
45 10 8 plate1
105 89 87 103 85 71 69 83
46 10 8 plate1
119 105 103 117 101 85 83 99
47 10 8 plate1
131 119 117 129 115 101 99 113
48 10 8 plate1
141 131 129 139 127 115 113 125
49 10 8 plate1
108 93 91 107 94 74 73 92
50 10 8 plate1
124 108 107 122 112 94 92 110
51 10 8 plate1
138 124 122 136 128 112 110 126
52 10 8 plate1
150 138 136 148 142 128 126 140
53 10 8 plate1
123 111 109 121 108 93 91 107
54 10 8 plate1
134 123 121 133 124 108 107 122
55 10 8 plate1
146 134 133 144 138 124 122 136
56 10 8 plate1
156 146 144 154 150 138 136 148
57 10 8 plate1
137 127 125 135 123 111 109 121
58 10 8 plate1
145 137 135 143 134 123 121 133
59 10 8 plate1
152 145 143 151 146 134 133 144
60 10 8 plate1
160 152 151 158 156 146 144 154
61 10 8 plate1
149 141 139 147 137 127 125 135
62 10 8 plate1
155 149 147 153 145 137 135 143
63 10 8 plate1
159 155 153 157 152 145 143 151
64 10 8 plate1
162 159 157 161 160 152 151 158

[Node BC]
#NodeNr Level
74 save1
1 fix-all
10 fix-all
103 fix-all
104 fix-all
117 fix-all
118 fix-all
129 fix-all
130 fix-all
139 fix-all
140 fix-all
147 fix-all
148 fix-all
153 fix-all
154 fix-all
157 fix-all
158 fix-all
161 fix-all
17 fix-all
18 fix-all
27 fix-all
28 fix-all
3 fix-all
39 fix-all
4 fix-all
40 fix-all
53 fix-all
54 fix-all
69 fix-all
70 fix-all
87 fix-all
88 fix-all
9 fix-all

[Save Nodes]
#NodeNr Level


[Save Elements]
#ElemNr Level

